[
  {
    "link_thumb": "https://live.staticflickr.com/65535/50039686542_ba11470d97_n.jpg",
    "id_album": "406431601",
    "description": "Building_835703",
    "title": "Building_835703",
    "link_img": "https://live.staticflickr.com/65535/50039686542_71ba98f8ca_o.jpg",
    "id_image": "Building_835703",
    "count_view": 0
  },
  {
    "link_thumb": "https://live.staticflickr.com/65535/50039783471_07be10e97a_n.jpg",
    "id_album": "-1610342324",
    "description": "Nebula_289247",
    "title": "Nebula_289247",
    "link_img": "https://live.staticflickr.com/65535/50039783471_44680fd528_o.jpg",
    "id_image": "Nebula_289247",
    "count_view": 0
  },
  {
    "link_thumb": "https://live.staticflickr.com/65535/50039383321_925f5ec24a_n.jpg",
    "id_album": "869545341",
    "description": "Astronaut_950863",
    "title": "Astronaut_950863",
    "link_img": "https://live.staticflickr.com/65535/50039383321_d03b4ed0cd_o.jpg",
    "id_image": "Astronaut_950863",
    "count_view": 0
  },
  {
    "link_thumb": "https://live.staticflickr.com/65535/50039939271_fb5865aeb2_n.jpg",
    "id_album": "395161030",
    "description": "Planet_374843",
    "title": "Planet_374843",
    "link_img": "https://live.staticflickr.com/65535/50039939271_cabbc2f850_o.jpg",
    "id_image": "Planet_374843",
    "count_view": 0
  },
  {
    "link_thumb": "https://live.staticflickr.com/65535/50038873063_76496d0ef3_n.jpg",
    "id_album": "406431601",
    "description": "Building_405546",
    "title": "Building_405546",
    "link_img": "https://live.staticflickr.com/65535/50038873063_605146dc18_o.jpg",
    "id_image": "Building_405546",
    "count_view": 0
  },
  {
    "link_thumb": "https://live.staticflickr.com/65535/50040996078_225a6a7d80_n.jpg",
    "id_album": "-1126835654",
    "description": "Women_880586",
    "title": "Women_880586",
    "link_img": "https://live.staticflickr.com/65535/50040996078_ce575d81a3_o.jpg",
    "id_image": "Women_880586",
    "count_view": 0
  },
  {
    "link_thumb": "https://live.staticflickr.com/65535/50039172588_daac72dca9_n.jpg",
    "id_album": "1402713104",
    "description": "Landscape_913066",
    "title": "Landscape_913066",
    "link_img": "https://live.staticflickr.com/65535/50039172588_96e300c7ce_o.jpg",
    "id_image": "Landscape_913066",
    "count_view": 0
  },
  {
    "link_thumb": "https://live.staticflickr.com/65535/50039524761_1144662c94_n.jpg",
    "id_album": "-1964113117",
    "description": "City_942082",
    "title": "City_942082",
    "link_img": "https://live.staticflickr.com/65535/50039524761_5660ed6f56_o.jpg",
    "id_image": "City_942082",
    "count_view": 0
  },
  {
    "link_thumb": "https://live.staticflickr.com/65535/50039711652_de42631830_n.jpg",
    "id_album": "-1964113117",
    "description": "City_220573",
    "title": "City_220573",
    "link_img": "https://live.staticflickr.com/65535/50039711652_84f5ddca1e_o.jpg",
    "id_image": "City_220573",
    "count_view": 0
  },
  {
    "link_thumb": "https://live.staticflickr.com/65535/50039356306_35f3681bc2_n.jpg",
    "id_album": "869545341",
    "description": "Astronaut_529979",
    "title": "Astronaut_529979",
    "link_img": "https://live.staticflickr.com/65535/50039356306_4b2d3df63d_o.jpg",
    "id_image": "Astronaut_529979",
    "count_view": 0
  },
  {
    "link_thumb": "https://live.staticflickr.com/65535/50041269281_d02eac25a0_n.jpg",
    "id_album": "-1587696329",
    "description": "Stars_442533",
    "title": "Stars_442533",
    "link_img": "https://live.staticflickr.com/65535/50041269281_b3ab716c7d_o.jpg",
    "id_image": "Stars_442533",
    "count_view": 0
  },
  {
    "link_thumb": "https://live.staticflickr.com/65535/50039083623_2ababcde74_n.jpg",
    "id_album": "1204249541",
    "description": "Galaxy_418328",
    "title": "Galaxy_418328",
    "link_img": "https://live.staticflickr.com/65535/50039083623_3abe5ae39e_o.jpg",
    "id_image": "Galaxy_418328",
    "count_view": 0
  },
  {
    "link_thumb": "https://live.staticflickr.com/65535/50039744402_c005e08fce_n.jpg",
    "id_album": "-1964113117",
    "description": "City_616606",
    "title": "City_616606",
    "link_img": "https://live.staticflickr.com/65535/50039744402_dfae4d8c72_o.jpg",
    "id_image": "City_616606",
    "count_view": 0
  },
  {
    "link_thumb": "https://live.staticflickr.com/65535/50039467471_6973dd4c9c_n.jpg",
    "id_album": "-1964113117",
    "description": "City_386878",
    "title": "City_386878",
    "link_img": "https://live.staticflickr.com/65535/50039467471_033f7e8876_o.jpg",
    "id_image": "City_386878",
    "count_view": 0
  },
  {
    "link_thumb": "https://live.staticflickr.com/65535/50039419181_7a225039e8_n.jpg",
    "id_album": "-1780971522",
    "description": "Biohazard_577358",
    "title": "Biohazard_577358",
    "link_img": "https://live.staticflickr.com/65535/50039419181_de17edbd4d_o.jpg",
    "id_image": "Biohazard_577358",
    "count_view": 0
  },
  {
    "link_thumb": "https://live.staticflickr.com/65535/50040670242_66e0a7aeb7_n.jpg",
    "id_album": "779690680",
    "description": "Robot_909550",
    "title": "Robot_909550",
    "link_img": "https://live.staticflickr.com/65535/50040670242_c7183a6df8_o.jpg",
    "id_image": "Robot_909550",
    "count_view": 0
  },
  {
    "link_thumb": "https://live.staticflickr.com/65535/50040499822_9c9c1d7a44_n.jpg",
    "id_album": "-482547208",
    "description": "PostApocalyptic_969091",
    "title": "PostApocalyptic_969091",
    "link_img": "https://live.staticflickr.com/65535/50040499822_9cee81a89c_o.jpg",
    "id_image": "PostApocalyptic_969091",
    "count_view": 0
  },
  {
    "link_thumb": "https://live.staticflickr.com/65535/50041153411_f44de4ff2b_n.jpg",
    "id_album": "-1863373220",
    "description": "StarWars_245460",
    "title": "StarWars_245460",
    "link_img": "https://live.staticflickr.com/65535/50041153411_06e2856132_o.jpg",
    "id_image": "StarWars_245460",
    "count_view": 0
  },
  {
    "link_thumb": "https://live.staticflickr.com/65535/50039136608_811a56867d_n.jpg",
    "id_album": "1402713104",
    "description": "Landscape_390838",
    "title": "Landscape_390838",
    "link_img": "https://live.staticflickr.com/65535/50039136608_46b3b34040_o.jpg",
    "id_image": "Landscape_390838",
    "count_view": 0
  },
  {
    "link_thumb": "https://live.staticflickr.com/65535/50039896287_b02642c418_n.jpg",
    "id_album": "1204249541",
    "description": "Galaxy_426478",
    "title": "Galaxy_426478",
    "link_img": "https://live.staticflickr.com/65535/50039896287_225909b7e5_o.jpg",
    "id_image": "Galaxy_426478",
    "count_view": 0
  },
  {
    "link_thumb": "https://live.staticflickr.com/65535/50040756872_a3ddda2857_n.jpg",
    "id_album": "1613540653",
    "description": "Space_324437",
    "title": "Space_324437",
    "link_img": "https://live.staticflickr.com/65535/50040756872_626022ae5e_o.jpg",
    "id_image": "Space_324437",
    "count_view": 0
  },
  {
    "link_thumb": "https://live.staticflickr.com/65535/50039607238_b3a40020fd_n.jpg",
    "id_album": "376235057",
    "description": "Planetscape_290160",
    "title": "Planetscape_290160",
    "link_img": "https://live.staticflickr.com/65535/50039607238_927e1c9b80_o.jpg",
    "id_image": "Planetscape_290160",
    "count_view": 0
  },
  {
    "link_thumb": "https://live.staticflickr.com/65535/50040328097_906344b1be_n.jpg",
    "id_album": "-1102314093",
    "description": "Planets_244606",
    "title": "Planets_244606",
    "link_img": "https://live.staticflickr.com/65535/50040328097_61757a2500_o.jpg",
    "id_image": "Planets_244606",
    "count_view": 0
  },
  {
    "link_thumb": "https://live.staticflickr.com/65535/50038725658_434f282407_n.jpg",
    "id_album": "849020728",
    "description": "Alien_709717",
    "title": "Alien_709717",
    "link_img": "https://live.staticflickr.com/65535/50038725658_beea5bb32c_o.jpg",
    "id_image": "Alien_709717",
    "count_view": 0
  },
  {
    "link_thumb": "https://live.staticflickr.com/65535/50039120743_9b78dc3e50_n.jpg",
    "id_album": "1402713104",
    "description": "Landscape_282105",
    "title": "Landscape_282105",
    "link_img": "https://live.staticflickr.com/65535/50039120743_8f603d0e39_o.jpg",
    "id_image": "Landscape_282105",
    "count_view": 0
  },
  {
    "link_thumb": "https://live.staticflickr.com/65535/50039681727_98a2a182da_n.jpg",
    "id_album": "-1780971522",
    "description": "Biohazard_584230",
    "title": "Biohazard_584230",
    "link_img": "https://live.staticflickr.com/65535/50039681727_5d4a865707_o.jpg",
    "id_image": "Biohazard_584230",
    "count_view": 0
  },
  {
    "link_thumb": "https://live.staticflickr.com/65535/50039886737_94af319445_n.jpg",
    "id_album": "1204249541",
    "description": "Galaxy_107614",
    "title": "Galaxy_107614",
    "link_img": "https://live.staticflickr.com/65535/50039886737_dfc9497c61_o.jpg",
    "id_image": "Galaxy_107614",
    "count_view": 0
  },
  {
    "link_thumb": "https://live.staticflickr.com/65535/50039468168_be22fd8e7f_n.jpg",
    "id_album": "814701616",
    "description": "PlanetaryRing_121703",
    "title": "PlanetaryRing_121703",
    "link_img": "https://live.staticflickr.com/65535/50039468168_bccb9559d8_o.jpg",
    "id_image": "PlanetaryRing_121703",
    "count_view": 0
  },
  {
    "link_thumb": "https://live.staticflickr.com/65535/50040517371_57f6ec1a72_n.jpg",
    "id_album": "1613540653",
    "description": "Space_608291",
    "title": "Space_608291",
    "link_img": "https://live.staticflickr.com/65535/50040517371_ef16e7cba1_o.jpg",
    "id_image": "Space_608291",
    "count_view": 0
  },
  {
    "link_thumb": "https://live.staticflickr.com/65535/50039353636_7b02420333_n.jpg",
    "id_album": "869545341",
    "description": "Astronaut_328456",
    "title": "Astronaut_328456",
    "link_img": "https://live.staticflickr.com/65535/50039353636_771ee647ea_o.jpg",
    "id_image": "Astronaut_328456",
    "count_view": 0
  },
  {
    "link_thumb": "https://live.staticflickr.com/65535/50039790502_50548e0477_n.jpg",
    "id_album": "-1964113117",
    "description": "City_968741",
    "title": "City_968741",
    "link_img": "https://live.staticflickr.com/65535/50039790502_57b95a9c9a_o.jpg",
    "id_image": "City_968741",
    "count_view": 0
  },
  {
    "link_thumb": "https://live.staticflickr.com/65535/50040193403_dcc3520567_n.jpg",
    "id_album": "2130067313",
    "description": "Spaceship_744907",
    "title": "Spaceship_744907",
    "link_img": "https://live.staticflickr.com/65535/50040193403_030f9ea36b_o.jpg",
    "id_image": "Spaceship_744907",
    "count_view": 0
  },
  {
    "link_thumb": "https://live.staticflickr.com/65535/50041273821_2326b25e60_n.jpg",
    "id_album": "-1587696329",
    "description": "Stars_547703",
    "title": "Stars_547703",
    "link_img": "https://live.staticflickr.com/65535/50041273821_bca88e8b62_o.jpg",
    "id_image": "Stars_547703",
    "count_view": 0
  },
  {
    "link_thumb": "https://live.staticflickr.com/65535/50039609386_c1f1bb0132_n.jpg",
    "id_album": "651930207",
    "description": "Explosion_346591",
    "title": "Explosion_346591",
    "link_img": "https://live.staticflickr.com/65535/50039609386_5e1a46bf28_o.jpg",
    "id_image": "Explosion_346591",
    "count_view": 0
  },
  {
    "link_thumb": "https://live.staticflickr.com/65535/50039870548_5a38cfcf28_n.jpg",
    "id_album": "779690680",
    "description": "Robot_928592",
    "title": "Robot_928592",
    "link_img": "https://live.staticflickr.com/65535/50039870548_fa55d0ceac_o.jpg",
    "id_image": "Robot_928592",
    "count_view": 0
  },
  {
    "link_thumb": "https://live.staticflickr.com/65535/50039351943_8ed6cf43fa_n.jpg",
    "id_album": "395161030",
    "description": "Planet_1007217",
    "title": "Planet_1007217",
    "link_img": "https://live.staticflickr.com/65535/50039351943_05117fc99e_o.jpg",
    "id_image": "Planet_1007217",
    "count_view": 0
  },
  {
    "link_thumb": "https://live.staticflickr.com/65535/50040462237_eab648c418_n.jpg",
    "id_album": "-482547208",
    "description": "PostApocalyptic_231176",
    "title": "PostApocalyptic_231176",
    "link_img": "https://live.staticflickr.com/65535/50040462237_78e22231ac_o.jpg",
    "id_image": "PostApocalyptic_231176",
    "count_view": 0
  },
  {
    "link_thumb": "https://live.staticflickr.com/65535/50039093978_66d1edf96c_n.jpg",
    "id_album": "1204249541",
    "description": "Galaxy_558954",
    "title": "Galaxy_558954",
    "link_img": "https://live.staticflickr.com/65535/50039093978_b096ae0cb4_o.jpg",
    "id_image": "Galaxy_558954",
    "count_view": 0
  },
  {
    "link_thumb": "https://live.staticflickr.com/65535/50039732108_ae1ce57ac5_n.jpg",
    "id_album": "779690680",
    "description": "Robot_307407",
    "title": "Robot_307407",
    "link_img": "https://live.staticflickr.com/65535/50039732108_a9c1aea53e_o.jpg",
    "id_image": "Robot_307407",
    "count_view": 0
  },
  {
    "link_thumb": "https://live.staticflickr.com/65535/50039521777_65efd09eab_n.jpg",
    "id_album": "849020728",
    "description": "Alien_304658",
    "title": "Alien_304658",
    "link_img": "https://live.staticflickr.com/65535/50039521777_4640f500b3_o.jpg",
    "id_image": "Alien_304658",
    "count_view": 0
  },
  {
    "link_thumb": "https://live.staticflickr.com/65535/50040863763_fb7e8a5d25_n.jpg",
    "id_album": "2020068132",
    "description": "Vehicle_879546",
    "title": "Vehicle_879546",
    "link_img": "https://live.staticflickr.com/65535/50040863763_86b7b69a0c_o.jpg",
    "id_image": "Vehicle_879546",
    "count_view": 0
  },
  {
    "link_thumb": "https://live.staticflickr.com/65535/50040614846_4f78bf3628_n.jpg",
    "id_album": "2130067313",
    "description": "Spaceship_269279",
    "title": "Spaceship_269279",
    "link_img": "https://live.staticflickr.com/65535/50040614846_38098d3b28_o.jpg",
    "id_image": "Spaceship_269279",
    "count_view": 0
  },
  {
    "link_thumb": "https://live.staticflickr.com/65535/50039772386_76823ea5f4_n.jpg",
    "id_album": "-1610342324",
    "description": "Nebula_220995",
    "title": "Nebula_220995",
    "link_img": "https://live.staticflickr.com/65535/50039772386_0181b673b4_o.jpg",
    "id_image": "Nebula_220995",
    "count_view": 0
  },
  {
    "link_thumb": "https://live.staticflickr.com/65535/50040030977_8a31a7ced4_n.jpg",
    "id_album": "-1610342324",
    "description": "Nebula_19652",
    "title": "Nebula_19652",
    "link_img": "https://live.staticflickr.com/65535/50040030977_2db422affe_o.jpg",
    "id_image": "Nebula_19652",
    "count_view": 0
  },
  {
    "link_thumb": "https://live.staticflickr.com/65535/50040247571_d5a6a49a25_n.jpg",
    "id_album": "779690680",
    "description": "Robot_1002798",
    "title": "Robot_1002798",
    "link_img": "https://live.staticflickr.com/65535/50040247571_baf5c2df49_o.jpg",
    "id_image": "Robot_1002798",
    "count_view": 0
  },
  {
    "link_thumb": "https://live.staticflickr.com/65535/50039550986_774572321e_n.jpg",
    "id_album": "-437872736",
    "description": "Creature_321082",
    "title": "Creature_321082",
    "link_img": "https://live.staticflickr.com/65535/50039550986_eb8f2a33a5_o.jpg",
    "id_image": "Creature_321082",
    "count_view": 0
  },
  {
    "link_thumb": "https://live.staticflickr.com/65535/50039647438_fc7f3a1f02_n.jpg",
    "id_album": "-482547208",
    "description": "PostApocalyptic_239848",
    "title": "PostApocalyptic_239848",
    "link_img": "https://live.staticflickr.com/65535/50039647438_817d5f98aa_o.jpg",
    "id_image": "PostApocalyptic_239848",
    "count_view": 0
  },
  {
    "link_thumb": "https://live.staticflickr.com/65535/50040253778_94ae445d81_n.jpg",
    "id_album": "-1449720967",
    "description": "StarTrek_207897",
    "title": "StarTrek_207897",
    "link_img": "https://live.staticflickr.com/65535/50040253778_3a8d36fd68_o.jpg",
    "id_image": "StarTrek_207897",
    "count_view": 0
  },
  {
    "link_thumb": "https://live.staticflickr.com/65535/50040760477_4178f05227_n.jpg",
    "id_album": "1613540653",
    "description": "Space_330721",
    "title": "Space_330721",
    "link_img": "https://live.staticflickr.com/65535/50040760477_9062783c13_o.jpg",
    "id_image": "Space_330721",
    "count_view": 0
  },
  {
    "link_thumb": "https://live.staticflickr.com/65535/50041031973_7344e121cd_n.jpg",
    "id_album": "-1675918237",
    "description": "WomenWarrior_629981",
    "title": "WomenWarrior_629981",
    "link_img": "https://live.staticflickr.com/65535/50041031973_2416a8cc27_o.jpg",
    "id_image": "WomenWarrior_629981",
    "count_view": 0
  },
  {
    "link_thumb": "https://live.staticflickr.com/65535/50041700552_815a0f6826_n.jpg",
    "id_album": "-1261420436",
    "description": "Warrior_238424",
    "title": "Warrior_238424",
    "link_img": "https://live.staticflickr.com/65535/50041700552_cf751f55bb_o.jpg",
    "id_image": "Warrior_238424",
    "count_view": 0
  },
  {
    "link_thumb": "https://live.staticflickr.com/65535/50038767003_8b030a6453_n.jpg",
    "id_album": "523598895",
    "description": "Artistic_212238",
    "title": "Artistic_212238",
    "link_img": "https://live.staticflickr.com/65535/50038767003_c1cfb7b88d_o.jpg",
    "id_image": "Artistic_212238",
    "count_view": 0
  },
  {
    "link_thumb": "https://live.staticflickr.com/65535/50040598656_64edffbc6a_n.jpg",
    "id_album": "2130067313",
    "description": "Spaceship_209958",
    "title": "Spaceship_209958",
    "link_img": "https://live.staticflickr.com/65535/50040598656_80826f7c3c_o.jpg",
    "id_image": "Spaceship_209958",
    "count_view": 0
  },
  {
    "link_thumb": "https://live.staticflickr.com/65535/50039553217_04f8c828ed_n.jpg",
    "id_album": "523598895",
    "description": "Artistic_103853",
    "title": "Artistic_103853",
    "link_img": "https://live.staticflickr.com/65535/50039553217_7a0d894b0b_o.jpg",
    "id_image": "Artistic_103853",
    "count_view": 0
  },
  {
    "link_thumb": "https://live.staticflickr.com/65535/50039926472_1d75582d97_n.jpg",
    "id_album": "1402713104",
    "description": "Landscape_178341",
    "title": "Landscape_178341",
    "link_img": "https://live.staticflickr.com/65535/50039926472_6cc1e2a5af_o.jpg",
    "id_image": "Landscape_178341",
    "count_view": 0
  },
  {
    "link_thumb": "https://live.staticflickr.com/65535/50039739407_c6aaa83ccf_n.jpg",
    "id_album": "-1964113117",
    "description": "City_546232",
    "title": "City_546232",
    "link_img": "https://live.staticflickr.com/65535/50039739407_fdd3fce766_o.jpg",
    "id_image": "City_546232",
    "count_view": 0
  },
  {
    "link_thumb": "https://live.staticflickr.com/65535/50040325577_b3cd823c64_n.jpg",
    "id_album": "-1102314093",
    "description": "Planets_230082",
    "title": "Planets_230082",
    "link_img": "https://live.staticflickr.com/65535/50040325577_09d41c5938_o.jpg",
    "id_image": "Planets_230082",
    "count_view": 0
  },
  {
    "link_thumb": "https://live.staticflickr.com/65535/50040714458_0d99f10ec3_n.jpg",
    "id_album": "-1587696329",
    "description": "Stars_438994",
    "title": "Stars_438994",
    "link_img": "https://live.staticflickr.com/65535/50040714458_7c5f042b8c_o.jpg",
    "id_image": "Stars_438994",
    "count_view": 0
  },
  {
    "link_thumb": "https://live.staticflickr.com/65535/50038933013_1dcf5d728a_n.jpg",
    "id_album": "-1964113117",
    "description": "City_616580",
    "title": "City_616580",
    "link_img": "https://live.staticflickr.com/65535/50038933013_d52691ccf8_o.jpg",
    "id_image": "City_616580",
    "count_view": 0
  },
  {
    "link_thumb": "https://live.staticflickr.com/65535/50038866418_ea82d2e570_n.jpg",
    "id_album": "-1780971522",
    "description": "Biohazard_494276",
    "title": "Biohazard_494276",
    "link_img": "https://live.staticflickr.com/65535/50038866418_19708d22f8_o.jpg",
    "id_image": "Biohazard_494276",
    "count_view": 0
  },
  {
    "link_thumb": "https://live.staticflickr.com/65535/50039870392_f09f20aaf3_n.jpg",
    "id_album": "651930207",
    "description": "Explosion_225990",
    "title": "Explosion_225990",
    "link_img": "https://live.staticflickr.com/65535/50039870392_02ac62cb82_o.jpg",
    "id_image": "Explosion_225990",
    "count_view": 0
  },
  {
    "link_thumb": "https://live.staticflickr.com/65535/50041485151_ac84a4dd49_n.jpg",
    "id_album": "-1261420436",
    "description": "Warrior_712806",
    "title": "Warrior_712806",
    "link_img": "https://live.staticflickr.com/65535/50041485151_6bda33f0c0_o.jpg",
    "id_image": "Warrior_712806",
    "count_view": 0
  },
  {
    "link_thumb": "https://live.staticflickr.com/65535/50040115037_45f2436f18_n.jpg",
    "id_album": "-1610342324",
    "description": "Nebula_905446",
    "title": "Nebula_905446",
    "link_img": "https://live.staticflickr.com/65535/50040115037_8c30162e22_o.jpg",
    "id_image": "Nebula_905446",
    "count_view": 0
  },
  {
    "link_thumb": "https://live.staticflickr.com/65535/50040258208_aff9de630c_n.jpg",
    "id_album": "-1449720967",
    "description": "StarTrek_256668",
    "title": "StarTrek_256668",
    "link_img": "https://live.staticflickr.com/65535/50040258208_a8f1556d6d_o.jpg",
    "id_image": "StarTrek_256668",
    "count_view": 0
  },
  {
    "link_thumb": "https://live.staticflickr.com/65535/50040477206_617c6209f5_n.jpg",
    "id_album": "1613540653",
    "description": "Space_192927",
    "title": "Space_192927",
    "link_img": "https://live.staticflickr.com/65535/50040477206_5c84a7fc2f_o.jpg",
    "id_image": "Space_192927",
    "count_view": 0
  },
  {
    "link_thumb": "https://live.staticflickr.com/65535/50039691673_fba2c3ba70_n.jpg",
    "id_album": "-839602625",
    "description": "Predator_484811",
    "title": "Predator_484811",
    "link_img": "https://live.staticflickr.com/65535/50039691673_dd4e8a8512_o.jpg",
    "id_image": "Predator_484811",
    "count_view": 0
  },
  {
    "link_thumb": "https://live.staticflickr.com/65535/50039908971_a5a2289d67_n.jpg",
    "id_album": "395161030",
    "description": "Planet_173622",
    "title": "Planet_173622",
    "link_img": "https://live.staticflickr.com/65535/50039908971_36b47f1c0a_o.jpg",
    "id_image": "Planet_173622",
    "count_view": 0
  },
  {
    "link_thumb": "https://live.staticflickr.com/65535/50041027168_3753ca27e9_n.jpg",
    "id_album": "-1675918237",
    "description": "WomenWarrior_566289",
    "title": "WomenWarrior_566289",
    "link_img": "https://live.staticflickr.com/65535/50041027168_7af3fb8886_o.jpg",
    "id_image": "WomenWarrior_566289",
    "count_view": 0
  },
  {
    "link_thumb": "https://live.staticflickr.com/65535/50041309596_66a96cd6fe_n.jpg",
    "id_album": "1267121215",
    "description": "Steampunk_264630",
    "title": "Steampunk_264630",
    "link_img": "https://live.staticflickr.com/65535/50041309596_45d8f88427_o.jpg",
    "id_image": "Steampunk_264630",
    "count_view": 0
  },
  {
    "link_thumb": "https://live.staticflickr.com/65535/50038901743_0e03d54cc6_n.jpg",
    "id_album": "-1964113117",
    "description": "City_229033",
    "title": "City_229033",
    "link_img": "https://live.staticflickr.com/65535/50038901743_b3d146c39f_o.jpg",
    "id_image": "City_229033",
    "count_view": 0
  },
  {
    "link_thumb": "https://live.staticflickr.com/65535/50039718837_c5665e74a4_n.jpg",
    "id_album": "-1964113117",
    "description": "City_269368",
    "title": "City_269368",
    "link_img": "https://live.staticflickr.com/65535/50039718837_b10c22b6fb_o.jpg",
    "id_image": "City_269368",
    "count_view": 0
  },
  {
    "link_thumb": "https://live.staticflickr.com/65535/50038993988_3ca0653db4_n.jpg",
    "id_album": "894679094",
    "description": "Collision_669906",
    "title": "Collision_669906",
    "link_img": "https://live.staticflickr.com/65535/50038993988_2132aa18f1_o.jpg",
    "id_image": "Collision_669906",
    "count_view": 0
  },
  {
    "link_thumb": "https://live.staticflickr.com/65535/50038848608_794d42000a_n.jpg",
    "id_album": "1187037014",
    "description": "Battle_223994",
    "title": "Battle_223994",
    "link_img": "https://live.staticflickr.com/65535/50038848608_46343f75cd_o.jpg",
    "id_image": "Battle_223994",
    "count_view": 0
  },
  {
    "link_thumb": "https://live.staticflickr.com/65535/50039988213_0c1bb94def_n.jpg",
    "id_album": "1613540653",
    "description": "Space_822456",
    "title": "Space_822456",
    "link_img": "https://live.staticflickr.com/65535/50039988213_af63c25a55_o.jpg",
    "id_image": "Space_822456",
    "count_view": 0
  },
  {
    "link_thumb": "https://live.staticflickr.com/65535/50039656707_41b1fd95e4_n.jpg",
    "id_album": "1187037014",
    "description": "Battle_150262",
    "title": "Battle_150262",
    "link_img": "https://live.staticflickr.com/65535/50039656707_eb3627472d_o.jpg",
    "id_image": "Battle_150262",
    "count_view": 0
  },
  {
    "link_thumb": "https://live.staticflickr.com/65535/50041248306_c0bf6a9867_n.jpg",
    "id_album": "-1863373220",
    "description": "StarWars_980508",
    "title": "StarWars_980508",
    "link_img": "https://live.staticflickr.com/65535/50041248306_c52a7cd2ce_o.jpg",
    "id_image": "StarWars_980508",
    "count_view": 0
  },
  {
    "link_thumb": "https://live.staticflickr.com/65535/50040277987_7580a49da4_n.jpg",
    "id_album": "1443611160",
    "description": "PlanetRise_785848",
    "title": "PlanetRise_785848",
    "link_img": "https://live.staticflickr.com/65535/50040277987_a91df36e70_o.jpg",
    "id_image": "PlanetRise_785848",
    "count_view": 0
  },
  {
    "link_thumb": "https://live.staticflickr.com/65535/50039496322_c99c2540f5_n.jpg",
    "id_album": "-406145265",
    "description": "Aircraft_146659",
    "title": "Aircraft_146659",
    "link_img": "https://live.staticflickr.com/65535/50039496322_0652f561e7_o.jpg",
    "id_image": "Aircraft_146659",
    "count_view": 0
  },
  {
    "link_thumb": "https://live.staticflickr.com/65535/50039499712_abb5f45229_n.jpg",
    "id_album": "-406145265",
    "description": "Aircraft_332964",
    "title": "Aircraft_332964",
    "link_img": "https://live.staticflickr.com/65535/50039499712_e3c8015dac_o.jpg",
    "id_image": "Aircraft_332964",
    "count_view": 0
  },
  {
    "link_thumb": "https://live.staticflickr.com/65535/50040363916_5fec4e7f5d_n.jpg",
    "id_album": "779690680",
    "description": "Robot_750349",
    "title": "Robot_750349",
    "link_img": "https://live.staticflickr.com/65535/50040363916_91b01c3b59_o.jpg",
    "id_image": "Robot_750349",
    "count_view": 0
  },
  {
    "link_thumb": "https://live.staticflickr.com/65535/50039700852_4389f9bf9e_n.jpg",
    "id_album": "-1964113117",
    "description": "City_162728",
    "title": "City_162728",
    "link_img": "https://live.staticflickr.com/65535/50039700852_633de7a657_o.jpg",
    "id_image": "City_162728",
    "count_view": 0
  },
  {
    "link_thumb": "https://live.staticflickr.com/65535/50039571382_a18eed57d4_n.jpg",
    "id_album": "523598895",
    "description": "Artistic_191740",
    "title": "Artistic_191740",
    "link_img": "https://live.staticflickr.com/65535/50039571382_91ceba7069_o.jpg",
    "id_image": "Artistic_191740",
    "count_view": 0
  },
  {
    "link_thumb": "https://live.staticflickr.com/65535/50038996103_7b8c71927e_n.jpg",
    "id_album": "894679094",
    "description": "Collision_920770",
    "title": "Collision_920770",
    "link_img": "https://live.staticflickr.com/65535/50038996103_d459aa3720_o.jpg",
    "id_image": "Collision_920770",
    "count_view": 0
  },
  {
    "link_thumb": "https://live.staticflickr.com/65535/50039832496_f88b22c14b_n.jpg",
    "id_album": "-1610342324",
    "description": "Nebula_771258",
    "title": "Nebula_771258",
    "link_img": "https://live.staticflickr.com/65535/50039832496_e4bf8f9cd7_o.jpg",
    "id_image": "Nebula_771258",
    "count_view": 0
  },
  {
    "link_thumb": "https://live.staticflickr.com/65535/50039970022_51f08f1ac5_n.jpg",
    "id_album": "1402713104",
    "description": "Landscape_782626",
    "title": "Landscape_782626",
    "link_img": "https://live.staticflickr.com/65535/50039970022_ee5b71364e_o.jpg",
    "id_image": "Landscape_782626",
    "count_view": 0
  },
  {
    "link_thumb": "https://live.staticflickr.com/65535/50039789761_ddd60e5922_n.jpg",
    "id_album": "-1610342324",
    "description": "Nebula_393884",
    "title": "Nebula_393884",
    "link_img": "https://live.staticflickr.com/65535/50039789761_0612ab7952_o.jpg",
    "id_image": "Nebula_393884",
    "count_view": 0
  },
  {
    "link_thumb": "https://live.staticflickr.com/65535/50039516293_9c8bdce52e_n.jpg",
    "id_album": "-1102314093",
    "description": "Planets_249556",
    "title": "Planets_249556",
    "link_img": "https://live.staticflickr.com/65535/50039516293_8cc7866bdd_o.jpg",
    "id_image": "Planets_249556",
    "count_view": 0
  },
  {
    "link_thumb": "https://live.staticflickr.com/65535/50040480341_2e0da3644e_n.jpg",
    "id_album": "1613540653",
    "description": "Space_217630",
    "title": "Space_217630",
    "link_img": "https://live.staticflickr.com/65535/50040480341_81dcf91143_o.jpg",
    "id_image": "Space_217630",
    "count_view": 0
  },
  {
    "link_thumb": "https://live.staticflickr.com/65535/50039015418_d5a7a41381_n.jpg",
    "id_album": "-1372247677",
    "description": "Cyberpunk_872307",
    "title": "Cyberpunk_872307",
    "link_img": "https://live.staticflickr.com/65535/50039015418_af7b16e04a_o.jpg",
    "id_image": "Cyberpunk_872307",
    "count_view": 0
  },
  {
    "link_thumb": "https://live.staticflickr.com/65535/50039466846_5d02bb58cf_n.jpg",
    "id_album": "-1964113117",
    "description": "City_382242",
    "title": "City_382242",
    "link_img": "https://live.staticflickr.com/65535/50039466846_8d7be91220_o.jpg",
    "id_image": "City_382242",
    "count_view": 0
  },
  {
    "link_thumb": "https://live.staticflickr.com/65535/50039699328_7d65019a63_n.jpg",
    "id_album": "779690680",
    "description": "Robot_112626",
    "title": "Robot_112626",
    "link_img": "https://live.staticflickr.com/65535/50039699328_2753831782_o.jpg",
    "id_image": "Robot_112626",
    "count_view": 0
  },
  {
    "link_thumb": "https://live.staticflickr.com/65535/50039645011_9c6ba5cee4_n.jpg",
    "id_album": "1204249541",
    "description": "Galaxy_585165",
    "title": "Galaxy_585165",
    "link_img": "https://live.staticflickr.com/65535/50039645011_9108ec1d3f_o.jpg",
    "id_image": "Galaxy_585165",
    "count_view": 0
  },
  {
    "link_thumb": "https://live.staticflickr.com/65535/50041288216_f0b65ac18a_n.jpg",
    "id_album": "1267121215",
    "description": "Steampunk_149854",
    "title": "Steampunk_149854",
    "link_img": "https://live.staticflickr.com/65535/50041288216_8c84ba55c5_o.jpg",
    "id_image": "Steampunk_149854",
    "count_view": 0
  },
  {
    "link_thumb": "https://live.staticflickr.com/65535/50040064107_7f96478a5f_n.jpg",
    "id_album": "-1610342324",
    "description": "Nebula_500525",
    "title": "Nebula_500525",
    "link_img": "https://live.staticflickr.com/65535/50040064107_191af60e5e_o.jpg",
    "id_image": "Nebula_500525",
    "count_view": 0
  },
  {
    "link_thumb": "https://live.staticflickr.com/65535/50039876132_b8a5770877_n.jpg",
    "id_album": "651930207",
    "description": "Explosion_90498",
    "title": "Explosion_90498",
    "link_img": "https://live.staticflickr.com/65535/50039876132_4ceed72c00_o.jpg",
    "id_image": "Explosion_90498",
    "count_view": 0
  },
  {
    "link_thumb": "https://live.staticflickr.com/65535/50039300238_ff91168d13_n.jpg",
    "id_album": "-1610342324",
    "description": "Nebula_885416",
    "title": "Nebula_885416",
    "link_img": "https://live.staticflickr.com/65535/50039300238_f70fc865b1_o.jpg",
    "id_image": "Nebula_885416",
    "count_view": 0
  },
  {
    "link_thumb": "https://live.staticflickr.com/65535/50039220793_f3c5264ff3_n.jpg",
    "id_album": "-1610342324",
    "description": "Nebula_212668",
    "title": "Nebula_212668",
    "link_img": "https://live.staticflickr.com/65535/50039220793_aee14a60dd_o.jpg",
    "id_image": "Nebula_212668",
    "count_view": 0
  },
  {
    "link_thumb": "https://live.staticflickr.com/65535/50039875563_d1d7d73a2d_n.jpg",
    "id_album": "779690680",
    "description": "Robot_933176",
    "title": "Robot_933176",
    "link_img": "https://live.staticflickr.com/65535/50039875563_3fabc64571_o.jpg",
    "id_image": "Robot_933176",
    "count_view": 0
  },
  {
    "link_thumb": "https://live.staticflickr.com/65535/50040496262_2d4ccbba2a_n.jpg",
    "id_album": "-482547208",
    "description": "PostApocalyptic_926850",
    "title": "PostApocalyptic_926850",
    "link_img": "https://live.staticflickr.com/65535/50040496262_29bced16cc_o.jpg",
    "id_image": "PostApocalyptic_926850",
    "count_view": 0
  },
  {
    "link_thumb": "https://live.staticflickr.com/65535/50039621563_d407dfbe9e_n.jpg",
    "id_album": "376235057",
    "description": "Planetscape_423586",
    "title": "Planetscape_423586",
    "link_img": "https://live.staticflickr.com/65535/50039621563_0650b52511_o.jpg",
    "id_image": "Planetscape_423586",
    "count_view": 0
  },
  {
    "link_thumb": "https://live.staticflickr.com/65535/50040223023_fe23614ab4_n.jpg",
    "id_album": "2130067313",
    "description": "Spaceship_972165",
    "title": "Spaceship_972165",
    "link_img": "https://live.staticflickr.com/65535/50040223023_50830400fa_o.jpg",
    "id_image": "Spaceship_972165",
    "count_view": 0
  },
  {
    "link_thumb": "https://live.staticflickr.com/65535/50040607413_e1598f01a8_n.jpg",
    "id_album": "-1863373220",
    "description": "StarWars_294174",
    "title": "StarWars_294174",
    "link_img": "https://live.staticflickr.com/65535/50040607413_9e4b6a22b4_o.jpg",
    "id_image": "StarWars_294174",
    "count_view": 0
  },
  {
    "link_thumb": "https://live.staticflickr.com/65535/50040087647_a8efe44b4a_n.jpg",
    "id_album": "-1610342324",
    "description": "Nebula_703542",
    "title": "Nebula_703542",
    "link_img": "https://live.staticflickr.com/65535/50040087647_b775c88f05_o.jpg",
    "id_image": "Nebula_703542",
    "count_view": 0
  },
  {
    "link_thumb": "https://live.staticflickr.com/65535/50039034553_a7d296a05e_n.jpg",
    "id_album": "829169633",
    "description": "Cyborg_282884",
    "title": "Cyborg_282884",
    "link_img": "https://live.staticflickr.com/65535/50039034553_0563fb8a4d_o.jpg",
    "id_image": "Cyborg_282884",
    "count_view": 0
  },
  {
    "link_thumb": "https://live.staticflickr.com/65535/50040664913_9d1cb10454_n.jpg",
    "id_album": "-1863373220",
    "description": "StarWars_714284",
    "title": "StarWars_714284",
    "link_img": "https://live.staticflickr.com/65535/50040664913_cce1f40599_o.jpg",
    "id_image": "StarWars_714284",
    "count_view": 0
  },
  {
    "link_thumb": "https://live.staticflickr.com/65535/50040436317_e46d210779_n.jpg",
    "id_album": "376235057",
    "description": "Planetscape_393915",
    "title": "Planetscape_393915",
    "link_img": "https://live.staticflickr.com/65535/50040436317_e3d8e8ea5c_o.jpg",
    "id_image": "Planetscape_393915",
    "count_view": 0
  },
  {
    "link_thumb": "https://live.staticflickr.com/65535/50039524162_2d979546ec_n.jpg",
    "id_album": "849020728",
    "description": "Alien_393630",
    "title": "Alien_393630",
    "link_img": "https://live.staticflickr.com/65535/50039524162_087d8bb5b0_o.jpg",
    "id_image": "Alien_393630",
    "count_view": 0
  },
  {
    "link_thumb": "https://live.staticflickr.com/65535/50038759718_08d8fafd36_n.jpg",
    "id_album": "523598895",
    "description": "Artistic_187047",
    "title": "Artistic_187047",
    "link_img": "https://live.staticflickr.com/65535/50038759718_1b762acc9c_o.jpg",
    "id_image": "Artistic_187047",
    "count_view": 0
  },
  {
    "link_thumb": "https://live.staticflickr.com/65535/50039673032_0832781dba_n.jpg",
    "id_album": "1187037014",
    "description": "Battle_991376",
    "title": "Battle_991376",
    "link_img": "https://live.staticflickr.com/65535/50039673032_cc9bddf7b4_o.jpg",
    "id_image": "Battle_991376",
    "count_view": 0
  },
  {
    "link_thumb": "https://live.staticflickr.com/65535/50039875973_79dafde3ef_n.jpg",
    "id_album": "779690680",
    "description": "Robot_933178",
    "title": "Robot_933178",
    "link_img": "https://live.staticflickr.com/65535/50039875973_fc444683de_o.jpg",
    "id_image": "Robot_933178",
    "count_view": 0
  },
  {
    "link_thumb": "https://live.staticflickr.com/65535/50040695528_32e8dc5c01_n.jpg",
    "id_album": "-1863373220",
    "description": "StarWars_980532",
    "title": "StarWars_980532",
    "link_img": "https://live.staticflickr.com/65535/50040695528_f344620172_o.jpg",
    "id_image": "StarWars_980532",
    "count_view": 0
  },
  {
    "link_thumb": "https://live.staticflickr.com/65535/50039075483_f7ef8d773b_n.jpg",
    "id_album": "1204249541",
    "description": "Galaxy_155639",
    "title": "Galaxy_155639",
    "link_img": "https://live.staticflickr.com/65535/50039075483_1199cc5d07_o.jpg",
    "id_image": "Galaxy_155639",
    "count_view": 0
  },
  {
    "link_thumb": "https://live.staticflickr.com/65535/50039218103_d35c428187_n.jpg",
    "id_album": "-1610342324",
    "description": "Nebula_198230",
    "title": "Nebula_198230",
    "link_img": "https://live.staticflickr.com/65535/50039218103_6465e5b6c1_o.jpg",
    "id_image": "Nebula_198230",
    "count_view": 0
  },
  {
    "link_thumb": "https://live.staticflickr.com/65535/50039766366_e91984c447_n.jpg",
    "id_album": "-1610342324",
    "description": "Nebula_182338",
    "title": "Nebula_182338",
    "link_img": "https://live.staticflickr.com/65535/50039766366_b6abb640a1_o.jpg",
    "id_image": "Nebula_182338",
    "count_view": 0
  },
  {
    "link_thumb": "https://live.staticflickr.com/65535/50039498588_48063ffbf7_n.jpg",
    "id_album": "-1102314093",
    "description": "Planets_115034",
    "title": "Planets_115034",
    "link_img": "https://live.staticflickr.com/65535/50039498588_69589699e8_o.jpg",
    "id_image": "Planets_115034",
    "count_view": 0
  },
  {
    "link_thumb": "https://live.staticflickr.com/65535/50039089038_d34e041463_n.jpg",
    "id_album": "1204249541",
    "description": "Galaxy_503796",
    "title": "Galaxy_503796",
    "link_img": "https://live.staticflickr.com/65535/50039089038_268c691e7f_o.jpg",
    "id_image": "Galaxy_503796",
    "count_view": 0
  },
  {
    "link_thumb": "https://live.staticflickr.com/65535/50040570143_0cb50543e9_n.jpg",
    "id_album": "-1863373220",
    "description": "StarWars_177815",
    "title": "StarWars_177815",
    "link_img": "https://live.staticflickr.com/65535/50040570143_b12269f09a_o.jpg",
    "id_image": "StarWars_177815",
    "count_view": 0
  },
  {
    "link_thumb": "https://live.staticflickr.com/65535/50039182418_6784a2a8e4_n.jpg",
    "id_album": "-1388385651",
    "description": "MilkyWay_482715",
    "title": "MilkyWay_482715",
    "link_img": "https://live.staticflickr.com/65535/50039182418_43b6a3103f_o.jpg",
    "id_image": "MilkyWay_482715",
    "count_view": 0
  },
  {
    "link_thumb": "https://live.staticflickr.com/65535/50038848888_8c7757f9a7_n.jpg",
    "id_album": "1187037014",
    "description": "Battle_233996",
    "title": "Battle_233996",
    "link_img": "https://live.staticflickr.com/65535/50038848888_ca8aefc61b_o.jpg",
    "id_image": "Battle_233996",
    "count_view": 0
  },
  {
    "link_thumb": "https://live.staticflickr.com/65535/50041178056_c865857b68_n.jpg",
    "id_album": "-1863373220",
    "description": "StarWars_411412",
    "title": "StarWars_411412",
    "link_img": "https://live.staticflickr.com/65535/50041178056_b87ac830e3_o.jpg",
    "id_image": "StarWars_411412",
    "count_view": 0
  },
  {
    "link_thumb": "https://live.staticflickr.com/65535/50041458696_5c1c2a66a4_n.jpg",
    "id_album": "-1261420436",
    "description": "Warrior_403236",
    "title": "Warrior_403236",
    "link_img": "https://live.staticflickr.com/65535/50041458696_3b9c0de3bb_o.jpg",
    "id_image": "Warrior_403236",
    "count_view": 0
  },
  {
    "link_thumb": "https://live.staticflickr.com/65535/50040743793_e6147cb1de_n.jpg",
    "id_album": "1267121215",
    "description": "Steampunk_199576",
    "title": "Steampunk_199576",
    "link_img": "https://live.staticflickr.com/65535/50040743793_223ce8a47c_o.jpg",
    "id_image": "Steampunk_199576",
    "count_view": 0
  },
  {
    "link_thumb": "https://live.staticflickr.com/65535/50039732496_51e3b6f7bb_n.jpg",
    "id_album": "-1388385651",
    "description": "MilkyWay_550058",
    "title": "MilkyWay_550058",
    "link_img": "https://live.staticflickr.com/65535/50039732496_7bacbfc362_o.jpg",
    "id_image": "MilkyWay_550058",
    "count_view": 0
  },
  {
    "link_thumb": "https://live.staticflickr.com/65535/50039926461_6d74aedb01_n.jpg",
    "id_album": "395161030",
    "description": "Planet_324580",
    "title": "Planet_324580",
    "link_img": "https://live.staticflickr.com/65535/50039926461_8e9be5c159_o.jpg",
    "id_image": "Planet_324580",
    "count_view": 0
  },
  {
    "link_thumb": "https://live.staticflickr.com/65535/50039369868_1e6c3b2e35_n.jpg",
    "id_album": "395161030",
    "description": "Planet_206087",
    "title": "Planet_206087",
    "link_img": "https://live.staticflickr.com/65535/50039369868_2c81d7a794_o.jpg",
    "id_image": "Planet_206087",
    "count_view": 0
  },
  {
    "link_thumb": "https://live.staticflickr.com/65535/50038697928_b85387b8ea_n.jpg",
    "id_album": "849020728",
    "description": "Alien_120345",
    "title": "Alien_120345",
    "link_img": "https://live.staticflickr.com/65535/50038697928_b6f3400ca3_o.jpg",
    "id_image": "Alien_120345",
    "count_view": 0
  },
  {
    "link_thumb": "https://live.staticflickr.com/65535/50041512557_670439bf2e_n.jpg",
    "id_album": "-1863373220",
    "description": "StarWars_980534",
    "title": "StarWars_980534",
    "link_img": "https://live.staticflickr.com/65535/50041512557_81dd6d72f8_o.jpg",
    "id_image": "StarWars_980534",
    "count_view": 0
  },
  {
    "link_thumb": "https://live.staticflickr.com/65535/50039837963_454b1b7b0e_n.jpg",
    "id_album": "779690680",
    "description": "Robot_881761",
    "title": "Robot_881761",
    "link_img": "https://live.staticflickr.com/65535/50039837963_83da7039f9_o.jpg",
    "id_image": "Robot_881761",
    "count_view": 0
  },
  {
    "link_thumb": "https://live.staticflickr.com/65535/50040146652_23a5677411_n.jpg",
    "id_album": "-1862561193",
    "description": "Other_269888",
    "title": "Other_269888",
    "link_img": "https://live.staticflickr.com/65535/50040146652_4f2a7fc3a8_o.jpg",
    "id_image": "Other_269888",
    "count_view": 0
  },
  {
    "link_thumb": "https://live.staticflickr.com/65535/50040397471_8739ffb2ca_n.jpg",
    "id_album": "779690680",
    "description": "Robot_894439",
    "title": "Robot_894439",
    "link_img": "https://live.staticflickr.com/65535/50040397471_136de0d410_o.jpg",
    "id_image": "Robot_894439",
    "count_view": 0
  },
  {
    "link_thumb": "https://live.staticflickr.com/65535/50040972882_cf1a89ab2b_n.jpg",
    "id_album": "2130067313",
    "description": "Spaceship_530267",
    "title": "Spaceship_530267",
    "link_img": "https://live.staticflickr.com/65535/50040972882_7e61524343_o.jpg",
    "id_image": "Spaceship_530267",
    "count_view": 0
  },
  {
    "link_thumb": "https://live.staticflickr.com/65535/50039729417_cc7c36b25d_n.jpg",
    "id_album": "-1964113117",
    "description": "City_384781",
    "title": "City_384781",
    "link_img": "https://live.staticflickr.com/65535/50039729417_0c21b550d9_o.jpg",
    "id_image": "City_384781",
    "count_view": 0
  },
  {
    "link_thumb": "https://live.staticflickr.com/65535/50039192698_40fca0783d_n.jpg",
    "id_album": "-1388385651",
    "description": "MilkyWay_707636",
    "title": "MilkyWay_707636",
    "link_img": "https://live.staticflickr.com/65535/50039192698_c695bcae08_o.jpg",
    "id_image": "MilkyWay_707636",
    "count_view": 0
  },
  {
    "link_thumb": "https://live.staticflickr.com/65535/50039212798_9c3e7f4245_n.jpg",
    "id_album": "-1610342324",
    "description": "Nebula_113267",
    "title": "Nebula_113267",
    "link_img": "https://live.staticflickr.com/65535/50039212798_7dc049dc04_o.jpg",
    "id_image": "Nebula_113267",
    "count_view": 0
  },
  {
    "link_thumb": "https://live.staticflickr.com/65535/50039235486_0cd3ccba11_n.jpg",
    "id_album": "-406145265",
    "description": "Aircraft_267751",
    "title": "Aircraft_267751",
    "link_img": "https://live.staticflickr.com/65535/50039235486_90da11aabb_o.jpg",
    "id_image": "Aircraft_267751",
    "count_view": 0
  },
  {
    "link_thumb": "https://live.staticflickr.com/65535/50039891611_2f071760e6_n.jpg",
    "id_album": "-1862561193",
    "description": "Other_44098",
    "title": "Other_44098",
    "link_img": "https://live.staticflickr.com/65535/50039891611_574a9e4b11_o.jpg",
    "id_image": "Other_44098",
    "count_view": 0
  },
  {
    "link_thumb": "https://live.staticflickr.com/65535/50040166242_8a9d70ae7c_n.jpg",
    "id_album": "395161030",
    "description": "Planet_1008933",
    "title": "Planet_1008933",
    "link_img": "https://live.staticflickr.com/65535/50040166242_239142df80_o.jpg",
    "id_image": "Planet_1008933",
    "count_view": 0
  },
  {
    "link_thumb": "https://live.staticflickr.com/65535/50041636037_ee3085ac2e_n.jpg",
    "id_album": "2020068132",
    "description": "Vehicle_161604",
    "title": "Vehicle_161604",
    "link_img": "https://live.staticflickr.com/65535/50041636037_f822fbe164_o.jpg",
    "id_image": "Vehicle_161604",
    "count_view": 0
  },
  {
    "link_thumb": "https://live.staticflickr.com/65535/50039700332_93a698ff49_n.jpg",
    "id_album": "-1964113117",
    "description": "City_159578",
    "title": "City_159578",
    "link_img": "https://live.staticflickr.com/65535/50039700332_331b88fc16_o.jpg",
    "id_image": "City_159578",
    "count_view": 0
  },
  {
    "link_thumb": "https://live.staticflickr.com/65535/50039884501_909ce1def7_n.jpg",
    "id_album": "-1862561193",
    "description": "Other_283954",
    "title": "Other_283954",
    "link_img": "https://live.staticflickr.com/65535/50039884501_382d09f75b_o.jpg",
    "id_image": "Other_283954",
    "count_view": 0
  },
  {
    "link_thumb": "https://live.staticflickr.com/65535/50040787553_48e7b741ea_n.jpg",
    "id_album": "-221671103",
    "description": "Sun_234855",
    "title": "Sun_234855",
    "link_img": "https://live.staticflickr.com/65535/50040787553_95d77f427b_o.jpg",
    "id_image": "Sun_234855",
    "count_view": 0
  },
  {
    "link_thumb": "https://live.staticflickr.com/65535/50040050137_50a3453056_n.jpg",
    "id_album": "-1610342324",
    "description": "Nebula_314910",
    "title": "Nebula_314910",
    "link_img": "https://live.staticflickr.com/65535/50040050137_bb92c33810_o.jpg",
    "id_image": "Nebula_314910",
    "count_view": 0
  },
  {
    "link_thumb": "https://live.staticflickr.com/65535/50039891897_82343e093a_n.jpg",
    "id_album": "1204249541",
    "description": "Galaxy_281520",
    "title": "Galaxy_281520",
    "link_img": "https://live.staticflickr.com/65535/50039891897_f5d566d499_o.jpg",
    "id_image": "Galaxy_281520",
    "count_view": 0
  },
  {
    "link_thumb": "https://live.staticflickr.com/65535/50040542526_3f2f565e2c_n.jpg",
    "id_album": "1613540653",
    "description": "Space_822450",
    "title": "Space_822450",
    "link_img": "https://live.staticflickr.com/65535/50040542526_fb7acf4825_o.jpg",
    "id_image": "Space_822450",
    "count_view": 0
  },
  {
    "link_thumb": "https://live.staticflickr.com/65535/50040737727_f5106613db_n.jpg",
    "id_album": "1613540653",
    "description": "Space_177928",
    "title": "Space_177928",
    "link_img": "https://live.staticflickr.com/65535/50040737727_a97ebdaeb1_o.jpg",
    "id_image": "Space_177928",
    "count_view": 0
  },
  {
    "link_thumb": "https://live.staticflickr.com/65535/50039130268_08d946947b_n.jpg",
    "id_album": "1402713104",
    "description": "Landscape_335535",
    "title": "Landscape_335535",
    "link_img": "https://live.staticflickr.com/65535/50039130268_32b0b07567_o.jpg",
    "id_image": "Landscape_335535",
    "count_view": 0
  },
  {
    "link_thumb": "https://live.staticflickr.com/65535/50040215592_701921c097_n.jpg",
    "id_album": "395161030",
    "description": "Planet_463339",
    "title": "Planet_463339",
    "link_img": "https://live.staticflickr.com/65535/50040215592_1d2a23b3c3_o.jpg",
    "id_image": "Planet_463339",
    "count_view": 0
  },
  {
    "link_thumb": "https://live.staticflickr.com/65535/50039895732_18e6ef21d9_n.jpg",
    "id_album": "1204249541",
    "description": "Galaxy_418331",
    "title": "Galaxy_418331",
    "link_img": "https://live.staticflickr.com/65535/50039895732_2f381504de_o.jpg",
    "id_image": "Galaxy_418331",
    "count_view": 0
  },
  {
    "link_thumb": "https://live.staticflickr.com/65535/50038912633_5e98916c79_n.jpg",
    "id_album": "-1964113117",
    "description": "City_304670",
    "title": "City_304670",
    "link_img": "https://live.staticflickr.com/65535/50038912633_4a3d9e20e8_o.jpg",
    "id_image": "City_304670",
    "count_view": 0
  },
  {
    "link_thumb": "https://live.staticflickr.com/65535/50039428826_ab8d48383c_n.jpg",
    "id_album": "406431601",
    "description": "Building_972113",
    "title": "Building_972113",
    "link_img": "https://live.staticflickr.com/65535/50039428826_571ef67e06_o.jpg",
    "id_image": "Building_972113",
    "count_view": 0
  },
  {
    "link_thumb": "https://live.staticflickr.com/65535/50039054003_378c1e89e4_n.jpg",
    "id_album": "829169633",
    "description": "Cyborg_854687",
    "title": "Cyborg_854687",
    "link_img": "https://live.staticflickr.com/65535/50039054003_ab9e6081f7_o.jpg",
    "id_image": "Cyborg_854687",
    "count_view": 0
  },
  {
    "link_thumb": "https://live.staticflickr.com/65535/50039850257_688f55b2fb_n.jpg",
    "id_album": "829169633",
    "description": "Cyborg_390068",
    "title": "Cyborg_390068",
    "link_img": "https://live.staticflickr.com/65535/50039850257_51d7aa45fc_o.jpg",
    "id_image": "Cyborg_390068",
    "count_view": 0
  },
  {
    "link_thumb": "https://live.staticflickr.com/65535/50040518912_a5c280a258_n.jpg",
    "id_album": "779690680",
    "description": "Robot_133819",
    "title": "Robot_133819",
    "link_img": "https://live.staticflickr.com/65535/50040518912_8ca229d6d7_o.jpg",
    "id_image": "Robot_133819",
    "count_view": 0
  },
  {
    "link_thumb": "https://live.staticflickr.com/65535/50040179061_be2d805ee8_n.jpg",
    "id_album": "376235057",
    "description": "Planetscape_648878",
    "title": "Planetscape_648878",
    "link_img": "https://live.staticflickr.com/65535/50040179061_498927521c_o.jpg",
    "id_image": "Planetscape_648878",
    "count_view": 0
  },
  {
    "link_thumb": "https://live.staticflickr.com/65535/50039917867_e3412c1ac5_n.jpg",
    "id_album": "1204249541",
    "description": "Galaxy_864037",
    "title": "Galaxy_864037",
    "link_img": "https://live.staticflickr.com/65535/50039917867_a1216c32ce_o.jpg",
    "id_image": "Galaxy_864037",
    "count_view": 0
  },
  {
    "link_thumb": "https://live.staticflickr.com/65535/50039710132_973a7d97e1_n.jpg",
    "id_album": "-1964113117",
    "description": "City_215042",
    "title": "City_215042",
    "link_img": "https://live.staticflickr.com/65535/50039710132_2a1fb90b59_o.jpg",
    "id_image": "City_215042",
    "count_view": 0
  },
  {
    "link_thumb": "https://live.staticflickr.com/65535/50040155801_ff4dba981a_n.jpg",
    "id_album": "376235057",
    "description": "Planetscape_286376",
    "title": "Planetscape_286376",
    "link_img": "https://live.staticflickr.com/65535/50040155801_a2f21a4e10_o.jpg",
    "id_image": "Planetscape_286376",
    "count_view": 0
  },
  {
    "link_thumb": "https://live.staticflickr.com/65535/50039879332_677638388d_n.jpg",
    "id_album": "2104507156",
    "description": "Fantasy_162713",
    "title": "Fantasy_162713",
    "link_img": "https://live.staticflickr.com/65535/50039879332_9441f0ff7b_o.jpg",
    "id_image": "Fantasy_162713",
    "count_view": 0
  },
  {
    "link_thumb": "https://live.staticflickr.com/65535/50040057397_26669a9246_n.jpg",
    "id_album": "-1610342324",
    "description": "Nebula_413594",
    "title": "Nebula_413594",
    "link_img": "https://live.staticflickr.com/65535/50040057397_3a6dd7d234_o.jpg",
    "id_image": "Nebula_413594",
    "count_view": 0
  },
  {
    "link_thumb": "https://live.staticflickr.com/65535/50040429081_e06002b649_n.jpg",
    "id_album": "779690680",
    "description": "Robot_931802",
    "title": "Robot_931802",
    "link_img": "https://live.staticflickr.com/65535/50040429081_40043d07b0_o.jpg",
    "id_image": "Robot_931802",
    "count_view": 0
  },
  {
    "link_thumb": "https://live.staticflickr.com/65535/50039960156_3e00bae2f3_n.jpg",
    "id_album": "395161030",
    "description": "Planet_558937",
    "title": "Planet_558937",
    "link_img": "https://live.staticflickr.com/65535/50039960156_3d0af5d8b5_o.jpg",
    "id_image": "Planet_558937",
    "count_view": 0
  },
  {
    "link_thumb": "https://live.staticflickr.com/65535/50039939046_99834d90b9_n.jpg",
    "id_album": "395161030",
    "description": "Planet_374641",
    "title": "Planet_374641",
    "link_img": "https://live.staticflickr.com/65535/50039939046_18e6a69cd3_o.jpg",
    "id_image": "Planet_374641",
    "count_view": 0
  },
  {
    "link_thumb": "https://live.staticflickr.com/65535/50039829477_25f147e123_n.jpg",
    "id_album": "-1372247677",
    "description": "Cyberpunk_931367",
    "title": "Cyberpunk_931367",
    "link_img": "https://live.staticflickr.com/65535/50039829477_02aa12d727_o.jpg",
    "id_image": "Cyberpunk_931367",
    "count_view": 0
  },
  {
    "link_thumb": "https://live.staticflickr.com/65535/50040788678_cedc6584cf_n.jpg",
    "id_album": "-221671103",
    "description": "Sun_245941",
    "title": "Sun_245941",
    "link_img": "https://live.staticflickr.com/65535/50040788678_a35b16c174_o.jpg",
    "id_image": "Sun_245941",
    "count_view": 0
  },
  {
    "link_thumb": "https://live.staticflickr.com/65535/50039614182_ecbb5986d6_n.jpg",
    "id_album": "869545341",
    "description": "Astronaut_238542",
    "title": "Astronaut_238542",
    "link_img": "https://live.staticflickr.com/65535/50039614182_5f480e4b5a_o.jpg",
    "id_image": "Astronaut_238542",
    "count_view": 0
  },
  {
    "link_thumb": "https://live.staticflickr.com/65535/50039496802_9b1632990d_n.jpg",
    "id_album": "-406145265",
    "description": "Aircraft_237854",
    "title": "Aircraft_237854",
    "link_img": "https://live.staticflickr.com/65535/50039496802_27a9911b25_o.jpg",
    "id_image": "Aircraft_237854",
    "count_view": 0
  },
  {
    "link_thumb": "https://live.staticflickr.com/65535/50040160898_a640c7cd9d_n.jpg",
    "id_album": "2130067313",
    "description": "Spaceship_555967",
    "title": "Spaceship_555967",
    "link_img": "https://live.staticflickr.com/65535/50040160898_c91554fa3f_o.jpg",
    "id_image": "Spaceship_555967",
    "count_view": 0
  },
  {
    "link_thumb": "https://live.staticflickr.com/65535/50039843246_9ece353449_n.jpg",
    "id_album": "-1610342324",
    "description": "Nebula_842164",
    "title": "Nebula_842164",
    "link_img": "https://live.staticflickr.com/65535/50039843246_cac8c9c0c9_o.jpg",
    "id_image": "Nebula_842164",
    "count_view": 0
  },
  {
    "link_thumb": "https://live.staticflickr.com/65535/50039431521_4bd0e47844_n.jpg",
    "id_album": "-1964113117",
    "description": "City_103887",
    "title": "City_103887",
    "link_img": "https://live.staticflickr.com/65535/50039431521_77f311dd00_o.jpg",
    "id_image": "City_103887",
    "count_view": 0
  },
  {
    "link_thumb": "https://live.staticflickr.com/65535/50040111956_fe0c3e0b44_n.jpg",
    "id_album": "-1102314093",
    "description": "Planets_419632",
    "title": "Planets_419632",
    "link_img": "https://live.staticflickr.com/65535/50040111956_cafae3f439_o.jpg",
    "id_image": "Planets_419632",
    "count_view": 0
  },
  {
    "link_thumb": "https://live.staticflickr.com/65535/50040857678_40f1dbcd8e_n.jpg",
    "id_album": "2020068132",
    "description": "Vehicle_685084",
    "title": "Vehicle_685084",
    "link_img": "https://live.staticflickr.com/65535/50040857678_3d0676e967_o.jpg",
    "id_image": "Vehicle_685084",
    "count_view": 0
  },
  {
    "link_thumb": "https://live.staticflickr.com/65535/50039229836_566763419d_n.jpg",
    "id_album": "280884763",
    "description": "Abstract_324591",
    "title": "Abstract_324591",
    "link_img": "https://live.staticflickr.com/65535/50039229836_3227b158ba_o.jpg",
    "id_image": "Abstract_324591",
    "count_view": 0
  },
  {
    "link_thumb": "https://live.staticflickr.com/65535/50041491906_5ce2d1787c_n.jpg",
    "id_album": "-1261420436",
    "description": "Warrior_892330",
    "title": "Warrior_892330",
    "link_img": "https://live.staticflickr.com/65535/50041491906_b672539d5d_o.jpg",
    "id_image": "Warrior_892330",
    "count_view": 0
  },
  {
    "link_thumb": "https://live.staticflickr.com/65535/50038966678_3f8e297388_n.jpg",
    "id_album": "-1964113117",
    "description": "City_896214",
    "title": "City_896214",
    "link_img": "https://live.staticflickr.com/65535/50038966678_2e48e46991_o.jpg",
    "id_image": "City_896214",
    "count_view": 0
  },
  {
    "link_thumb": "https://live.staticflickr.com/65535/50039343596_69f58c8e2d_n.jpg",
    "id_album": "523598895",
    "description": "Artistic_720518",
    "title": "Artistic_720518",
    "link_img": "https://live.staticflickr.com/65535/50039343596_54abd55a5c_o.jpg",
    "id_image": "Artistic_720518",
    "count_view": 0
  },
  {
    "link_thumb": "https://live.staticflickr.com/65535/50039888432_40fa59a579_n.jpg",
    "id_album": "1204249541",
    "description": "Galaxy_193792",
    "title": "Galaxy_193792",
    "link_img": "https://live.staticflickr.com/65535/50039888432_74e9649120_o.jpg",
    "id_image": "Galaxy_193792",
    "count_view": 0
  },
  {
    "link_thumb": "https://live.staticflickr.com/65535/50039792663_393d140357_n.jpg",
    "id_album": "779690680",
    "description": "Robot_616673",
    "title": "Robot_616673",
    "link_img": "https://live.staticflickr.com/65535/50039792663_687689fb38_o.jpg",
    "id_image": "Robot_616673",
    "count_view": 0
  },
  {
    "link_thumb": "https://live.staticflickr.com/65535/50040119946_253784c744_n.jpg",
    "id_album": "-1102314093",
    "description": "Planets_516889",
    "title": "Planets_516889",
    "link_img": "https://live.staticflickr.com/65535/50040119946_8685ff4e1c_o.jpg",
    "id_image": "Planets_516889",
    "count_view": 0
  },
  {
    "link_thumb": "https://live.staticflickr.com/65535/50040082572_951d0cd5d2_n.jpg",
    "id_album": "-1610342324",
    "description": "Nebula_658853",
    "title": "Nebula_658853",
    "link_img": "https://live.staticflickr.com/65535/50040082572_6de689239f_o.jpg",
    "id_image": "Nebula_658853",
    "count_view": 0
  },
  {
    "link_thumb": "https://live.staticflickr.com/65535/50038691448_9a163fd5fd_n.jpg",
    "id_album": "-406145265",
    "description": "Aircraft_341297",
    "title": "Aircraft_341297",
    "link_img": "https://live.staticflickr.com/65535/50038691448_5a33ac87e3_o.jpg",
    "id_image": "Aircraft_341297",
    "count_view": 0
  },
  {
    "link_thumb": "https://live.staticflickr.com/65535/50039515686_b9261d340d_n.jpg",
    "id_album": "-1964113117",
    "description": "City_898623",
    "title": "City_898623",
    "link_img": "https://live.staticflickr.com/65535/50039515686_dbfaaef92b_o.jpg",
    "id_image": "City_898623",
    "count_view": 0
  },
  {
    "link_thumb": "https://live.staticflickr.com/65535/50039433606_3316558ca6_n.jpg",
    "id_album": "-1964113117",
    "description": "City_118677",
    "title": "City_118677",
    "link_img": "https://live.staticflickr.com/65535/50039433606_dbe69aeddb_o.jpg",
    "id_image": "City_118677",
    "count_view": 0
  },
  {
    "link_thumb": "https://live.staticflickr.com/65535/50039901931_dda171acd5_n.jpg",
    "id_album": "395161030",
    "description": "Planet_1007779",
    "title": "Planet_1007779",
    "link_img": "https://live.staticflickr.com/65535/50039901931_afaa15b25c_o.jpg",
    "id_image": "Planet_1007779",
    "count_view": 0
  },
  {
    "link_thumb": "https://live.staticflickr.com/65535/50038974248_2205819762_n.jpg",
    "id_album": "-1964113117",
    "description": "City_925920",
    "title": "City_925920",
    "link_img": "https://live.staticflickr.com/65535/50038974248_fa08f5fb82_o.jpg",
    "id_image": "City_925920",
    "count_view": 0
  },
  {
    "link_thumb": "https://live.staticflickr.com/65535/50039477816_4c3a1d8591_n.jpg",
    "id_album": "-1964113117",
    "description": "City_552303",
    "title": "City_552303",
    "link_img": "https://live.staticflickr.com/65535/50039477816_399524efb0_o.jpg",
    "id_image": "City_552303",
    "count_view": 0
  },
  {
    "link_thumb": "https://live.staticflickr.com/65535/50040900618_24505daa7f_n.jpg",
    "id_album": "-1261420436",
    "description": "Warrior_384693",
    "title": "Warrior_384693",
    "link_img": "https://live.staticflickr.com/65535/50040900618_f24486b9e7_o.jpg",
    "id_image": "Warrior_384693",
    "count_view": 0
  },
  {
    "link_thumb": "https://live.staticflickr.com/65535/50039315421_2ecd41c29a_n.jpg",
    "id_album": "523598895",
    "description": "Artistic_217641",
    "title": "Artistic_217641",
    "link_img": "https://live.staticflickr.com/65535/50039315421_b4b2c5a372_o.jpg",
    "id_image": "Artistic_217641",
    "count_view": 0
  },
  {
    "link_thumb": "https://live.staticflickr.com/65535/50039896122_291b650e84_n.jpg",
    "id_album": "1204249541",
    "description": "Galaxy_424697",
    "title": "Galaxy_424697",
    "link_img": "https://live.staticflickr.com/65535/50039896122_3b483e8c1a_o.jpg",
    "id_image": "Galaxy_424697",
    "count_view": 0
  },
  {
    "link_thumb": "https://live.staticflickr.com/65535/50039739627_bf2bd9defe_n.jpg",
    "id_album": "-1964113117",
    "description": "City_550166",
    "title": "City_550166",
    "link_img": "https://live.staticflickr.com/65535/50039739627_4841f7527f_o.jpg",
    "id_image": "City_550166",
    "count_view": 0
  },
  {
    "link_thumb": "https://live.staticflickr.com/65535/50039846988_84a1e253ca_n.jpg",
    "id_album": "779690680",
    "description": "Robot_901629",
    "title": "Robot_901629",
    "link_img": "https://live.staticflickr.com/65535/50039846988_d23d9026c0_o.jpg",
    "id_image": "Robot_901629",
    "count_view": 0
  },
  {
    "link_thumb": "https://live.staticflickr.com/65535/50041155176_7367fcfffa_n.jpg",
    "id_album": "-1863373220",
    "description": "StarWars_252641",
    "title": "StarWars_252641",
    "link_img": "https://live.staticflickr.com/65535/50041155176_67e5814d46_o.jpg",
    "id_image": "StarWars_252641",
    "count_view": 0
  },
  {
    "link_thumb": "https://live.staticflickr.com/65535/50040542231_957f8eb310_n.jpg",
    "id_album": "1613540653",
    "description": "Space_822445",
    "title": "Space_822445",
    "link_img": "https://live.staticflickr.com/65535/50040542231_f6665730b7_o.jpg",
    "id_image": "Space_822445",
    "count_view": 0
  },
  {
    "link_thumb": "https://live.staticflickr.com/65535/50039662002_f71551e217_n.jpg",
    "id_album": "1187037014",
    "description": "Battle_274820",
    "title": "Battle_274820",
    "link_img": "https://live.staticflickr.com/65535/50039662002_556b4d0f89_o.jpg",
    "id_image": "Battle_274820",
    "count_view": 0
  },
  {
    "link_thumb": "https://live.staticflickr.com/65535/50039108303_89f33f385a_n.jpg",
    "id_album": "1204249541",
    "description": "Galaxy_984395",
    "title": "Galaxy_984395",
    "link_img": "https://live.staticflickr.com/65535/50039108303_e338379a11_o.jpg",
    "id_image": "Galaxy_984395",
    "count_view": 0
  },
  {
    "link_thumb": "https://live.staticflickr.com/65535/50039550082_479b552b2a_n.jpg",
    "id_album": "-419633230",
    "description": "Apocalyptic_957340",
    "title": "Apocalyptic_957340",
    "link_img": "https://live.staticflickr.com/65535/50039550082_48929cab07_o.jpg",
    "id_image": "Apocalyptic_957340",
    "count_view": 0
  },
  {
    "link_thumb": "https://live.staticflickr.com/65535/50039850001_9fdd134494_n.jpg",
    "id_album": "-1610342324",
    "description": "Nebula_886578",
    "title": "Nebula_886578",
    "link_img": "https://live.staticflickr.com/65535/50039850001_6955943dec_o.jpg",
    "id_image": "Nebula_886578",
    "count_view": 0
  },
  {
    "link_thumb": "https://live.staticflickr.com/65535/50039959752_05af802ce6_n.jpg",
    "id_album": "1402713104",
    "description": "Landscape_6391",
    "title": "Landscape_6391",
    "link_img": "https://live.staticflickr.com/65535/50039959752_f7daae072a_o.jpg",
    "id_image": "Landscape_6391",
    "count_view": 0
  },
  {
    "link_thumb": "https://live.staticflickr.com/65535/50039629456_451cf5a193_n.jpg",
    "id_album": "1204249541",
    "description": "Galaxy_280759",
    "title": "Galaxy_280759",
    "link_img": "https://live.staticflickr.com/65535/50039629456_c83a47b6c5_o.jpg",
    "id_image": "Galaxy_280759",
    "count_view": 0
  },
  {
    "link_thumb": "https://live.staticflickr.com/65535/50040589107_f9c7904d25_n.jpg",
    "id_album": "779690680",
    "description": "Robot_489383",
    "title": "Robot_489383",
    "link_img": "https://live.staticflickr.com/65535/50040589107_c7044d8e07_o.jpg",
    "id_image": "Robot_489383",
    "count_view": 0
  },
  {
    "link_thumb": "https://live.staticflickr.com/65535/50040183757_55bc58e13f_n.jpg",
    "id_album": "395161030",
    "description": "Planet_210868",
    "title": "Planet_210868",
    "link_img": "https://live.staticflickr.com/65535/50040183757_5a37a12ae5_o.jpg",
    "id_image": "Planet_210868",
    "count_view": 0
  },
  {
    "link_thumb": "https://live.staticflickr.com/65535/50041070682_63e73cdb70_n.jpg",
    "id_album": "-1449720967",
    "description": "StarTrek_207165",
    "title": "StarTrek_207165",
    "link_img": "https://live.staticflickr.com/65535/50041070682_d54226864f_o.jpg",
    "id_image": "StarTrek_207165",
    "count_view": 0
  },
  {
    "link_thumb": "https://live.staticflickr.com/65535/50039883601_5c059b27c4_n.jpg",
    "id_album": "-1862561193",
    "description": "Other_280795",
    "title": "Other_280795",
    "link_img": "https://live.staticflickr.com/65535/50039883601_0c8edf0243_o.jpg",
    "id_image": "Other_280795",
    "count_view": 0
  },
  {
    "link_thumb": "https://live.staticflickr.com/65535/50039328951_a6f01f1616_n.jpg",
    "id_album": "523598895",
    "description": "Artistic_317312",
    "title": "Artistic_317312",
    "link_img": "https://live.staticflickr.com/65535/50039328951_8b75a191ea_o.jpg",
    "id_image": "Artistic_317312",
    "count_view": 0
  },
  {
    "link_thumb": "https://live.staticflickr.com/65535/50040173221_f0cb0d15e1_n.jpg",
    "id_album": "376235057",
    "description": "Planetscape_439174",
    "title": "Planetscape_439174",
    "link_img": "https://live.staticflickr.com/65535/50040173221_7973cb7432_o.jpg",
    "id_image": "Planetscape_439174",
    "count_view": 0
  },
  {
    "link_thumb": "https://live.staticflickr.com/65535/50041511677_d3a59a28c1_n.jpg",
    "id_album": "-1863373220",
    "description": "StarWars_980524",
    "title": "StarWars_980524",
    "link_img": "https://live.staticflickr.com/65535/50041511677_e581f381df_o.jpg",
    "id_image": "StarWars_980524",
    "count_view": 0
  },
  {
    "link_thumb": "https://live.staticflickr.com/65535/50040709008_83990bc003_n.jpg",
    "id_album": "-1587696329",
    "description": "Stars_333372",
    "title": "Stars_333372",
    "link_img": "https://live.staticflickr.com/65535/50040709008_d0852aba20_o.jpg",
    "id_image": "Stars_333372",
    "count_view": 0
  },
  {
    "link_thumb": "https://live.staticflickr.com/65535/50040694702_2d061141a3_n.jpg",
    "id_album": "779690680",
    "description": "Robot_933179",
    "title": "Robot_933179",
    "link_img": "https://live.staticflickr.com/65535/50040694702_80845635af_o.jpg",
    "id_image": "Robot_933179",
    "count_view": 0
  },
  {
    "link_thumb": "https://live.staticflickr.com/65535/50040433137_85b79e8481_n.jpg",
    "id_album": "376235057",
    "description": "Planetscape_373315",
    "title": "Planetscape_373315",
    "link_img": "https://live.staticflickr.com/65535/50040433137_440de2d946_o.jpg",
    "id_image": "Planetscape_373315",
    "count_view": 0
  },
  {
    "link_thumb": "https://live.staticflickr.com/65535/50040176602_263716400b_n.jpg",
    "id_album": "395161030",
    "description": "Planet_182569",
    "title": "Planet_182569",
    "link_img": "https://live.staticflickr.com/65535/50040176602_27322675b3_o.jpg",
    "id_image": "Planet_182569",
    "count_view": 0
  },
  {
    "link_thumb": "https://live.staticflickr.com/65535/50040442596_9a60f16c18_n.jpg",
    "id_album": "779690680",
    "description": "Robot_949797",
    "title": "Robot_949797",
    "link_img": "https://live.staticflickr.com/65535/50040442596_2557fb0c85_o.jpg",
    "id_image": "Robot_949797",
    "count_view": 0
  },
  {
    "link_thumb": "https://live.staticflickr.com/65535/50038878188_c2018b6b0e_n.jpg",
    "id_album": "406431601",
    "description": "Building_920202",
    "title": "Building_920202",
    "link_img": "https://live.staticflickr.com/65535/50038878188_92ca5767f7_o.jpg",
    "id_image": "Building_920202",
    "count_view": 0
  },
  {
    "link_thumb": "https://live.staticflickr.com/65535/50039874972_1d925201ae_n.jpg",
    "id_album": "651930207",
    "description": "Explosion_712632",
    "title": "Explosion_712632",
    "link_img": "https://live.staticflickr.com/65535/50039874972_dcd9c444f4_o.jpg",
    "id_image": "Explosion_712632",
    "count_view": 0
  },
  {
    "link_thumb": "https://live.staticflickr.com/65535/50041665037_9431a73e04_n.jpg",
    "id_album": "2020068132",
    "description": "Vehicle_542589",
    "title": "Vehicle_542589",
    "link_img": "https://live.staticflickr.com/65535/50041665037_d8b46f41f1_o.jpg",
    "id_image": "Vehicle_542589",
    "count_view": 0
  },
  {
    "link_thumb": "https://live.staticflickr.com/65535/50039930596_336c7b308f_n.jpg",
    "id_album": "395161030",
    "description": "Planet_343743",
    "title": "Planet_343743",
    "link_img": "https://live.staticflickr.com/65535/50039930596_e683d4a767_o.jpg",
    "id_image": "Planet_343743",
    "count_view": 0
  },
  {
    "link_thumb": "https://live.staticflickr.com/65535/50039872113_142d9e857d_n.jpg",
    "id_album": "779690680",
    "description": "Robot_928645",
    "title": "Robot_928645",
    "link_img": "https://live.staticflickr.com/65535/50039872113_3fc60675f3_o.jpg",
    "id_image": "Robot_928645",
    "count_view": 0
  },
  {
    "link_thumb": "https://live.staticflickr.com/65535/50040290748_830d5627fb_n.jpg",
    "id_album": "-1449720967",
    "description": "StarTrek_334105",
    "title": "StarTrek_334105",
    "link_img": "https://live.staticflickr.com/65535/50040290748_147f3e9e8a_o.jpg",
    "id_image": "StarTrek_334105",
    "count_view": 0
  },
  {
    "link_thumb": "https://live.staticflickr.com/65535/50039102983_3cd1ecc87f_n.jpg",
    "id_album": "1204249541",
    "description": "Galaxy_744904",
    "title": "Galaxy_744904",
    "link_img": "https://live.staticflickr.com/65535/50039102983_6868b5ce55_o.jpg",
    "id_image": "Galaxy_744904",
    "count_view": 0
  },
  {
    "link_thumb": "https://live.staticflickr.com/65535/50038772593_382ecebfee_n.jpg",
    "id_album": "523598895",
    "description": "Artistic_233260",
    "title": "Artistic_233260",
    "link_img": "https://live.staticflickr.com/65535/50038772593_a9f7f1991e_o.jpg",
    "id_image": "Artistic_233260",
    "count_view": 0
  },
  {
    "link_thumb": "https://live.staticflickr.com/65535/50039952366_cbba71fa9f_n.jpg",
    "id_album": "395161030",
    "description": "Planet_476253",
    "title": "Planet_476253",
    "link_img": "https://live.staticflickr.com/65535/50039952366_7b676e320b_o.jpg",
    "id_image": "Planet_476253",
    "count_view": 0
  },
  {
    "link_thumb": "https://live.staticflickr.com/65535/50039412001_f9748f26a2_n.jpg",
    "id_album": "-1780971522",
    "description": "Biohazard_300094",
    "title": "Biohazard_300094",
    "link_img": "https://live.staticflickr.com/65535/50039412001_455d6f90a6_o.jpg",
    "id_image": "Biohazard_300094",
    "count_view": 0
  },
  {
    "link_thumb": "https://live.staticflickr.com/65535/50039352256_cfb8ff0a04_n.jpg",
    "id_album": "869545341",
    "description": "Astronaut_247116",
    "title": "Astronaut_247116",
    "link_img": "https://live.staticflickr.com/65535/50039352256_261f21f70f_o.jpg",
    "id_image": "Astronaut_247116",
    "count_view": 0
  },
  {
    "link_thumb": "https://live.staticflickr.com/65535/50040660562_290f8bf892_n.jpg",
    "id_album": "779690680",
    "description": "Robot_889656",
    "title": "Robot_889656",
    "link_img": "https://live.staticflickr.com/65535/50040660562_947b24b54d_o.jpg",
    "id_image": "Robot_889656",
    "count_view": 0
  },
  {
    "link_thumb": "https://live.staticflickr.com/65535/50038767768_2cd6176e17_n.jpg",
    "id_album": "523598895",
    "description": "Artistic_218245",
    "title": "Artistic_218245",
    "link_img": "https://live.staticflickr.com/65535/50038767768_88ca3d5f31_o.jpg",
    "id_image": "Artistic_218245",
    "count_view": 0
  },
  {
    "link_thumb": "https://live.staticflickr.com/65535/50039658142_09d8e94c66_n.jpg",
    "id_album": "1187037014",
    "description": "Battle_174030",
    "title": "Battle_174030",
    "link_img": "https://live.staticflickr.com/65535/50039658142_e35af38573_o.jpg",
    "id_image": "Battle_174030",
    "count_view": 0
  },
  {
    "link_thumb": "https://live.staticflickr.com/65535/50039236163_e868ef5301_n.jpg",
    "id_album": "-1610342324",
    "description": "Nebula_309974",
    "title": "Nebula_309974",
    "link_img": "https://live.staticflickr.com/65535/50039236163_7088d3cede_o.jpg",
    "id_image": "Nebula_309974",
    "count_view": 0
  },
  {
    "link_thumb": "https://live.staticflickr.com/65535/50040989917_4cf97342fe_n.jpg",
    "id_album": "2130067313",
    "description": "Spaceship_618003",
    "title": "Spaceship_618003",
    "link_img": "https://live.staticflickr.com/65535/50040989917_7225c2f8fe_o.jpg",
    "id_image": "Spaceship_618003",
    "count_view": 0
  },
  {
    "link_thumb": "https://live.staticflickr.com/65535/50038902518_74790f21f5_n.jpg",
    "id_album": "-1964113117",
    "description": "City_234063",
    "title": "City_234063",
    "link_img": "https://live.staticflickr.com/65535/50038902518_1001058761_o.jpg",
    "id_image": "City_234063",
    "count_view": 0
  },
  {
    "link_thumb": "https://live.staticflickr.com/65535/50039106558_84b5a464ec_n.jpg",
    "id_album": "1204249541",
    "description": "Galaxy_905628",
    "title": "Galaxy_905628",
    "link_img": "https://live.staticflickr.com/65535/50039106558_e8b65c48ef_o.jpg",
    "id_image": "Galaxy_905628",
    "count_view": 0
  },
  {
    "link_thumb": "https://live.staticflickr.com/65535/50040534327_86e49cbb1e_n.jpg",
    "id_album": "779690680",
    "description": "Robot_243468",
    "title": "Robot_243468",
    "link_img": "https://live.staticflickr.com/65535/50040534327_4232b5dd20_o.jpg",
    "id_image": "Robot_243468",
    "count_view": 0
  },
  {
    "link_thumb": "https://live.staticflickr.com/65535/50039144003_9877b1cee6_n.jpg",
    "id_album": "1402713104",
    "description": "Landscape_549184",
    "title": "Landscape_549184",
    "link_img": "https://live.staticflickr.com/65535/50039144003_a28302d139_o.jpg",
    "id_image": "Landscape_549184",
    "count_view": 0
  },
  {
    "link_thumb": "https://live.staticflickr.com/65535/50041331296_2d3bcb9885_n.jpg",
    "id_album": "1267121215",
    "description": "Steampunk_852654",
    "title": "Steampunk_852654",
    "link_img": "https://live.staticflickr.com/65535/50041331296_7b44712b14_o.jpg",
    "id_image": "Steampunk_852654",
    "count_view": 0
  },
  {
    "link_thumb": "https://live.staticflickr.com/65535/50039293628_526d4095b3_n.jpg",
    "id_album": "-1610342324",
    "description": "Nebula_839502",
    "title": "Nebula_839502",
    "link_img": "https://live.staticflickr.com/65535/50039293628_ff24600156_o.jpg",
    "id_image": "Nebula_839502",
    "count_view": 0
  },
  {
    "link_thumb": "https://live.staticflickr.com/65535/50039571732_408714c10d_n.jpg",
    "id_album": "523598895",
    "description": "Artistic_193454",
    "title": "Artistic_193454",
    "link_img": "https://live.staticflickr.com/65535/50039571732_c8201a9404_o.jpg",
    "id_image": "Artistic_193454",
    "count_view": 0
  },
  {
    "link_thumb": "https://live.staticflickr.com/65535/50039737386_0338bf630d_n.jpg",
    "id_album": "-1388385651",
    "description": "MilkyWay_657343",
    "title": "MilkyWay_657343",
    "link_img": "https://live.staticflickr.com/65535/50039737386_424da3b5d6_o.jpg",
    "id_image": "MilkyWay_657343",
    "count_view": 0
  },
  {
    "link_thumb": "https://live.staticflickr.com/65535/50040523623_57474da787_n.jpg",
    "id_album": "-1863373220",
    "description": "StarWars_1005773",
    "title": "StarWars_1005773",
    "link_img": "https://live.staticflickr.com/65535/50040523623_a4a24c2909_o.jpg",
    "id_image": "StarWars_1005773",
    "count_view": 0
  },
  {
    "link_thumb": "https://live.staticflickr.com/65535/50039316101_f254138103_n.jpg",
    "id_album": "523598895",
    "description": "Artistic_220349",
    "title": "Artistic_220349",
    "link_img": "https://live.staticflickr.com/65535/50039316101_4c923e41ac_o.jpg",
    "id_image": "Artistic_220349",
    "count_view": 0
  },
  {
    "link_thumb": "https://live.staticflickr.com/65535/50039664237_a4ce830849_n.jpg",
    "id_album": "1187037014",
    "description": "Battle_337237",
    "title": "Battle_337237",
    "link_img": "https://live.staticflickr.com/65535/50039664237_918d6dbcba_o.jpg",
    "id_image": "Battle_337237",
    "count_view": 0
  },
  {
    "link_thumb": "https://live.staticflickr.com/65535/50039482416_5c40ce104f_n.jpg",
    "id_album": "-1964113117",
    "description": "City_635056",
    "title": "City_635056",
    "link_img": "https://live.staticflickr.com/65535/50039482416_49959e162f_o.jpg",
    "id_image": "City_635056",
    "count_view": 0
  },
  {
    "link_thumb": "https://live.staticflickr.com/65535/50039100058_eb956c3c88_n.jpg",
    "id_album": "1204249541",
    "description": "Galaxy_607095",
    "title": "Galaxy_607095",
    "link_img": "https://live.staticflickr.com/65535/50039100058_0bcc2d5fd1_o.jpg",
    "id_image": "Galaxy_607095",
    "count_view": 0
  },
  {
    "link_thumb": "https://live.staticflickr.com/65535/50039678251_a959043a0c_n.jpg",
    "id_album": "1402713104",
    "description": "Landscape_330989",
    "title": "Landscape_330989",
    "link_img": "https://live.staticflickr.com/65535/50039678251_cdaa1671f5_o.jpg",
    "id_image": "Landscape_330989",
    "count_view": 0
  },
  {
    "link_thumb": "https://live.staticflickr.com/65535/50039841026_f40df8df65_n.jpg",
    "id_album": "-1610342324",
    "description": "Nebula_824817",
    "title": "Nebula_824817",
    "link_img": "https://live.staticflickr.com/65535/50039841026_8be40764ed_o.jpg",
    "id_image": "Nebula_824817",
    "count_view": 0
  },
  {
    "link_thumb": "https://live.staticflickr.com/65535/50040286386_59f1ec3ae1_n.jpg",
    "id_album": "779690680",
    "description": "Robot_309940",
    "title": "Robot_309940",
    "link_img": "https://live.staticflickr.com/65535/50040286386_efa91b9ed3_o.jpg",
    "id_image": "Robot_309940",
    "count_view": 0
  },
  {
    "link_thumb": "https://live.staticflickr.com/65535/50039591291_f8a544f7ba_n.jpg",
    "id_album": "829169633",
    "description": "Cyborg_489421",
    "title": "Cyborg_489421",
    "link_img": "https://live.staticflickr.com/65535/50039591291_da2c559b50_o.jpg",
    "id_image": "Cyborg_489421",
    "count_view": 0
  },
  {
    "link_thumb": "https://live.staticflickr.com/65535/50039289071_2d52326bc7_n.jpg",
    "id_album": "-419633230",
    "description": "Apocalyptic_957425",
    "title": "Apocalyptic_957425",
    "link_img": "https://live.staticflickr.com/65535/50039289071_5a9814f5fd_o.jpg",
    "id_image": "Apocalyptic_957425",
    "count_view": 0
  },
  {
    "link_thumb": "https://live.staticflickr.com/65535/50039909437_e2263a1674_n.jpg",
    "id_album": "1204249541",
    "description": "Galaxy_593259",
    "title": "Galaxy_593259",
    "link_img": "https://live.staticflickr.com/65535/50039909437_f23b6319c6_o.jpg",
    "id_image": "Galaxy_593259",
    "count_view": 0
  },
  {
    "link_thumb": "https://live.staticflickr.com/65535/50039655407_b52355070e_n.jpg",
    "id_album": "1187037014",
    "description": "Battle_1005785",
    "title": "Battle_1005785",
    "link_img": "https://live.staticflickr.com/65535/50039655407_cd8530cc6b_o.jpg",
    "id_image": "Battle_1005785",
    "count_view": 0
  },
  {
    "link_thumb": "https://live.staticflickr.com/65535/50040002321_cab0ed8039_n.jpg",
    "id_album": "1443611160",
    "description": "PlanetRise_344647",
    "title": "PlanetRise_344647",
    "link_img": "https://live.staticflickr.com/65535/50040002321_ea98c31a7a_o.jpg",
    "id_image": "PlanetRise_344647",
    "count_view": 0
  },
  {
    "link_thumb": "https://live.staticflickr.com/65535/50039508382_f3767a51f1_n.jpg",
    "id_album": "849020728",
    "description": "Alien_152001",
    "title": "Alien_152001",
    "link_img": "https://live.staticflickr.com/65535/50039508382_88ca33fe31_o.jpg",
    "id_image": "Alien_152001",
    "count_view": 0
  },
  {
    "link_thumb": "https://live.staticflickr.com/65535/50038844573_5cb0a0bca7_n.jpg",
    "id_album": "869545341",
    "description": "Astronaut_996885",
    "title": "Astronaut_996885",
    "link_img": "https://live.staticflickr.com/65535/50038844573_fe40d793de_o.jpg",
    "id_image": "Astronaut_996885",
    "count_view": 0
  },
  {
    "link_thumb": "https://live.staticflickr.com/65535/50041853547_ac3f84ac2c_n.jpg",
    "id_album": "-1675918237",
    "description": "WomenWarrior_970141",
    "title": "WomenWarrior_970141",
    "link_img": "https://live.staticflickr.com/65535/50041853547_1b9794e31c_o.jpg",
    "id_image": "WomenWarrior_970141",
    "count_view": 0
  }
]