[
  {
    "link_thumb": "https://live.staticflickr.com/65535/50039666647_85342c02c5_n.jpg",
    "id_album": "1187037014",
    "description": "Battle_602051",
    "title": "Battle_602051",
    "link_img": "https://live.staticflickr.com/65535/50039666647_2c44e76a52_o.jpg",
    "id_image": "Battle_602051",
    "count_view": 0
  },
  {
    "link_thumb": "https://live.staticflickr.com/65535/50039759782_85a85e8165_n.jpg",
    "id_album": "-1964113117",
    "description": "City_793615",
    "title": "City_793615",
    "link_img": "https://live.staticflickr.com/65535/50039759782_3b535ab60a_o.jpg",
    "id_image": "City_793615",
    "count_view": 0
  },
  {
    "link_thumb": "https://live.staticflickr.com/65535/50040867048_2e9290dc4e_n.jpg",
    "id_album": "2020068132",
    "description": "Vehicle_937790",
    "title": "Vehicle_937790",
    "link_img": "https://live.staticflickr.com/65535/50040867048_df299a208b_o.jpg",
    "id_image": "Vehicle_937790",
    "count_view": 0
  },
  {
    "link_thumb": "https://live.staticflickr.com/65535/50039970022_51f08f1ac5_n.jpg",
    "id_album": "1402713104",
    "description": "Landscape_782626",
    "title": "Landscape_782626",
    "link_img": "https://live.staticflickr.com/65535/50039970022_ee5b71364e_o.jpg",
    "id_image": "Landscape_782626",
    "count_view": 0
  },
  {
    "link_thumb": "https://live.staticflickr.com/65535/50039479083_46072790c2_n.jpg",
    "id_album": "814701616",
    "description": "PlanetaryRing_352392",
    "title": "PlanetaryRing_352392",
    "link_img": "https://live.staticflickr.com/65535/50039479083_7ccaa3e4eb_o.jpg",
    "id_image": "PlanetaryRing_352392",
    "count_view": 0
  },
  {
    "link_thumb": "https://live.staticflickr.com/65535/50039787588_c880a7118d_n.jpg",
    "id_album": "779690680",
    "description": "Robot_595402",
    "title": "Robot_595402",
    "link_img": "https://live.staticflickr.com/65535/50039787588_0af0b52215_o.jpg",
    "id_image": "Robot_595402",
    "count_view": 0
  },
  {
    "link_thumb": "https://live.staticflickr.com/65535/50039917627_ebefd915f2_n.jpg",
    "id_album": "1204249541",
    "description": "Galaxy_858367",
    "title": "Galaxy_858367",
    "link_img": "https://live.staticflickr.com/65535/50039917627_8b2cc81698_o.jpg",
    "id_image": "Galaxy_858367",
    "count_view": 0
  },
  {
    "link_thumb": "https://live.staticflickr.com/65535/50040399677_b89af3f3cf_n.jpg",
    "id_album": "-1102314093",
    "description": "Planets_78685",
    "title": "Planets_78685",
    "link_img": "https://live.staticflickr.com/65535/50040399677_09316be076_o.jpg",
    "id_image": "Planets_78685",
    "count_view": 0
  },
  {
    "link_thumb": "https://live.staticflickr.com/65535/50038800258_c15c95bc3f_n.jpg",
    "id_album": "869545341",
    "description": "Astronaut_1009318",
    "title": "Astronaut_1009318",
    "link_img": "https://live.staticflickr.com/65535/50038800258_450d7089d2_o.jpg",
    "id_image": "Astronaut_1009318",
    "count_view": 0
  },
  {
    "link_thumb": "https://live.staticflickr.com/65535/50041447716_d5df0f6461_n.jpg",
    "id_album": "-1261420436",
    "description": "Warrior_326039",
    "title": "Warrior_326039",
    "link_img": "https://live.staticflickr.com/65535/50041447716_d87650ac38_o.jpg",
    "id_image": "Warrior_326039",
    "count_view": 0
  },
  {
    "link_thumb": "https://live.staticflickr.com/65535/50038759718_08d8fafd36_n.jpg",
    "id_album": "523598895",
    "description": "Artistic_187047",
    "title": "Artistic_187047",
    "link_img": "https://live.staticflickr.com/65535/50038759718_1b762acc9c_o.jpg",
    "id_image": "Artistic_187047",
    "count_view": 0
  },
  {
    "link_thumb": "https://live.staticflickr.com/65535/50039479448_fc3df06820_n.jpg",
    "id_album": "814701616",
    "description": "PlanetaryRing_355071",
    "title": "PlanetaryRing_355071",
    "link_img": "https://live.staticflickr.com/65535/50039479448_36d6908422_o.jpg",
    "id_image": "PlanetaryRing_355071",
    "count_view": 0
  },
  {
    "link_thumb": "https://live.staticflickr.com/65535/50040254846_306a980d24_n.jpg",
    "id_album": "779690680",
    "description": "Robot_146639",
    "title": "Robot_146639",
    "link_img": "https://live.staticflickr.com/65535/50040254846_749b8f1e88_o.jpg",
    "id_image": "Robot_146639",
    "count_view": 0
  },
  {
    "link_thumb": "https://live.staticflickr.com/65535/50039702318_4ebcd9ca59_n.jpg",
    "id_album": "779690680",
    "description": "Robot_147397",
    "title": "Robot_147397",
    "link_img": "https://live.staticflickr.com/65535/50039702318_c3f45407de_o.jpg",
    "id_image": "Robot_147397",
    "count_view": 0
  },
  {
    "link_thumb": "https://live.staticflickr.com/65535/50039892497_667b10148b_n.jpg",
    "id_album": "1204249541",
    "description": "Galaxy_286847",
    "title": "Galaxy_286847",
    "link_img": "https://live.staticflickr.com/65535/50039892497_82c94ce85a_o.jpg",
    "id_image": "Galaxy_286847",
    "count_view": 0
  },
  {
    "link_thumb": "https://live.staticflickr.com/65535/50039874088_8a561c3cf9_n.jpg",
    "id_album": "779690680",
    "description": "Robot_930931",
    "title": "Robot_930931",
    "link_img": "https://live.staticflickr.com/65535/50039874088_66167b744d_o.jpg",
    "id_image": "Robot_930931",
    "count_view": 0
  },
  {
    "link_thumb": "https://live.staticflickr.com/65535/50040034967_8e7b12ee86_n.jpg",
    "id_album": "-1610342324",
    "description": "Nebula_217753",
    "title": "Nebula_217753",
    "link_img": "https://live.staticflickr.com/65535/50040034967_ba64db5a17_o.jpg",
    "id_image": "Nebula_217753",
    "count_view": 0
  },
  {
    "link_thumb": "https://live.staticflickr.com/65535/50039890522_4369a3fe3b_n.jpg",
    "id_album": "1204249541",
    "description": "Galaxy_243277",
    "title": "Galaxy_243277",
    "link_img": "https://live.staticflickr.com/65535/50039890522_374c96081f_o.jpg",
    "id_image": "Galaxy_243277",
    "count_view": 0
  },
  {
    "link_thumb": "https://live.staticflickr.com/65535/50039273071_f3b244598e_n.jpg",
    "id_album": "849020728",
    "description": "Alien_666704",
    "title": "Alien_666704",
    "link_img": "https://live.staticflickr.com/65535/50039273071_3e2f750b5e_o.jpg",
    "id_image": "Alien_666704",
    "count_view": 0
  },
  {
    "link_thumb": "https://live.staticflickr.com/65535/50039844313_452374ce22_n.jpg",
    "id_album": "779690680",
    "description": "Robot_894436",
    "title": "Robot_894436",
    "link_img": "https://live.staticflickr.com/65535/50039844313_5cdd645ff1_o.jpg",
    "id_image": "Robot_894436",
    "count_view": 0
  },
  {
    "link_thumb": "https://live.staticflickr.com/65535/50038958353_982575732e_n.jpg",
    "id_album": "-1964113117",
    "description": "City_864521",
    "title": "City_864521",
    "link_img": "https://live.staticflickr.com/65535/50038958353_d48e1e4bc3_o.jpg",
    "id_image": "City_864521",
    "count_view": 0
  },
  {
    "link_thumb": "https://live.staticflickr.com/65535/50039234223_ba04df02fc_n.jpg",
    "id_album": "-1610342324",
    "description": "Nebula_291109",
    "title": "Nebula_291109",
    "link_img": "https://live.staticflickr.com/65535/50039234223_af54406c6c_o.jpg",
    "id_image": "Nebula_291109",
    "count_view": 0
  },
  {
    "link_thumb": "https://live.staticflickr.com/65535/50039076413_cd20851a56_n.jpg",
    "id_album": "1204249541",
    "description": "Galaxy_189863",
    "title": "Galaxy_189863",
    "link_img": "https://live.staticflickr.com/65535/50039076413_88a86322cc_o.jpg",
    "id_image": "Galaxy_189863",
    "count_view": 0
  },
  {
    "link_thumb": "https://live.staticflickr.com/65535/50041630072_da43943cdc_n.jpg",
    "id_album": "-1177476763",
    "description": "Sunrise_525903",
    "title": "Sunrise_525903",
    "link_img": "https://live.staticflickr.com/65535/50041630072_c391828260_o.jpg",
    "id_image": "Sunrise_525903",
    "count_view": 0
  },
  {
    "link_thumb": "https://live.staticflickr.com/65535/50039924582_0e28a68e33_n.jpg",
    "id_album": "1402713104",
    "description": "Landscape_152739",
    "title": "Landscape_152739",
    "link_img": "https://live.staticflickr.com/65535/50039924582_3af0a767a6_o.jpg",
    "id_image": "Landscape_152739",
    "count_view": 0
  },
  {
    "link_thumb": "https://live.staticflickr.com/65535/50040853072_89d1454de2_n.jpg",
    "id_album": "2130067313",
    "description": "Spaceship_183938",
    "title": "Spaceship_183938",
    "link_img": "https://live.staticflickr.com/65535/50040853072_38e72c4b33_o.jpg",
    "id_image": "Spaceship_183938",
    "count_view": 0
  },
  {
    "link_thumb": "https://live.staticflickr.com/65535/50040480922_950edd208c_n.jpg",
    "id_album": "-482547208",
    "description": "PostApocalyptic_599881",
    "title": "PostApocalyptic_599881",
    "link_img": "https://live.staticflickr.com/65535/50040480922_2e0d604ba5_o.jpg",
    "id_image": "PostApocalyptic_599881",
    "count_view": 0
  },
  {
    "link_thumb": "https://live.staticflickr.com/65535/50039424631_fc0d595b55_n.jpg",
    "id_album": "406431601",
    "description": "Building_871317",
    "title": "Building_871317",
    "link_img": "https://live.staticflickr.com/65535/50039424631_38b2d55113_o.jpg",
    "id_image": "Building_871317",
    "count_view": 0
  },
  {
    "link_thumb": "https://live.staticflickr.com/65535/50039789986_539f6e0629_n.jpg",
    "id_album": "-1610342324",
    "description": "Nebula_393940",
    "title": "Nebula_393940",
    "link_img": "https://live.staticflickr.com/65535/50039789986_4301ffbcce_o.jpg",
    "id_image": "Nebula_393940",
    "count_view": 0
  },
  {
    "link_thumb": "https://live.staticflickr.com/65535/50039357121_076d3abe58_n.jpg",
    "id_album": "869545341",
    "description": "Astronaut_548678",
    "title": "Astronaut_548678",
    "link_img": "https://live.staticflickr.com/65535/50039357121_4335462e92_o.jpg",
    "id_image": "Astronaut_548678",
    "count_view": 0
  },
  {
    "link_thumb": "https://live.staticflickr.com/65535/50041477042_f628429dd4_n.jpg",
    "id_album": "-1863373220",
    "description": "StarWars_671995",
    "title": "StarWars_671995",
    "link_img": "https://live.staticflickr.com/65535/50041477042_d7d01526c2_o.jpg",
    "id_image": "StarWars_671995",
    "count_view": 0
  },
  {
    "link_thumb": "https://live.staticflickr.com/65535/50040783723_e1136db5d3_n.jpg",
    "id_album": "-221671103",
    "description": "Sun_123086",
    "title": "Sun_123086",
    "link_img": "https://live.staticflickr.com/65535/50040783723_f81773a074_o.jpg",
    "id_image": "Sun_123086",
    "count_view": 0
  },
  {
    "link_thumb": "https://live.staticflickr.com/65535/50040394666_73c529a69e_n.jpg",
    "id_album": "779690680",
    "description": "Robot_887971",
    "title": "Robot_887971",
    "link_img": "https://live.staticflickr.com/65535/50040394666_9f4aab1e44_o.jpg",
    "id_image": "Robot_887971",
    "count_view": 0
  },
  {
    "link_thumb": "https://live.staticflickr.com/65535/50039451773_92f5d9ef5b_n.jpg",
    "id_album": "1443611160",
    "description": "PlanetRise_352904",
    "title": "PlanetRise_352904",
    "link_img": "https://live.staticflickr.com/65535/50039451773_f18de5d5db_o.jpg",
    "id_image": "PlanetRise_352904",
    "count_view": 0
  },
  {
    "link_thumb": "https://live.staticflickr.com/65535/50041269821_07d29ffde5_n.jpg",
    "id_album": "-1587696329",
    "description": "Stars_458289",
    "title": "Stars_458289",
    "link_img": "https://live.staticflickr.com/65535/50041269821_45323dc392_o.jpg",
    "id_image": "Stars_458289",
    "count_view": 0
  },
  {
    "link_thumb": "https://live.staticflickr.com/65535/50039229671_d90c60133b_n.jpg",
    "id_album": "280884763",
    "description": "Abstract_324581",
    "title": "Abstract_324581",
    "link_img": "https://live.staticflickr.com/65535/50039229671_720e128555_o.jpg",
    "id_image": "Abstract_324581",
    "count_view": 0
  },
  {
    "link_thumb": "https://live.staticflickr.com/65535/50039664387_8a5b6fb96d_n.jpg",
    "id_album": "1187037014",
    "description": "Battle_374437",
    "title": "Battle_374437",
    "link_img": "https://live.staticflickr.com/65535/50039664387_9b647ba555_o.jpg",
    "id_image": "Battle_374437",
    "count_view": 0
  },
  {
    "link_thumb": "https://live.staticflickr.com/65535/50038747338_06160ef0c9_n.jpg",
    "id_album": "523598895",
    "description": "Artistic_117138",
    "title": "Artistic_117138",
    "link_img": "https://live.staticflickr.com/65535/50038747338_45748feee7_o.jpg",
    "id_image": "Artistic_117138",
    "count_view": 0
  },
  {
    "link_thumb": "https://live.staticflickr.com/65535/50041217966_01dd46151b_n.jpg",
    "id_album": "-1863373220",
    "description": "StarWars_711088",
    "title": "StarWars_711088",
    "link_img": "https://live.staticflickr.com/65535/50041217966_10b209133b_o.jpg",
    "id_image": "StarWars_711088",
    "count_view": 0
  },
  {
    "link_thumb": "https://live.staticflickr.com/65535/50041460892_52460d9d35_n.jpg",
    "id_album": "-1863373220",
    "description": "StarWars_585048",
    "title": "StarWars_585048",
    "link_img": "https://live.staticflickr.com/65535/50041460892_012f380f0b_o.jpg",
    "id_image": "StarWars_585048",
    "count_view": 0
  },
  {
    "link_thumb": "https://live.staticflickr.com/65535/50040084017_f5fce9eae9_n.jpg",
    "id_album": "-1610342324",
    "description": "Nebula_678913",
    "title": "Nebula_678913",
    "link_img": "https://live.staticflickr.com/65535/50040084017_4c25a83956_o.jpg",
    "id_image": "Nebula_678913",
    "count_view": 0
  },
  {
    "link_thumb": "https://live.staticflickr.com/65535/50039533161_8c3a5bf048_n.jpg",
    "id_album": "-1964113117",
    "description": "City_992759",
    "title": "City_992759",
    "link_img": "https://live.staticflickr.com/65535/50039533161_fec4689f84_o.jpg",
    "id_image": "City_992759",
    "count_view": 0
  },
  {
    "link_thumb": "https://live.staticflickr.com/65535/50039616311_abcc17ef0c_n.jpg",
    "id_album": "2104507156",
    "description": "Fantasy_162699",
    "title": "Fantasy_162699",
    "link_img": "https://live.staticflickr.com/65535/50039616311_ea6e924d00_o.jpg",
    "id_image": "Fantasy_162699",
    "count_view": 0
  },
  {
    "link_thumb": "https://live.staticflickr.com/65535/50039120493_7d2b38d142_n.jpg",
    "id_album": "1402713104",
    "description": "Landscape_280014",
    "title": "Landscape_280014",
    "link_img": "https://live.staticflickr.com/65535/50039120493_5d13e9c038_o.jpg",
    "id_image": "Landscape_280014",
    "count_view": 0
  },
  {
    "link_thumb": "https://live.staticflickr.com/65535/50039937221_877ca507ca_n.jpg",
    "id_album": "395161030",
    "description": "Planet_370784",
    "title": "Planet_370784",
    "link_img": "https://live.staticflickr.com/65535/50039937221_985b407c5f_o.jpg",
    "id_image": "Planet_370784",
    "count_view": 0
  },
  {
    "link_thumb": "https://live.staticflickr.com/65535/50040802088_db00d8f7a3_n.jpg",
    "id_album": "-1177476763",
    "description": "Sunrise_104848",
    "title": "Sunrise_104848",
    "link_img": "https://live.staticflickr.com/65535/50040802088_d140b337f7_o.jpg",
    "id_image": "Sunrise_104848",
    "count_view": 0
  },
  {
    "link_thumb": "https://live.staticflickr.com/65535/50039956453_df4bb82f49_n.jpg",
    "id_album": "1613540653",
    "description": "Space_542443",
    "title": "Space_542443",
    "link_img": "https://live.staticflickr.com/65535/50039956453_567daf2a77_o.jpg",
    "id_image": "Space_542443",
    "count_view": 0
  },
  {
    "link_thumb": "https://live.staticflickr.com/65535/50039743387_7d6a0ebf99_n.jpg",
    "id_album": "-1964113117",
    "description": "City_616561",
    "title": "City_616561",
    "link_img": "https://live.staticflickr.com/65535/50039743387_6ec66906ac_o.jpg",
    "id_image": "City_616561",
    "count_view": 0
  },
  {
    "link_thumb": "https://live.staticflickr.com/65535/50040898838_373db8e5e8_n.jpg",
    "id_album": "-1261420436",
    "description": "Warrior_373908",
    "title": "Warrior_373908",
    "link_img": "https://live.staticflickr.com/65535/50040898838_b3ed1ce265_o.jpg",
    "id_image": "Warrior_373908",
    "count_view": 0
  },
  {
    "link_thumb": "https://live.staticflickr.com/65535/50039213683_8d6fa42b9c_n.jpg",
    "id_album": "-1610342324",
    "description": "Nebula_15041",
    "title": "Nebula_15041",
    "link_img": "https://live.staticflickr.com/65535/50039213683_f766180341_o.jpg",
    "id_image": "Nebula_15041",
    "count_view": 0
  },
  {
    "link_thumb": "https://live.staticflickr.com/65535/50041450807_85d70ee999_n.jpg",
    "id_album": "-1863373220",
    "description": "StarWars_497639",
    "title": "StarWars_497639",
    "link_img": "https://live.staticflickr.com/65535/50041450807_53b0d23841_o.jpg",
    "id_image": "StarWars_497639",
    "count_view": 0
  },
  {
    "link_thumb": "https://live.staticflickr.com/65535/50038766653_06cac5a4e7_n.jpg",
    "id_album": "523598895",
    "description": "Artistic_211323",
    "title": "Artistic_211323",
    "link_img": "https://live.staticflickr.com/65535/50038766653_802c237498_o.jpg",
    "id_image": "Artistic_211323",
    "count_view": 0
  },
  {
    "link_thumb": "https://live.staticflickr.com/65535/50040610512_607610f1f2_n.jpg",
    "id_album": "779690680",
    "description": "Robot_616676",
    "title": "Robot_616676",
    "link_img": "https://live.staticflickr.com/65535/50040610512_627500c06d_o.jpg",
    "id_image": "Robot_616676",
    "count_view": 0
  },
  {
    "link_thumb": "https://live.staticflickr.com/65535/50038983168_c52cdcffd1_n.jpg",
    "id_album": "-1964113117",
    "description": "City_982184",
    "title": "City_982184",
    "link_img": "https://live.staticflickr.com/65535/50038983168_5a99ae0d3e_o.jpg",
    "id_image": "City_982184",
    "count_view": 0
  },
  {
    "link_thumb": "https://live.staticflickr.com/65535/50041624142_3c2eae8338_n.jpg",
    "id_album": "-1177476763",
    "description": "Sunrise_352786",
    "title": "Sunrise_352786",
    "link_img": "https://live.staticflickr.com/65535/50041624142_224a809cf7_o.jpg",
    "id_image": "Sunrise_352786",
    "count_view": 0
  },
  {
    "link_thumb": "https://live.staticflickr.com/65535/50039357901_10896687e9_n.jpg",
    "id_album": "869545341",
    "description": "Astronaut_565690",
    "title": "Astronaut_565690",
    "link_img": "https://live.staticflickr.com/65535/50039357901_1d4d8bf517_o.jpg",
    "id_image": "Astronaut_565690",
    "count_view": 0
  },
  {
    "link_thumb": "https://live.staticflickr.com/65535/50040351241_38058f7c80_n.jpg",
    "id_album": "779690680",
    "description": "Robot_649110",
    "title": "Robot_649110",
    "link_img": "https://live.staticflickr.com/65535/50040351241_004cc04465_o.jpg",
    "id_image": "Robot_649110",
    "count_view": 0
  },
  {
    "link_thumb": "https://live.staticflickr.com/65535/50041574982_dc5f51af90_n.jpg",
    "id_album": "1267121215",
    "description": "Steampunk_303880",
    "title": "Steampunk_303880",
    "link_img": "https://live.staticflickr.com/65535/50041574982_bf59e4b132_o.jpg",
    "id_image": "Steampunk_303880",
    "count_view": 0
  },
  {
    "link_thumb": "https://live.staticflickr.com/65535/50039683503_13776077eb_n.jpg",
    "id_album": "-482547208",
    "description": "PostApocalyptic_977112",
    "title": "PostApocalyptic_977112",
    "link_img": "https://live.staticflickr.com/65535/50039683503_baa35c4ec0_o.jpg",
    "id_image": "PostApocalyptic_977112",
    "count_view": 0
  },
  {
    "link_thumb": "https://live.staticflickr.com/65535/50040080242_da219b8ede_n.jpg",
    "id_album": "-1610342324",
    "description": "Nebula_601158",
    "title": "Nebula_601158",
    "link_img": "https://live.staticflickr.com/65535/50040080242_ae7859be1e_o.jpg",
    "id_image": "Nebula_601158",
    "count_view": 0
  },
  {
    "link_thumb": "https://live.staticflickr.com/65535/50038869373_2da71c0765_n.jpg",
    "id_album": "-1780971522",
    "description": "Biohazard_569437",
    "title": "Biohazard_569437",
    "link_img": "https://live.staticflickr.com/65535/50038869373_5c100c6fdd_o.jpg",
    "id_image": "Biohazard_569437",
    "count_view": 0
  },
  {
    "link_thumb": "https://live.staticflickr.com/65535/50038940478_3db020d6dc_n.jpg",
    "id_album": "-1964113117",
    "description": "City_694107",
    "title": "City_694107",
    "link_img": "https://live.staticflickr.com/65535/50038940478_28f04d2dd3_o.jpg",
    "id_image": "City_694107",
    "count_view": 0
  },
  {
    "link_thumb": "https://live.staticflickr.com/65535/50039082588_37f557ddf0_n.jpg",
    "id_album": "1204249541",
    "description": "Galaxy_369509",
    "title": "Galaxy_369509",
    "link_img": "https://live.staticflickr.com/65535/50039082588_2786c73b7e_o.jpg",
    "id_image": "Galaxy_369509",
    "count_view": 0
  },
  {
    "link_thumb": "https://live.staticflickr.com/65535/50039311566_038ac5c7e2_n.jpg",
    "id_album": "523598895",
    "description": "Artistic_202209",
    "title": "Artistic_202209",
    "link_img": "https://live.staticflickr.com/65535/50039311566_3d9eb0210e_o.jpg",
    "id_image": "Artistic_202209",
    "count_view": 0
  },
  {
    "link_thumb": "https://live.staticflickr.com/65535/50039501037_18980de568_n.jpg",
    "id_album": "-406145265",
    "description": "Aircraft_367511",
    "title": "Aircraft_367511",
    "link_img": "https://live.staticflickr.com/65535/50039501037_0a76b529a2_o.jpg",
    "id_image": "Aircraft_367511",
    "count_view": 0
  },
  {
    "link_thumb": "https://live.staticflickr.com/65535/50039808526_05da88f98d_n.jpg",
    "id_album": "-1610342324",
    "description": "Nebula_552350",
    "title": "Nebula_552350",
    "link_img": "https://live.staticflickr.com/65535/50039808526_6fb9f14188_o.jpg",
    "id_image": "Nebula_552350",
    "count_view": 0
  },
  {
    "link_thumb": "https://live.staticflickr.com/65535/50039879588_d370901dae_n.jpg",
    "id_album": "779690680",
    "description": "Robot_937812",
    "title": "Robot_937812",
    "link_img": "https://live.staticflickr.com/65535/50039879588_5b17ba7e15_o.jpg",
    "id_image": "Robot_937812",
    "count_view": 0
  },
  {
    "link_thumb": "https://live.staticflickr.com/65535/50039544571_b8b9ca04d4_n.jpg",
    "id_album": "894679094",
    "description": "Collision_931797",
    "title": "Collision_931797",
    "link_img": "https://live.staticflickr.com/65535/50039544571_4029542c00_o.jpg",
    "id_image": "Collision_931797",
    "count_view": 0
  },
  {
    "link_thumb": "https://live.staticflickr.com/65535/50040397606_e162180d1d_n.jpg",
    "id_album": "779690680",
    "description": "Robot_894441",
    "title": "Robot_894441",
    "link_img": "https://live.staticflickr.com/65535/50040397606_e2d6583ec9_o.jpg",
    "id_image": "Robot_894441",
    "count_view": 0
  },
  {
    "link_thumb": "https://live.staticflickr.com/65535/50039495872_204e1043d7_n.jpg",
    "id_album": "-406145265",
    "description": "Aircraft_1007528",
    "title": "Aircraft_1007528",
    "link_img": "https://live.staticflickr.com/65535/50039495872_fb3563affb_o.jpg",
    "id_image": "Aircraft_1007528",
    "count_view": 0
  },
  {
    "link_thumb": "https://live.staticflickr.com/65535/50039258993_1673b08626_n.jpg",
    "id_album": "-1610342324",
    "description": "Nebula_551112",
    "title": "Nebula_551112",
    "link_img": "https://live.staticflickr.com/65535/50039258993_1f9721ccf8_o.jpg",
    "id_image": "Nebula_551112",
    "count_view": 0
  },
  {
    "link_thumb": "https://live.staticflickr.com/65535/50039258488_d839decf0a_n.jpg",
    "id_album": "-1610342324",
    "description": "Nebula_550544",
    "title": "Nebula_550544",
    "link_img": "https://live.staticflickr.com/65535/50039258488_967900c28c_o.jpg",
    "id_image": "Nebula_550544",
    "count_view": 0
  },
  {
    "link_thumb": "https://live.staticflickr.com/65535/50041442602_257bfc854a_n.jpg",
    "id_album": "-1863373220",
    "description": "StarWars_430729",
    "title": "StarWars_430729",
    "link_img": "https://live.staticflickr.com/65535/50041442602_f7c1f17c9b_o.jpg",
    "id_image": "StarWars_430729",
    "count_view": 0
  },
  {
    "link_thumb": "https://live.staticflickr.com/65535/50038965323_cbf454b1ef_n.jpg",
    "id_album": "-1964113117",
    "description": "City_890621",
    "title": "City_890621",
    "link_img": "https://live.staticflickr.com/65535/50038965323_280b38ed28_o.jpg",
    "id_image": "City_890621",
    "count_view": 0
  },
  {
    "link_thumb": "https://live.staticflickr.com/65535/50040375771_e10723b9e7_n.jpg",
    "id_album": "779690680",
    "description": "Robot_857299",
    "title": "Robot_857299",
    "link_img": "https://live.staticflickr.com/65535/50040375771_e5b4c05cd5_o.jpg",
    "id_image": "Robot_857299",
    "count_view": 0
  },
  {
    "link_thumb": "https://live.staticflickr.com/65535/50040395776_6770f91f91_n.jpg",
    "id_album": "779690680",
    "description": "Robot_889655",
    "title": "Robot_889655",
    "link_img": "https://live.staticflickr.com/65535/50040395776_2b220b068e_o.jpg",
    "id_image": "Robot_889655",
    "count_view": 0
  },
  {
    "link_thumb": "https://live.staticflickr.com/65535/50039775206_95665748ea_n.jpg",
    "id_album": "-1610342324",
    "description": "Nebula_243346",
    "title": "Nebula_243346",
    "link_img": "https://live.staticflickr.com/65535/50039775206_0ae0d0f322_o.jpg",
    "id_image": "Nebula_243346",
    "count_view": 0
  },
  {
    "link_thumb": "https://live.staticflickr.com/65535/50039662092_f640483f96_n.jpg",
    "id_album": "1187037014",
    "description": "Battle_275553",
    "title": "Battle_275553",
    "link_img": "https://live.staticflickr.com/65535/50039662092_06e683d791_o.jpg",
    "id_image": "Battle_275553",
    "count_view": 0
  },
  {
    "link_thumb": "https://live.staticflickr.com/65535/50039445301_2c2b38c486_n.jpg",
    "id_album": "-1964113117",
    "description": "City_208677",
    "title": "City_208677",
    "link_img": "https://live.staticflickr.com/65535/50039445301_150035a513_o.jpg",
    "id_image": "City_208677",
    "count_view": 0
  },
  {
    "link_thumb": "https://live.staticflickr.com/65535/50038744983_ab7bb8c314_n.jpg",
    "id_album": "523598895",
    "description": "Artistic_108619",
    "title": "Artistic_108619",
    "link_img": "https://live.staticflickr.com/65535/50038744983_78600e8574_o.jpg",
    "id_image": "Artistic_108619",
    "count_view": 0
  },
  {
    "link_thumb": "https://live.staticflickr.com/65535/50039314751_38970c954a_n.jpg",
    "id_album": "523598895",
    "description": "Artistic_211487",
    "title": "Artistic_211487",
    "link_img": "https://live.staticflickr.com/65535/50039314751_22dbc42280_o.jpg",
    "id_image": "Artistic_211487",
    "count_view": 0
  },
  {
    "link_thumb": "https://live.staticflickr.com/65535/50039694682_ccfe7af7db_n.jpg",
    "id_album": "-1964113117",
    "description": "City_105543",
    "title": "City_105543",
    "link_img": "https://live.staticflickr.com/65535/50039694682_4892406183_o.jpg",
    "id_image": "City_105543",
    "count_view": 0
  },
  {
    "link_thumb": "https://live.staticflickr.com/65535/50040791728_37f857abcc_n.jpg",
    "id_album": "-221671103",
    "description": "Sun_333823",
    "title": "Sun_333823",
    "link_img": "https://live.staticflickr.com/65535/50040791728_d29e2fef1e_o.jpg",
    "id_image": "Sun_333823",
    "count_view": 0
  },
  {
    "link_thumb": "https://live.staticflickr.com/65535/50038866188_2e2e221f9e_n.jpg",
    "id_album": "-1780971522",
    "description": "Biohazard_494252",
    "title": "Biohazard_494252",
    "link_img": "https://live.staticflickr.com/65535/50038866188_39691a9eb1_o.jpg",
    "id_image": "Biohazard_494252",
    "count_view": 0
  },
  {
    "link_thumb": "https://live.staticflickr.com/65535/50039752418_9ba5f06753_n.jpg",
    "id_album": "779690680",
    "description": "Robot_412738",
    "title": "Robot_412738",
    "link_img": "https://live.staticflickr.com/65535/50039752418_21ebf8738c_o.jpg",
    "id_image": "Robot_412738",
    "count_view": 0
  },
  {
    "link_thumb": "https://live.staticflickr.com/65535/50039482416_5c40ce104f_n.jpg",
    "id_album": "-1964113117",
    "description": "City_635056",
    "title": "City_635056",
    "link_img": "https://live.staticflickr.com/65535/50039482416_49959e162f_o.jpg",
    "id_image": "City_635056",
    "count_view": 0
  },
  {
    "link_thumb": "https://live.staticflickr.com/65535/50039785822_d9dddc7a4c_n.jpg",
    "id_album": "-1964113117",
    "description": "City_936233",
    "title": "City_936233",
    "link_img": "https://live.staticflickr.com/65535/50039785822_797b176c20_o.jpg",
    "id_image": "City_936233",
    "count_view": 0
  },
  {
    "link_thumb": "https://live.staticflickr.com/65535/50040394336_78457ed5cd_n.jpg",
    "id_album": "779690680",
    "description": "Robot_886636",
    "title": "Robot_886636",
    "link_img": "https://live.staticflickr.com/65535/50040394336_b0b53e6684_o.jpg",
    "id_image": "Robot_886636",
    "count_view": 0
  },
  {
    "link_thumb": "https://live.staticflickr.com/65535/50038747103_28d7bb27f9_n.jpg",
    "id_album": "523598895",
    "description": "Artistic_116288",
    "title": "Artistic_116288",
    "link_img": "https://live.staticflickr.com/65535/50038747103_3656f952f8_o.jpg",
    "id_image": "Artistic_116288",
    "count_view": 0
  },
  {
    "link_thumb": "https://live.staticflickr.com/65535/50039810966_74a8e4e6a3_n.jpg",
    "id_album": "-1610342324",
    "description": "Nebula_560769",
    "title": "Nebula_560769",
    "link_img": "https://live.staticflickr.com/65535/50039810966_cabd38a3ca_o.jpg",
    "id_image": "Nebula_560769",
    "count_view": 0
  },
  {
    "link_thumb": "https://live.staticflickr.com/65535/50039169828_f68aa75b28_n.jpg",
    "id_album": "1402713104",
    "description": "Landscape_893201",
    "title": "Landscape_893201",
    "link_img": "https://live.staticflickr.com/65535/50039169828_ce5263ba67_o.jpg",
    "id_image": "Landscape_893201",
    "count_view": 0
  },
  {
    "link_thumb": "https://live.staticflickr.com/65535/50039263233_be453697e9_n.jpg",
    "id_album": "-1610342324",
    "description": "Nebula_573734",
    "title": "Nebula_573734",
    "link_img": "https://live.staticflickr.com/65535/50039263233_4e376df259_o.jpg",
    "id_image": "Nebula_573734",
    "count_view": 0
  },
  {
    "link_thumb": "https://live.staticflickr.com/65535/50039803456_4c3d1233fd_n.jpg",
    "id_album": "-1610342324",
    "description": "Nebula_525901",
    "title": "Nebula_525901",
    "link_img": "https://live.staticflickr.com/65535/50039803456_996460d13b_o.jpg",
    "id_image": "Nebula_525901",
    "count_view": 0
  },
  {
    "link_thumb": "https://live.staticflickr.com/65535/50041585721_bee46edfde_n.jpg",
    "id_album": "-1675918237",
    "description": "WomenWarrior_629985",
    "title": "WomenWarrior_629985",
    "link_img": "https://live.staticflickr.com/65535/50041585721_425c449f0b_o.jpg",
    "id_image": "WomenWarrior_629985",
    "count_view": 0
  },
  {
    "link_thumb": "https://live.staticflickr.com/65535/50039230713_d59fcb614b_n.jpg",
    "id_album": "-1610342324",
    "description": "Nebula_274697",
    "title": "Nebula_274697",
    "link_img": "https://live.staticflickr.com/65535/50039230713_7653146d9a_o.jpg",
    "id_image": "Nebula_274697",
    "count_view": 0
  },
  {
    "link_thumb": "https://live.staticflickr.com/65535/50040695273_693dd03db2_n.jpg",
    "id_album": "-1863373220",
    "description": "StarWars_980528",
    "title": "StarWars_980528",
    "link_img": "https://live.staticflickr.com/65535/50040695273_c0e6749399_o.jpg",
    "id_image": "StarWars_980528",
    "count_view": 0
  },
  {
    "link_thumb": "https://live.staticflickr.com/65535/50041312251_28bb2ddf90_n.jpg",
    "id_album": "1267121215",
    "description": "Steampunk_299926",
    "title": "Steampunk_299926",
    "link_img": "https://live.staticflickr.com/65535/50041312251_dcd7a7bc35_o.jpg",
    "id_image": "Steampunk_299926",
    "count_view": 0
  },
  {
    "link_thumb": "https://live.staticflickr.com/65535/50039953261_9e3d244447_n.jpg",
    "id_album": "395161030",
    "description": "Planet_50085",
    "title": "Planet_50085",
    "link_img": "https://live.staticflickr.com/65535/50039953261_46edb3a80d_o.jpg",
    "id_image": "Planet_50085",
    "count_view": 0
  },
  {
    "link_thumb": "https://live.staticflickr.com/65535/50040111467_1e9c7e3b87_n.jpg",
    "id_album": "-1610342324",
    "description": "Nebula_874817",
    "title": "Nebula_874817",
    "link_img": "https://live.staticflickr.com/65535/50040111467_f499bef8db_o.jpg",
    "id_image": "Nebula_874817",
    "count_view": 0
  },
  {
    "link_thumb": "https://live.staticflickr.com/65535/50041591096_089ec76658_n.jpg",
    "id_album": "-1675918237",
    "description": "WomenWarrior_928517",
    "title": "WomenWarrior_928517",
    "link_img": "https://live.staticflickr.com/65535/50041591096_8507b5c78f_o.jpg",
    "id_image": "WomenWarrior_928517",
    "count_view": 0
  },
  {
    "link_thumb": "https://live.staticflickr.com/65535/50038744443_9e0d1e166b_n.jpg",
    "id_album": "523598895",
    "description": "Artistic_105989",
    "title": "Artistic_105989",
    "link_img": "https://live.staticflickr.com/65535/50038744443_0fc2962983_o.jpg",
    "id_image": "Artistic_105989",
    "count_view": 0
  },
  {
    "link_thumb": "https://live.staticflickr.com/65535/50038900478_17de58b3dd_n.jpg",
    "id_album": "-1964113117",
    "description": "City_220572",
    "title": "City_220572",
    "link_img": "https://live.staticflickr.com/65535/50038900478_c510b96934_o.jpg",
    "id_image": "City_220572",
    "count_view": 0
  },
  {
    "link_thumb": "https://live.staticflickr.com/65535/50039687387_5618a75fc7_n.jpg",
    "id_album": "406431601",
    "description": "Building_871363",
    "title": "Building_871363",
    "link_img": "https://live.staticflickr.com/65535/50039687387_9506cf72be_o.jpg",
    "id_image": "Building_871363",
    "count_view": 0
  },
  {
    "link_thumb": "https://live.staticflickr.com/65535/50041582852_f814d0c93a_n.jpg",
    "id_album": "1267121215",
    "description": "Steampunk_515158",
    "title": "Steampunk_515158",
    "link_img": "https://live.staticflickr.com/65535/50041582852_6ed9db5703_o.jpg",
    "id_image": "Steampunk_515158",
    "count_view": 0
  },
  {
    "link_thumb": "https://live.staticflickr.com/65535/50039925201_601517c1f1_n.jpg",
    "id_album": "395161030",
    "description": "Planet_29231",
    "title": "Planet_29231",
    "link_img": "https://live.staticflickr.com/65535/50039925201_2ef109abe6_o.jpg",
    "id_image": "Planet_29231",
    "count_view": 0
  },
  {
    "link_thumb": "https://live.staticflickr.com/65535/50040118491_dfe25fff0c_n.jpg",
    "id_album": "-1102314093",
    "description": "Planets_459285",
    "title": "Planets_459285",
    "link_img": "https://live.staticflickr.com/65535/50040118491_0db3cf56f4_o.jpg",
    "id_image": "Planets_459285",
    "count_view": 0
  },
  {
    "link_thumb": "https://live.staticflickr.com/65535/50040327887_367a68787f_n.jpg",
    "id_album": "-1102314093",
    "description": "Planets_242673",
    "title": "Planets_242673",
    "link_img": "https://live.staticflickr.com/65535/50040327887_3640b3ddeb_o.jpg",
    "id_image": "Planets_242673",
    "count_view": 0
  },
  {
    "link_thumb": "https://live.staticflickr.com/65535/50039210013_441c686ea4_n.jpg",
    "id_album": "-1610342324",
    "description": "Nebula_1002217",
    "title": "Nebula_1002217",
    "link_img": "https://live.staticflickr.com/65535/50039210013_fdd37df259_o.jpg",
    "id_image": "Nebula_1002217",
    "count_view": 0
  },
  {
    "link_thumb": "https://live.staticflickr.com/65535/50039353208_d35a3f83fc_n.jpg",
    "id_album": "395161030",
    "description": "Planet_102670",
    "title": "Planet_102670",
    "link_img": "https://live.staticflickr.com/65535/50039353208_14c18580ab_o.jpg",
    "id_image": "Planet_102670",
    "count_view": 0
  },
  {
    "link_thumb": "https://live.staticflickr.com/65535/50039656707_41b1fd95e4_n.jpg",
    "id_album": "1187037014",
    "description": "Battle_150262",
    "title": "Battle_150262",
    "link_img": "https://live.staticflickr.com/65535/50039656707_eb3627472d_o.jpg",
    "id_image": "Battle_150262",
    "count_view": 0
  },
  {
    "link_thumb": "https://live.staticflickr.com/65535/50040991228_9ba1c65299_n.jpg",
    "id_album": "-1126835654",
    "description": "Women_688511",
    "title": "Women_688511",
    "link_img": "https://live.staticflickr.com/65535/50040991228_82aa9ed12f_o.jpg",
    "id_image": "Women_688511",
    "count_view": 0
  },
  {
    "link_thumb": "https://live.staticflickr.com/65535/50040042503_6e2433f607_n.jpg",
    "id_album": "2130067313",
    "description": "Spaceship_195156",
    "title": "Spaceship_195156",
    "link_img": "https://live.staticflickr.com/65535/50040042503_dc4f3bf7d9_o.jpg",
    "id_image": "Spaceship_195156",
    "count_view": 0
  },
  {
    "link_thumb": "https://live.staticflickr.com/65535/50039782556_aa05965b37_n.jpg",
    "id_album": "-1610342324",
    "description": "Nebula_286807",
    "title": "Nebula_286807",
    "link_img": "https://live.staticflickr.com/65535/50039782556_1e4c596b0c_o.jpg",
    "id_image": "Nebula_286807",
    "count_view": 0
  },
  {
    "link_thumb": "https://live.staticflickr.com/65535/50039614442_85b471c8aa_n.jpg",
    "id_album": "869545341",
    "description": "Astronaut_249171",
    "title": "Astronaut_249171",
    "link_img": "https://live.staticflickr.com/65535/50039614442_64c4de3ffd_o.jpg",
    "id_image": "Astronaut_249171",
    "count_view": 0
  },
  {
    "link_thumb": "https://live.staticflickr.com/65535/50040453317_c91a88cb6c_n.jpg",
    "id_album": "-482547208",
    "description": "PostApocalyptic_112258",
    "title": "PostApocalyptic_112258",
    "link_img": "https://live.staticflickr.com/65535/50040453317_587d1fc75b_o.jpg",
    "id_image": "PostApocalyptic_112258",
    "count_view": 0
  },
  {
    "link_thumb": "https://live.staticflickr.com/65535/50040051167_90d3afcffd_n.jpg",
    "id_album": "-1610342324",
    "description": "Nebula_352108",
    "title": "Nebula_352108",
    "link_img": "https://live.staticflickr.com/65535/50040051167_eb871663e8_o.jpg",
    "id_image": "Nebula_352108",
    "count_view": 0
  },
  {
    "link_thumb": "https://live.staticflickr.com/65535/50039093088_9273a4c136_n.jpg",
    "id_album": "1204249541",
    "description": "Galaxy_550127",
    "title": "Galaxy_550127",
    "link_img": "https://live.staticflickr.com/65535/50039093088_04ab6a15e5_o.jpg",
    "id_image": "Galaxy_550127",
    "count_view": 0
  },
  {
    "link_thumb": "https://live.staticflickr.com/65535/50040532661_f77d812c8f_n.jpg",
    "id_album": "1613540653",
    "description": "Space_70937",
    "title": "Space_70937",
    "link_img": "https://live.staticflickr.com/65535/50040532661_1a1a217ba1_o.jpg",
    "id_image": "Space_70937",
    "count_view": 0
  },
  {
    "link_thumb": "https://live.staticflickr.com/65535/50039755787_04ce990403_n.jpg",
    "id_album": "-1964113117",
    "description": "City_726447",
    "title": "City_726447",
    "link_img": "https://live.staticflickr.com/65535/50039755787_4a56d216d2_o.jpg",
    "id_image": "City_726447",
    "count_view": 0
  },
  {
    "link_thumb": "https://live.staticflickr.com/65535/50040551891_34f478f43c_n.jpg",
    "id_album": "1613540653",
    "description": "Space_934840",
    "title": "Space_934840",
    "link_img": "https://live.staticflickr.com/65535/50040551891_670cf42ecf_o.jpg",
    "id_image": "Space_934840",
    "count_view": 0
  },
  {
    "link_thumb": "https://live.staticflickr.com/65535/50041241001_5ed015b372_n.jpg",
    "id_album": "-1863373220",
    "description": "StarWars_914147",
    "title": "StarWars_914147",
    "link_img": "https://live.staticflickr.com/65535/50041241001_53c20cd84a_o.jpg",
    "id_image": "StarWars_914147",
    "count_view": 0
  },
  {
    "link_thumb": "https://live.staticflickr.com/65535/50039685302_34ba0eab2d_n.jpg",
    "id_album": "406431601",
    "description": "Building_692305",
    "title": "Building_692305",
    "link_img": "https://live.staticflickr.com/65535/50039685302_e6e191ceef_o.jpg",
    "id_image": "Building_692305",
    "count_view": 0
  },
  {
    "link_thumb": "https://live.staticflickr.com/65535/50039550082_479b552b2a_n.jpg",
    "id_album": "-419633230",
    "description": "Apocalyptic_957340",
    "title": "Apocalyptic_957340",
    "link_img": "https://live.staticflickr.com/65535/50039550082_48929cab07_o.jpg",
    "id_image": "Apocalyptic_957340",
    "count_view": 0
  },
  {
    "link_thumb": "https://live.staticflickr.com/65535/50040364796_9aa3733c0e_n.jpg",
    "id_album": "779690680",
    "description": "Robot_752684",
    "title": "Robot_752684",
    "link_img": "https://live.staticflickr.com/65535/50040364796_d5ba87b817_o.jpg",
    "id_image": "Robot_752684",
    "count_view": 0
  },
  {
    "link_thumb": "https://live.staticflickr.com/65535/50039812007_bd3695a38c_n.jpg",
    "id_album": "-437872736",
    "description": "Creature_316159",
    "title": "Creature_316159",
    "link_img": "https://live.staticflickr.com/65535/50039812007_8b4987d8db_o.jpg",
    "id_image": "Creature_316159",
    "count_view": 0
  },
  {
    "link_thumb": "https://live.staticflickr.com/65535/50041585831_5322891d38_n.jpg",
    "id_album": "-1675918237",
    "description": "WomenWarrior_631671",
    "title": "WomenWarrior_631671",
    "link_img": "https://live.staticflickr.com/65535/50041585831_da1f46a1be_o.jpg",
    "id_image": "WomenWarrior_631671",
    "count_view": 0
  },
  {
    "link_thumb": "https://live.staticflickr.com/65535/50039206558_d1c680c7f7_n.jpg",
    "id_album": "416351698",
    "description": "Moon_394823",
    "title": "Moon_394823",
    "link_img": "https://live.staticflickr.com/65535/50039206558_8382a06289_o.jpg",
    "id_image": "Moon_394823",
    "count_view": 0
  },
  {
    "link_thumb": "https://live.staticflickr.com/65535/50039602273_824f43111a_n.jpg",
    "id_album": "376235057",
    "description": "Planetscape_106854",
    "title": "Planetscape_106854",
    "link_img": "https://live.staticflickr.com/65535/50039602273_43fd3438da_o.jpg",
    "id_image": "Planetscape_106854",
    "count_view": 0
  },
  {
    "link_thumb": "https://live.staticflickr.com/65535/50039445756_bb6d3a724d_n.jpg",
    "id_album": "-1964113117",
    "description": "City_211072",
    "title": "City_211072",
    "link_img": "https://live.staticflickr.com/65535/50039445756_023e907ce7_o.jpg",
    "id_image": "City_211072",
    "count_view": 0
  },
  {
    "link_thumb": "https://live.staticflickr.com/65535/50040752923_368539a5c1_n.jpg",
    "id_album": "1267121215",
    "description": "Steampunk_239583",
    "title": "Steampunk_239583",
    "link_img": "https://live.staticflickr.com/65535/50040752923_ae1e384daf_o.jpg",
    "id_image": "Steampunk_239583",
    "count_view": 0
  },
  {
    "link_thumb": "https://live.staticflickr.com/65535/50039824158_6ebdd83c86_n.jpg",
    "id_album": "779690680",
    "description": "Robot_859575",
    "title": "Robot_859575",
    "link_img": "https://live.staticflickr.com/65535/50039824158_5ca36ab3fd_o.jpg",
    "id_image": "Robot_859575",
    "count_view": 0
  },
  {
    "link_thumb": "https://live.staticflickr.com/65535/50039512108_ab3d9d690d_n.jpg",
    "id_album": "-1102314093",
    "description": "Planets_227369",
    "title": "Planets_227369",
    "link_img": "https://live.staticflickr.com/65535/50039512108_fc219811ce_o.jpg",
    "id_image": "Planets_227369",
    "count_view": 0
  },
  {
    "link_thumb": "https://live.staticflickr.com/65535/50040452782_994e81c8e9_n.jpg",
    "id_album": "-482547208",
    "description": "PostApocalyptic_103217",
    "title": "PostApocalyptic_103217",
    "link_img": "https://live.staticflickr.com/65535/50040452782_8110d7a0e9_o.jpg",
    "id_image": "PostApocalyptic_103217",
    "count_view": 0
  },
  {
    "link_thumb": "https://live.staticflickr.com/65535/50041503767_e195265922_n.jpg",
    "id_album": "-1863373220",
    "description": "StarWars_913639",
    "title": "StarWars_913639",
    "link_img": "https://live.staticflickr.com/65535/50041503767_8a27f0e63f_o.jpg",
    "id_image": "StarWars_913639",
    "count_view": 0
  },
  {
    "link_thumb": "https://live.staticflickr.com/65535/50039423831_ae6ba612f1_n.jpg",
    "id_album": "406431601",
    "description": "Building_827328",
    "title": "Building_827328",
    "link_img": "https://live.staticflickr.com/65535/50039423831_b7877522c3_o.jpg",
    "id_image": "Building_827328",
    "count_view": 0
  },
  {
    "link_thumb": "https://live.staticflickr.com/65535/50039895287_d398bf1d5d_n.jpg",
    "id_album": "1204249541",
    "description": "Galaxy_400007",
    "title": "Galaxy_400007",
    "link_img": "https://live.staticflickr.com/65535/50039895287_b9f22211a4_o.jpg",
    "id_image": "Galaxy_400007",
    "count_view": 0
  },
  {
    "link_thumb": "https://live.staticflickr.com/65535/50039873348_ea484df39f_n.jpg",
    "id_album": "779690680",
    "description": "Robot_930301",
    "title": "Robot_930301",
    "link_img": "https://live.staticflickr.com/65535/50039873348_f3d2bc3b86_o.jpg",
    "id_image": "Robot_930301",
    "count_view": 0
  },
  {
    "link_thumb": "https://live.staticflickr.com/65535/50040500452_c47017c786_n.jpg",
    "id_album": "-482547208",
    "description": "PostApocalyptic_977052",
    "title": "PostApocalyptic_977052",
    "link_img": "https://live.staticflickr.com/65535/50040500452_caaf79a6f7_o.jpg",
    "id_image": "PostApocalyptic_977052",
    "count_view": 0
  },
  {
    "link_thumb": "https://live.staticflickr.com/65535/50039864612_b7d52e0150_n.jpg",
    "id_album": "829169633",
    "description": "Cyborg_801520",
    "title": "Cyborg_801520",
    "link_img": "https://live.staticflickr.com/65535/50039864612_4f4befc70d_o.jpg",
    "id_image": "Cyborg_801520",
    "count_view": 0
  },
  {
    "link_thumb": "https://live.staticflickr.com/65535/50039985946_47c990c755_n.jpg",
    "id_album": "395161030",
    "description": "Planet_945383",
    "title": "Planet_945383",
    "link_img": "https://live.staticflickr.com/65535/50039985946_883e767322_o.jpg",
    "id_image": "Planet_945383",
    "count_view": 0
  },
  {
    "link_thumb": "https://live.staticflickr.com/65535/50040290748_830d5627fb_n.jpg",
    "id_album": "-1449720967",
    "description": "StarTrek_334105",
    "title": "StarTrek_334105",
    "link_img": "https://live.staticflickr.com/65535/50040290748_147f3e9e8a_o.jpg",
    "id_image": "StarTrek_334105",
    "count_view": 0
  },
  {
    "link_thumb": "https://live.staticflickr.com/65535/50040565162_ed1dd55dfc_n.jpg",
    "id_album": "779690680",
    "description": "Robot_391641",
    "title": "Robot_391641",
    "link_img": "https://live.staticflickr.com/65535/50040565162_6694c4ae6a_o.jpg",
    "id_image": "Robot_391641",
    "count_view": 0
  },
  {
    "link_thumb": "https://live.staticflickr.com/65535/50038848608_794d42000a_n.jpg",
    "id_album": "1187037014",
    "description": "Battle_223994",
    "title": "Battle_223994",
    "link_img": "https://live.staticflickr.com/65535/50038848608_46343f75cd_o.jpg",
    "id_image": "Battle_223994",
    "count_view": 0
  },
  {
    "link_thumb": "https://live.staticflickr.com/65535/50039839138_792fe4d6b7_n.jpg",
    "id_album": "779690680",
    "description": "Robot_883166",
    "title": "Robot_883166",
    "link_img": "https://live.staticflickr.com/65535/50039839138_cca667a97b_o.jpg",
    "id_image": "Robot_883166",
    "count_view": 0
  },
  {
    "link_thumb": "https://live.staticflickr.com/65535/50040081707_e43e2b9939_n.jpg",
    "id_album": "-1610342324",
    "description": "Nebula_63591",
    "title": "Nebula_63591",
    "link_img": "https://live.staticflickr.com/65535/50040081707_7ba6e92990_o.jpg",
    "id_image": "Nebula_63591",
    "count_view": 0
  },
  {
    "link_thumb": "https://live.staticflickr.com/65535/50039205048_42075e325c_n.jpg",
    "id_album": "416351698",
    "description": "Moon_226142",
    "title": "Moon_226142",
    "link_img": "https://live.staticflickr.com/65535/50039205048_dc0266d03c_o.jpg",
    "id_image": "Moon_226142",
    "count_view": 0
  },
  {
    "link_thumb": "https://live.staticflickr.com/65535/50040253778_94ae445d81_n.jpg",
    "id_album": "-1449720967",
    "description": "StarTrek_207897",
    "title": "StarTrek_207897",
    "link_img": "https://live.staticflickr.com/65535/50040253778_3a8d36fd68_o.jpg",
    "id_image": "StarTrek_207897",
    "count_view": 0
  },
  {
    "link_thumb": "https://live.staticflickr.com/65535/50041269941_85be96446f_n.jpg",
    "id_album": "-1587696329",
    "description": "Stars_458515",
    "title": "Stars_458515",
    "link_img": "https://live.staticflickr.com/65535/50041269941_2f98341c9d_o.jpg",
    "id_image": "Stars_458515",
    "count_view": 0
  },
  {
    "link_thumb": "https://live.staticflickr.com/65535/50040027167_15bbd3d787_n.jpg",
    "id_album": "-1610342324",
    "description": "Nebula_166114",
    "title": "Nebula_166114",
    "link_img": "https://live.staticflickr.com/65535/50040027167_0a642cd744_o.jpg",
    "id_image": "Nebula_166114",
    "count_view": 0
  },
  {
    "link_thumb": "https://live.staticflickr.com/65535/50040333782_6941eea99d_n.jpg",
    "id_album": "-1102314093",
    "description": "Planets_274644",
    "title": "Planets_274644",
    "link_img": "https://live.staticflickr.com/65535/50040333782_d84d83c1cf_o.jpg",
    "id_image": "Planets_274644",
    "count_view": 0
  },
  {
    "link_thumb": "https://live.staticflickr.com/65535/50039543698_6e04135ea1_n.jpg",
    "id_album": "-1102314093",
    "description": "Planets_352982",
    "title": "Planets_352982",
    "link_img": "https://live.staticflickr.com/65535/50039543698_17097ceb80_o.jpg",
    "id_image": "Planets_352982",
    "count_view": 0
  },
  {
    "link_thumb": "https://live.staticflickr.com/65535/50039281251_2715e69def_n.jpg",
    "id_album": "-419633230",
    "description": "Apocalyptic_283702",
    "title": "Apocalyptic_283702",
    "link_img": "https://live.staticflickr.com/65535/50039281251_cc905eae01_o.jpg",
    "id_image": "Apocalyptic_283702",
    "count_view": 0
  },
  {
    "link_thumb": "https://live.staticflickr.com/65535/50040597427_0060b066a5_n.jpg",
    "id_album": "779690680",
    "description": "Robot_554881",
    "title": "Robot_554881",
    "link_img": "https://live.staticflickr.com/65535/50040597427_f6891d505a_o.jpg",
    "id_image": "Robot_554881",
    "count_view": 0
  },
  {
    "link_thumb": "https://live.staticflickr.com/65535/50039071458_838c6c6eef_n.jpg",
    "id_album": "2104507156",
    "description": "Fantasy_367508",
    "title": "Fantasy_367508",
    "link_img": "https://live.staticflickr.com/65535/50039071458_492fef8905_o.jpg",
    "id_image": "Fantasy_367508",
    "count_view": 0
  },
  {
    "link_thumb": "https://live.staticflickr.com/65535/50039004458_9cb173b3bf_n.jpg",
    "id_album": "-437872736",
    "description": "Creature_333323",
    "title": "Creature_333323",
    "link_img": "https://live.staticflickr.com/65535/50039004458_32602a5cff_o.jpg",
    "id_image": "Creature_333323",
    "count_view": 0
  },
  {
    "link_thumb": "https://live.staticflickr.com/65535/50041525222_5680399726_n.jpg",
    "id_album": "-1587696329",
    "description": "Stars_291491",
    "title": "Stars_291491",
    "link_img": "https://live.staticflickr.com/65535/50041525222_f977e6a673_o.jpg",
    "id_image": "Stars_291491",
    "count_view": 0
  },
  {
    "link_thumb": "https://live.staticflickr.com/65535/50040048442_42684ec362_n.jpg",
    "id_album": "-1610342324",
    "description": "Nebula_302312",
    "title": "Nebula_302312",
    "link_img": "https://live.staticflickr.com/65535/50040048442_04ee74624a_o.jpg",
    "id_image": "Nebula_302312",
    "count_view": 0
  },
  {
    "link_thumb": "https://live.staticflickr.com/65535/50041012657_a6ac3d1f1c_n.jpg",
    "id_album": "2130067313",
    "description": "Spaceship_785328",
    "title": "Spaceship_785328",
    "link_img": "https://live.staticflickr.com/65535/50041012657_85fee80942_o.jpg",
    "id_image": "Spaceship_785328",
    "count_view": 0
  },
  {
    "link_thumb": "https://live.staticflickr.com/65535/50040160898_a640c7cd9d_n.jpg",
    "id_album": "2130067313",
    "description": "Spaceship_555967",
    "title": "Spaceship_555967",
    "link_img": "https://live.staticflickr.com/65535/50040160898_c91554fa3f_o.jpg",
    "id_image": "Spaceship_555967",
    "count_view": 0
  },
  {
    "link_thumb": "https://live.staticflickr.com/65535/50039639581_b45cf3f911_n.jpg",
    "id_album": "1204249541",
    "description": "Galaxy_527228",
    "title": "Galaxy_527228",
    "link_img": "https://live.staticflickr.com/65535/50039639581_bf6885060d_o.jpg",
    "id_image": "Galaxy_527228",
    "count_view": 0
  },
  {
    "link_thumb": "https://live.staticflickr.com/65535/50039171863_165cb1d4b7_n.jpg",
    "id_album": "1402713104",
    "description": "Landscape_906964",
    "title": "Landscape_906964",
    "link_img": "https://live.staticflickr.com/65535/50039171863_2e92502b1c_o.jpg",
    "id_image": "Landscape_906964",
    "count_view": 0
  },
  {
    "link_thumb": "https://live.staticflickr.com/65535/50040049893_97c0b8f962_n.jpg",
    "id_album": "2130067313",
    "description": "Spaceship_238299",
    "title": "Spaceship_238299",
    "link_img": "https://live.staticflickr.com/65535/50040049893_6f4c9e8e72_o.jpg",
    "id_image": "Spaceship_238299",
    "count_view": 0
  },
  {
    "link_thumb": "https://live.staticflickr.com/65535/50039065538_a8df441383_n.jpg",
    "id_album": "2104507156",
    "description": "Fantasy_154132",
    "title": "Fantasy_154132",
    "link_img": "https://live.staticflickr.com/65535/50039065538_db5ae279de_o.jpg",
    "id_image": "Fantasy_154132",
    "count_view": 0
  },
  {
    "link_thumb": "https://live.staticflickr.com/65535/50039886927_db42a99c16_n.jpg",
    "id_album": "1204249541",
    "description": "Galaxy_110263",
    "title": "Galaxy_110263",
    "link_img": "https://live.staticflickr.com/65535/50039886927_9e288ca1d7_o.jpg",
    "id_image": "Galaxy_110263",
    "count_view": 0
  },
  {
    "link_thumb": "https://live.staticflickr.com/65535/50040204277_f7dc4fc3b7_n.jpg",
    "id_album": "395161030",
    "description": "Planet_373692",
    "title": "Planet_373692",
    "link_img": "https://live.staticflickr.com/65535/50040204277_b175835819_o.jpg",
    "id_image": "Planet_373692",
    "count_view": 0
  },
  {
    "link_thumb": "https://live.staticflickr.com/65535/50039778256_b8635cace2_n.jpg",
    "id_album": "-1610342324",
    "description": "Nebula_261298",
    "title": "Nebula_261298",
    "link_img": "https://live.staticflickr.com/65535/50039778256_e09c3666d1_o.jpg",
    "id_image": "Nebula_261298",
    "count_view": 0
  },
  {
    "link_thumb": "https://live.staticflickr.com/65535/50039490912_d7f5816a69_n.jpg",
    "id_album": "280884763",
    "description": "Abstract_229319",
    "title": "Abstract_229319",
    "link_img": "https://live.staticflickr.com/65535/50039490912_54dcd18721_o.jpg",
    "id_image": "Abstract_229319",
    "count_view": 0
  },
  {
    "link_thumb": "https://live.staticflickr.com/65535/50039777302_a6efaf5222_n.jpg",
    "id_album": "-1964113117",
    "description": "City_898604",
    "title": "City_898604",
    "link_img": "https://live.staticflickr.com/65535/50039777302_6f1dfa2b3a_o.jpg",
    "id_image": "City_898604",
    "count_view": 0
  },
  {
    "link_thumb": "https://live.staticflickr.com/65535/50039215573_e4f6e2df4f_n.jpg",
    "id_album": "-1610342324",
    "description": "Nebula_179724",
    "title": "Nebula_179724",
    "link_img": "https://live.staticflickr.com/65535/50039215573_1bb7885b4e_o.jpg",
    "id_image": "Nebula_179724",
    "count_view": 0
  },
  {
    "link_thumb": "https://live.staticflickr.com/65535/50038862343_4a3e93610c_n.jpg",
    "id_album": "1187037014",
    "description": "Battle_992982",
    "title": "Battle_992982",
    "link_img": "https://live.staticflickr.com/65535/50038862343_d9be6cdb0d_o.jpg",
    "id_image": "Battle_992982",
    "count_view": 0
  },
  {
    "link_thumb": "https://live.staticflickr.com/65535/50038900308_502e7e5aa5_n.jpg",
    "id_album": "-1964113117",
    "description": "City_220203",
    "title": "City_220203",
    "link_img": "https://live.staticflickr.com/65535/50038900308_367e43586b_o.jpg",
    "id_image": "City_220203",
    "count_view": 0
  },
  {
    "link_thumb": "https://live.staticflickr.com/65535/50039789722_7cce967f17_n.jpg",
    "id_album": "-1964113117",
    "description": "City_958305",
    "title": "City_958305",
    "link_img": "https://live.staticflickr.com/65535/50039789722_6a3592cc65_o.jpg",
    "id_image": "City_958305",
    "count_view": 0
  },
  {
    "link_thumb": "https://live.staticflickr.com/65535/50039444106_7398c3329d_n.jpg",
    "id_album": "-1964113117",
    "description": "City_205216",
    "title": "City_205216",
    "link_img": "https://live.staticflickr.com/65535/50039444106_c96fcbc4f3_o.jpg",
    "id_image": "City_205216",
    "count_view": 0
  },
  {
    "link_thumb": "https://live.staticflickr.com/65535/50039919571_0ae7771486_n.jpg",
    "id_album": "395161030",
    "description": "Planet_217475",
    "title": "Planet_217475",
    "link_img": "https://live.staticflickr.com/65535/50039919571_8b859d1238_o.jpg",
    "id_image": "Planet_217475",
    "count_view": 0
  },
  {
    "link_thumb": "https://live.staticflickr.com/65535/50039427796_40c402370e_n.jpg",
    "id_album": "406431601",
    "description": "Building_94710",
    "title": "Building_94710",
    "link_img": "https://live.staticflickr.com/65535/50039427796_b95386d190_o.jpg",
    "id_image": "Building_94710",
    "count_view": 0
  },
  {
    "link_thumb": "https://live.staticflickr.com/65535/50039549157_71b11dd497_n.jpg",
    "id_album": "-419633230",
    "description": "Apocalyptic_777057",
    "title": "Apocalyptic_777057",
    "link_img": "https://live.staticflickr.com/65535/50039549157_1683dbecf0_o.jpg",
    "id_image": "Apocalyptic_777057",
    "count_view": 0
  },
  {
    "link_thumb": "https://live.staticflickr.com/65535/50039535911_5da9a7bc8b_n.jpg",
    "id_album": "894679094",
    "description": "Collision_121800",
    "title": "Collision_121800",
    "link_img": "https://live.staticflickr.com/65535/50039535911_e782d1d6be_o.jpg",
    "id_image": "Collision_121800",
    "count_view": 0
  },
  {
    "link_thumb": "https://live.staticflickr.com/65535/50040671337_a5ebc1ea95_n.jpg",
    "id_album": "779690680",
    "description": "Robot_910943",
    "title": "Robot_910943",
    "link_img": "https://live.staticflickr.com/65535/50040671337_66f3616f26_o.jpg",
    "id_image": "Robot_910943",
    "count_view": 0
  },
  {
    "link_thumb": "https://live.staticflickr.com/65535/50039297101_f88d7b82a4_n.jpg",
    "id_album": "523598895",
    "description": "Artistic_151783",
    "title": "Artistic_151783",
    "link_img": "https://live.staticflickr.com/65535/50039297101_4cfdfff4ef_o.jpg",
    "id_image": "Artistic_151783",
    "count_view": 0
  },
  {
    "link_thumb": "https://live.staticflickr.com/65535/50041851862_c00a68e778_n.jpg",
    "id_album": "-1675918237",
    "description": "WomenWarrior_921471",
    "title": "WomenWarrior_921471",
    "link_img": "https://live.staticflickr.com/65535/50041851862_cfc6e4f113_o.jpg",
    "id_image": "WomenWarrior_921471",
    "count_view": 0
  },
  {
    "link_thumb": "https://live.staticflickr.com/65535/50040678642_7f228dc9ea_n.jpg",
    "id_album": "779690680",
    "description": "Robot_917194",
    "title": "Robot_917194",
    "link_img": "https://live.staticflickr.com/65535/50040678642_28ee7033fd_o.jpg",
    "id_image": "Robot_917194",
    "count_view": 0
  },
  {
    "link_thumb": "https://live.staticflickr.com/65535/50040135701_46bafa5edd_n.jpg",
    "id_album": "-1102314093",
    "description": "Planets_786785",
    "title": "Planets_786785",
    "link_img": "https://live.staticflickr.com/65535/50040135701_442f527d34_o.jpg",
    "id_image": "Planets_786785",
    "count_view": 0
  },
  {
    "link_thumb": "https://live.staticflickr.com/65535/50041538841_1c77f4a142_n.jpg",
    "id_album": "-1126835654",
    "description": "Women_585191",
    "title": "Women_585191",
    "link_img": "https://live.staticflickr.com/65535/50041538841_d00491546c_o.jpg",
    "id_image": "Women_585191",
    "count_view": 0
  },
  {
    "link_thumb": "https://live.staticflickr.com/65535/50039675661_878722af31_n.jpg",
    "id_album": "1402713104",
    "description": "Landscape_322669",
    "title": "Landscape_322669",
    "link_img": "https://live.staticflickr.com/65535/50039675661_6fb4c80aa7_o.jpg",
    "id_image": "Landscape_322669",
    "count_view": 0
  },
  {
    "link_thumb": "https://live.staticflickr.com/65535/50039851273_f55b51a7b6_n.jpg",
    "id_album": "779690680",
    "description": "Robot_907940",
    "title": "Robot_907940",
    "link_img": "https://live.staticflickr.com/65535/50039851273_248483de52_o.jpg",
    "id_image": "Robot_907940",
    "count_view": 0
  },
  {
    "link_thumb": "https://live.staticflickr.com/65535/50039315051_c3cd0e9cfd_n.jpg",
    "id_album": "523598895",
    "description": "Artistic_212423",
    "title": "Artistic_212423",
    "link_img": "https://live.staticflickr.com/65535/50039315051_417128a360_o.jpg",
    "id_image": "Artistic_212423",
    "count_view": 0
  },
  {
    "link_thumb": "https://live.staticflickr.com/65535/50039745177_a91d9259ed_n.jpg",
    "id_album": "-1964113117",
    "description": "City_649082",
    "title": "City_649082",
    "link_img": "https://live.staticflickr.com/65535/50039745177_1aa41f6bbd_o.jpg",
    "id_image": "City_649082",
    "count_view": 0
  },
  {
    "link_thumb": "https://live.staticflickr.com/65535/50040495797_5c00f36a49_n.jpg",
    "id_album": "-482547208",
    "description": "PostApocalyptic_921759",
    "title": "PostApocalyptic_921759",
    "link_img": "https://live.staticflickr.com/65535/50040495797_e625842dd4_o.jpg",
    "id_image": "PostApocalyptic_921759",
    "count_view": 0
  },
  {
    "link_thumb": "https://live.staticflickr.com/65535/50040550401_a256e568cc_n.jpg",
    "id_album": "1613540653",
    "description": "Space_910213",
    "title": "Space_910213",
    "link_img": "https://live.staticflickr.com/65535/50040550401_a5e1c3613a_o.jpg",
    "id_image": "Space_910213",
    "count_view": 0
  },
  {
    "link_thumb": "https://live.staticflickr.com/65535/50039628668_9112ebe46d_n.jpg",
    "id_album": "376235057",
    "description": "Planetscape_694465",
    "title": "Planetscape_694465",
    "link_img": "https://live.staticflickr.com/65535/50039628668_57b7ea11db_o.jpg",
    "id_image": "Planetscape_694465",
    "count_view": 0
  },
  {
    "link_thumb": "https://live.staticflickr.com/65535/50039230868_6541190249_n.jpg",
    "id_album": "-1610342324",
    "description": "Nebula_280175",
    "title": "Nebula_280175",
    "link_img": "https://live.staticflickr.com/65535/50039230868_d01f5436e6_o.jpg",
    "id_image": "Nebula_280175",
    "count_view": 0
  },
  {
    "link_thumb": "https://live.staticflickr.com/65535/50041593541_37027a1073_n.jpg",
    "id_album": "-1675918237",
    "description": "WomenWarrior_985659",
    "title": "WomenWarrior_985659",
    "link_img": "https://live.staticflickr.com/65535/50041593541_37efdfa449_o.jpg",
    "id_image": "WomenWarrior_985659",
    "count_view": 0
  },
  {
    "link_thumb": "https://live.staticflickr.com/65535/50038730893_f627ac0246_n.jpg",
    "id_album": "-419633230",
    "description": "Apocalyptic_116807",
    "title": "Apocalyptic_116807",
    "link_img": "https://live.staticflickr.com/65535/50038730893_68d7d64db4_o.jpg",
    "id_image": "Apocalyptic_116807",
    "count_view": 0
  },
  {
    "link_thumb": "https://live.staticflickr.com/65535/50039878733_d999599070_n.jpg",
    "id_album": "779690680",
    "description": "Robot_936224",
    "title": "Robot_936224",
    "link_img": "https://live.staticflickr.com/65535/50039878733_bb5d3cb10f_o.jpg",
    "id_image": "Robot_936224",
    "count_view": 0
  },
  {
    "link_thumb": "https://live.staticflickr.com/65535/50040407407_f592d02ba6_n.jpg",
    "id_album": "-1102314093",
    "description": "Planets_874502",
    "title": "Planets_874502",
    "link_img": "https://live.staticflickr.com/65535/50040407407_1da172d21e_o.jpg",
    "id_image": "Planets_874502",
    "count_view": 0
  },
  {
    "link_thumb": "https://live.staticflickr.com/65535/50040222852_744ee7804c_n.jpg",
    "id_album": "395161030",
    "description": "Planet_539302",
    "title": "Planet_539302",
    "link_img": "https://live.staticflickr.com/65535/50040222852_d874893703_o.jpg",
    "id_image": "Planet_539302",
    "count_view": 0
  },
  {
    "link_thumb": "https://live.staticflickr.com/65535/50039138933_4d365b2c28_n.jpg",
    "id_album": "1402713104",
    "description": "Landscape_422155",
    "title": "Landscape_422155",
    "link_img": "https://live.staticflickr.com/65535/50039138933_34a05b791c_o.jpg",
    "id_image": "Landscape_422155",
    "count_view": 0
  },
  {
    "link_thumb": "https://live.staticflickr.com/65535/50039837656_e4aa0f975e_n.jpg",
    "id_album": "-1610342324",
    "description": "Nebula_792649",
    "title": "Nebula_792649",
    "link_img": "https://live.staticflickr.com/65535/50039837656_5fa5819399_o.jpg",
    "id_image": "Nebula_792649",
    "count_view": 0
  },
  {
    "link_thumb": "https://live.staticflickr.com/65535/50039268928_0d1d58f80e_n.jpg",
    "id_album": "-1610342324",
    "description": "Nebula_609709",
    "title": "Nebula_609709",
    "link_img": "https://live.staticflickr.com/65535/50039268928_5edf369b8e_o.jpg",
    "id_image": "Nebula_609709",
    "count_view": 0
  },
  {
    "link_thumb": "https://live.staticflickr.com/65535/50039677001_e3988b5c11_n.jpg",
    "id_album": "1402713104",
    "description": "Landscape_325811",
    "title": "Landscape_325811",
    "link_img": "https://live.staticflickr.com/65535/50039677001_e18dc63e8d_o.jpg",
    "id_image": "Landscape_325811",
    "count_view": 0
  },
  {
    "link_thumb": "https://live.staticflickr.com/65535/50040255181_c0da59f9a9_n.jpg",
    "id_album": "779690680",
    "description": "Robot_150270",
    "title": "Robot_150270",
    "link_img": "https://live.staticflickr.com/65535/50040255181_0b53e6c296_o.jpg",
    "id_image": "Robot_150270",
    "count_view": 0
  },
  {
    "link_thumb": "https://live.staticflickr.com/65535/50038917383_dda427e5a6_n.jpg",
    "id_album": "-1964113117",
    "description": "City_361042",
    "title": "City_361042",
    "link_img": "https://live.staticflickr.com/65535/50038917383_5ccced19ed_o.jpg",
    "id_image": "City_361042",
    "count_view": 0
  },
  {
    "link_thumb": "https://live.staticflickr.com/65535/50039888092_536979d6b2_n.jpg",
    "id_album": "1204249541",
    "description": "Galaxy_186284",
    "title": "Galaxy_186284",
    "link_img": "https://live.staticflickr.com/65535/50039888092_cfc8f91682_o.jpg",
    "id_image": "Galaxy_186284",
    "count_view": 0
  },
  {
    "link_thumb": "https://live.staticflickr.com/65535/50039665897_6885fbc034_n.jpg",
    "id_album": "1187037014",
    "description": "Battle_559693",
    "title": "Battle_559693",
    "link_img": "https://live.staticflickr.com/65535/50039665897_8b0263f727_o.jpg",
    "id_image": "Battle_559693",
    "count_view": 0
  },
  {
    "link_thumb": "https://live.staticflickr.com/65535/50039712241_6916a33157_n.jpg",
    "id_album": "1402713104",
    "description": "Landscape_862162",
    "title": "Landscape_862162",
    "link_img": "https://live.staticflickr.com/65535/50039712241_111e275190_o.jpg",
    "id_image": "Landscape_862162",
    "count_view": 0
  },
  {
    "link_thumb": "https://live.staticflickr.com/65535/50040436317_e46d210779_n.jpg",
    "id_album": "376235057",
    "description": "Planetscape_393915",
    "title": "Planetscape_393915",
    "link_img": "https://live.staticflickr.com/65535/50040436317_e3d8e8ea5c_o.jpg",
    "id_image": "Planetscape_393915",
    "count_view": 0
  },
  {
    "link_thumb": "https://live.staticflickr.com/65535/50040638362_31351a3378_n.jpg",
    "id_album": "779690680",
    "description": "Robot_857285",
    "title": "Robot_857285",
    "link_img": "https://live.staticflickr.com/65535/50040638362_3503092af9_o.jpg",
    "id_image": "Robot_857285",
    "count_view": 0
  },
  {
    "link_thumb": "https://live.staticflickr.com/65535/50039734511_d7821ff78d_n.jpg",
    "id_album": "-1388385651",
    "description": "MilkyWay_590421",
    "title": "MilkyWay_590421",
    "link_img": "https://live.staticflickr.com/65535/50039734511_ebf0b91b82_o.jpg",
    "id_image": "MilkyWay_590421",
    "count_view": 0
  },
  {
    "link_thumb": "https://live.staticflickr.com/65535/50039916192_3bdbf1617b_n.jpg",
    "id_album": "1204249541",
    "description": "Galaxy_74987",
    "title": "Galaxy_74987",
    "link_img": "https://live.staticflickr.com/65535/50039916192_0025e65efc_o.jpg",
    "id_image": "Galaxy_74987",
    "count_view": 0
  },
  {
    "link_thumb": "https://live.staticflickr.com/65535/50039891497_14f08219f5_n.jpg",
    "id_album": "1204249541",
    "description": "Galaxy_264728",
    "title": "Galaxy_264728",
    "link_img": "https://live.staticflickr.com/65535/50039891497_c2e6c83dc7_o.jpg",
    "id_image": "Galaxy_264728",
    "count_view": 0
  },
  {
    "link_thumb": "https://live.staticflickr.com/65535/50038839698_e9e8baf7b0_n.jpg",
    "id_album": "869545341",
    "description": "Astronaut_970438",
    "title": "Astronaut_970438",
    "link_img": "https://live.staticflickr.com/65535/50038839698_2e2d92be6b_o.jpg",
    "id_image": "Astronaut_970438",
    "count_view": 0
  },
  {
    "link_thumb": "https://live.staticflickr.com/65535/50040018107_6ddb0d227b_n.jpg",
    "id_album": "416351698",
    "description": "Moon_251092",
    "title": "Moon_251092",
    "link_img": "https://live.staticflickr.com/65535/50040018107_9048de0b56_o.jpg",
    "id_image": "Moon_251092",
    "count_view": 0
  },
  {
    "link_thumb": "https://live.staticflickr.com/65535/50040191017_c4701877a3_n.jpg",
    "id_album": "395161030",
    "description": "Planet_320548",
    "title": "Planet_320548",
    "link_img": "https://live.staticflickr.com/65535/50040191017_aedb5e8f67_o.jpg",
    "id_image": "Planet_320548",
    "count_view": 0
  },
  {
    "link_thumb": "https://live.staticflickr.com/65535/50040183757_55bc58e13f_n.jpg",
    "id_album": "395161030",
    "description": "Planet_210868",
    "title": "Planet_210868",
    "link_img": "https://live.staticflickr.com/65535/50040183757_5a37a12ae5_o.jpg",
    "id_image": "Planet_210868",
    "count_view": 0
  },
  {
    "link_thumb": "https://live.staticflickr.com/65535/50039234101_47916c6b9e_n.jpg",
    "id_album": "-406145265",
    "description": "Aircraft_145916",
    "title": "Aircraft_145916",
    "link_img": "https://live.staticflickr.com/65535/50039234101_52b1bf0684_o.jpg",
    "id_image": "Aircraft_145916",
    "count_view": 0
  },
  {
    "link_thumb": "https://live.staticflickr.com/65535/50041324186_638bb342c1_n.jpg",
    "id_album": "1267121215",
    "description": "Steampunk_61891",
    "title": "Steampunk_61891",
    "link_img": "https://live.staticflickr.com/65535/50041324186_b0dfdd9f1f_o.jpg",
    "id_image": "Steampunk_61891",
    "count_view": 0
  },
  {
    "link_thumb": "https://live.staticflickr.com/65535/50039218103_d35c428187_n.jpg",
    "id_album": "-1610342324",
    "description": "Nebula_198230",
    "title": "Nebula_198230",
    "link_img": "https://live.staticflickr.com/65535/50039218103_6465e5b6c1_o.jpg",
    "id_image": "Nebula_198230",
    "count_view": 0
  },
  {
    "link_thumb": "https://live.staticflickr.com/65535/50038719958_621a0df567_n.jpg",
    "id_album": "849020728",
    "description": "Alien_488086",
    "title": "Alien_488086",
    "link_img": "https://live.staticflickr.com/65535/50038719958_15f4754449_o.jpg",
    "id_image": "Alien_488086",
    "count_view": 0
  },
  {
    "link_thumb": "https://live.staticflickr.com/65535/50039292011_edf6c5a396_n.jpg",
    "id_album": "523598895",
    "description": "Artistic_106016",
    "title": "Artistic_106016",
    "link_img": "https://live.staticflickr.com/65535/50039292011_947437645f_o.jpg",
    "id_image": "Artistic_106016",
    "count_view": 0
  },
  {
    "link_thumb": "https://live.staticflickr.com/65535/50040811703_5b70b510c3_n.jpg",
    "id_album": "-1177476763",
    "description": "Sunrise_429129",
    "title": "Sunrise_429129",
    "link_img": "https://live.staticflickr.com/65535/50040811703_79b6768797_o.jpg",
    "id_image": "Sunrise_429129",
    "count_view": 0
  },
  {
    "link_thumb": "https://live.staticflickr.com/65535/50039392701_5b7e472cfe_n.jpg",
    "id_album": "1187037014",
    "description": "Battle_112508",
    "title": "Battle_112508",
    "link_img": "https://live.staticflickr.com/65535/50039392701_c77d5a8a11_o.jpg",
    "id_image": "Battle_112508",
    "count_view": 0
  },
  {
    "link_thumb": "https://live.staticflickr.com/65535/50038973278_95feebfe96_n.jpg",
    "id_album": "-1964113117",
    "description": "City_920201",
    "title": "City_920201",
    "link_img": "https://live.staticflickr.com/65535/50038973278_392e8407d4_o.jpg",
    "id_image": "City_920201",
    "count_view": 0
  },
  {
    "link_thumb": "https://live.staticflickr.com/65535/50039495962_3ed909d434_n.jpg",
    "id_album": "-406145265",
    "description": "Aircraft_112473",
    "title": "Aircraft_112473",
    "link_img": "https://live.staticflickr.com/65535/50039495962_f531135e71_o.jpg",
    "id_image": "Aircraft_112473",
    "count_view": 0
  },
  {
    "link_thumb": "https://live.staticflickr.com/65535/50039472801_77208730d2_n.jpg",
    "id_album": "-1964113117",
    "description": "City_489400",
    "title": "City_489400",
    "link_img": "https://live.staticflickr.com/65535/50039472801_1695aa1174_o.jpg",
    "id_image": "City_489400",
    "count_view": 0
  },
  {
    "link_thumb": "https://live.staticflickr.com/65535/50040660562_290f8bf892_n.jpg",
    "id_album": "779690680",
    "description": "Robot_889656",
    "title": "Robot_889656",
    "link_img": "https://live.staticflickr.com/65535/50040660562_947b24b54d_o.jpg",
    "id_image": "Robot_889656",
    "count_view": 0
  },
  {
    "link_thumb": "https://live.staticflickr.com/65535/50040348862_f9e5e6c9d4_n.jpg",
    "id_album": "-1102314093",
    "description": "Planets_332255",
    "title": "Planets_332255",
    "link_img": "https://live.staticflickr.com/65535/50040348862_50231145a5_o.jpg",
    "id_image": "Planets_332255",
    "count_view": 0
  },
  {
    "link_thumb": "https://live.staticflickr.com/65535/50039335656_bc9e10e64a_n.jpg",
    "id_album": "523598895",
    "description": "Artistic_429148",
    "title": "Artistic_429148",
    "link_img": "https://live.staticflickr.com/65535/50039335656_4b173eeeb2_o.jpg",
    "id_image": "Artistic_429148",
    "count_view": 0
  },
  {
    "link_thumb": "https://live.staticflickr.com/65535/50039777261_57d6f83b9c_n.jpg",
    "id_album": "-1610342324",
    "description": "Nebula_2533",
    "title": "Nebula_2533",
    "link_img": "https://live.staticflickr.com/65535/50039777261_1496f6f89a_o.jpg",
    "id_image": "Nebula_2533",
    "count_view": 0
  },
  {
    "link_thumb": "https://live.staticflickr.com/65535/50040098347_397951a64b_n.jpg",
    "id_album": "-1610342324",
    "description": "Nebula_772696",
    "title": "Nebula_772696",
    "link_img": "https://live.staticflickr.com/65535/50040098347_78f579b263_o.jpg",
    "id_image": "Nebula_772696",
    "count_view": 0
  },
  {
    "link_thumb": "https://live.staticflickr.com/65535/50040681452_b91c2442cd_n.jpg",
    "id_album": "779690680",
    "description": "Robot_921689",
    "title": "Robot_921689",
    "link_img": "https://live.staticflickr.com/65535/50040681452_39c54ecea5_o.jpg",
    "id_image": "Robot_921689",
    "count_view": 0
  },
  {
    "link_thumb": "https://live.staticflickr.com/65535/50039078458_f1508e0074_n.jpg",
    "id_album": "1204249541",
    "description": "Galaxy_240106",
    "title": "Galaxy_240106",
    "link_img": "https://live.staticflickr.com/65535/50039078458_122fd01f7f_o.jpg",
    "id_image": "Galaxy_240106",
    "count_view": 0
  },
  {
    "link_thumb": "https://live.staticflickr.com/65535/50039148758_841122936a_n.jpg",
    "id_album": "1402713104",
    "description": "Landscape_650217",
    "title": "Landscape_650217",
    "link_img": "https://live.staticflickr.com/65535/50039148758_bd45c469a1_o.jpg",
    "id_image": "Landscape_650217",
    "count_view": 0
  },
  {
    "link_thumb": "https://live.staticflickr.com/65535/50039865848_626f4b2e21_n.jpg",
    "id_album": "779690680",
    "description": "Robot_926847",
    "title": "Robot_926847",
    "link_img": "https://live.staticflickr.com/65535/50039865848_0f3a6344b1_o.jpg",
    "id_image": "Robot_926847",
    "count_view": 0
  },
  {
    "link_thumb": "https://live.staticflickr.com/65535/50040392966_3b52cd82d4_n.jpg",
    "id_album": "779690680",
    "description": "Robot_884817",
    "title": "Robot_884817",
    "link_img": "https://live.staticflickr.com/65535/50040392966_db32daf2ff_o.jpg",
    "id_image": "Robot_884817",
    "count_view": 0
  },
  {
    "link_thumb": "https://live.staticflickr.com/65535/50039574392_e4fc3ba142_n.jpg",
    "id_album": "523598895",
    "description": "Artistic_206615",
    "title": "Artistic_206615",
    "link_img": "https://live.staticflickr.com/65535/50039574392_2d302246b6_o.jpg",
    "id_image": "Artistic_206615",
    "count_view": 0
  },
  {
    "link_thumb": "https://live.staticflickr.com/65535/50041206966_9d06676b2e_n.jpg",
    "id_album": "-1863373220",
    "description": "StarWars_662920",
    "title": "StarWars_662920",
    "link_img": "https://live.staticflickr.com/65535/50041206966_162206a8d3_o.jpg",
    "id_image": "StarWars_662920",
    "count_view": 0
  },
  {
    "link_thumb": "https://live.staticflickr.com/65535/50039541511_42bb6d4de9_n.jpg",
    "id_album": "894679094",
    "description": "Collision_432613",
    "title": "Collision_432613",
    "link_img": "https://live.staticflickr.com/65535/50039541511_0a843b6b6c_o.jpg",
    "id_image": "Collision_432613",
    "count_view": 0
  },
  {
    "link_thumb": "https://live.staticflickr.com/65535/50039910811_ac258729c4_n.jpg",
    "id_album": "395161030",
    "description": "Planet_178915",
    "title": "Planet_178915",
    "link_img": "https://live.staticflickr.com/65535/50039910811_a3f42cf87d_o.jpg",
    "id_image": "Planet_178915",
    "count_view": 0
  },
  {
    "link_thumb": "https://live.staticflickr.com/65535/50039498061_e2c7e34ff0_n.jpg",
    "id_album": "-1964113117",
    "description": "City_799221",
    "title": "City_799221",
    "link_img": "https://live.staticflickr.com/65535/50039498061_f626fdfb50_o.jpg",
    "id_image": "City_799221",
    "count_view": 0
  },
  {
    "link_thumb": "https://live.staticflickr.com/65535/50040187912_2f050760c0_n.jpg",
    "id_album": "395161030",
    "description": "Planet_286942",
    "title": "Planet_286942",
    "link_img": "https://live.staticflickr.com/65535/50040187912_3cb5e6f954_o.jpg",
    "id_image": "Planet_286942",
    "count_view": 0
  },
  {
    "link_thumb": "https://live.staticflickr.com/65535/50041473851_51445d4606_n.jpg",
    "id_album": "-1261420436",
    "description": "Warrior_582452",
    "title": "Warrior_582452",
    "link_img": "https://live.staticflickr.com/65535/50041473851_00ea03f93a_o.jpg",
    "id_image": "Warrior_582452",
    "count_view": 0
  },
  {
    "link_thumb": "https://live.staticflickr.com/65535/50039489003_b11696fbd6_n.jpg",
    "id_album": "814701616",
    "description": "PlanetaryRing_588780",
    "title": "PlanetaryRing_588780",
    "link_img": "https://live.staticflickr.com/65535/50039489003_c665f5f83a_o.jpg",
    "id_image": "PlanetaryRing_588780",
    "count_view": 0
  },
  {
    "link_thumb": "https://live.staticflickr.com/65535/50039516711_86208193d3_n.jpg",
    "id_album": "-1964113117",
    "description": "City_904050",
    "title": "City_904050",
    "link_img": "https://live.staticflickr.com/65535/50039516711_3fc88131af_o.jpg",
    "id_image": "City_904050",
    "count_view": 0
  },
  {
    "link_thumb": "https://live.staticflickr.com/65535/50040063376_dae70f6ec7_n.jpg",
    "id_album": "-1102314093",
    "description": "Planets_234617",
    "title": "Planets_234617",
    "link_img": "https://live.staticflickr.com/65535/50040063376_69a75e928a_o.jpg",
    "id_image": "Planets_234617",
    "count_view": 0
  },
  {
    "link_thumb": "https://live.staticflickr.com/65535/50040140682_84320e6169_n.jpg",
    "id_album": "869545341",
    "description": "Astronaut_712774",
    "title": "Astronaut_712774",
    "link_img": "https://live.staticflickr.com/65535/50040140682_b1abcfea14_o.jpg",
    "id_image": "Astronaut_712774",
    "count_view": 0
  },
  {
    "link_thumb": "https://live.staticflickr.com/65535/50039497578_5d437b536f_n.jpg",
    "id_album": "-1102314093",
    "description": "Planets_113495",
    "title": "Planets_113495",
    "link_img": "https://live.staticflickr.com/65535/50039497578_ff7585a5c6_o.jpg",
    "id_image": "Planets_113495",
    "count_view": 0
  },
  {
    "link_thumb": "https://live.staticflickr.com/65535/50038773458_4cefce4386_n.jpg",
    "id_album": "523598895",
    "description": "Artistic_235986",
    "title": "Artistic_235986",
    "link_img": "https://live.staticflickr.com/65535/50038773458_360708f9c9_o.jpg",
    "id_image": "Artistic_235986",
    "count_view": 0
  },
  {
    "link_thumb": "https://live.staticflickr.com/65535/50039718837_c5665e74a4_n.jpg",
    "id_album": "-1964113117",
    "description": "City_269368",
    "title": "City_269368",
    "link_img": "https://live.staticflickr.com/65535/50039718837_b10c22b6fb_o.jpg",
    "id_image": "City_269368",
    "count_view": 0
  },
  {
    "link_thumb": "https://live.staticflickr.com/65535/50039753127_19b1b2ac99_n.jpg",
    "id_album": "-1964113117",
    "description": "City_709119",
    "title": "City_709119",
    "link_img": "https://live.staticflickr.com/65535/50039753127_f9daa96369_o.jpg",
    "id_image": "City_709119",
    "count_view": 0
  },
  {
    "link_thumb": "https://live.staticflickr.com/65535/50039502312_900975e3cf_n.jpg",
    "id_album": "-406145265",
    "description": "Aircraft_403620",
    "title": "Aircraft_403620",
    "link_img": "https://live.staticflickr.com/65535/50039502312_a3c1c51f0c_o.jpg",
    "id_image": "Aircraft_403620",
    "count_view": 0
  }
]