[
  {
    "link_thumb": "https://live.staticflickr.com/65535/50040059657_a1da6c524f_n.jpg",
    "id_album": "-1610342324",
    "description": "Nebula_430204",
    "title": "Nebula_430204",
    "link_img": "https://live.staticflickr.com/65535/50040059657_8ed5ed9789_o.jpg",
    "id_image": "Nebula_430204",
    "count_view": 0
  },
  {
    "link_thumb": "https://live.staticflickr.com/65535/50040282571_49416b28f9_n.jpg",
    "id_album": "779690680",
    "description": "Robot_291074",
    "title": "Robot_291074",
    "link_img": "https://live.staticflickr.com/65535/50040282571_3527398830_o.jpg",
    "id_image": "Robot_291074",
    "count_view": 0
  },
  {
    "link_thumb": "https://live.staticflickr.com/65535/50039987128_c29d1bf364_n.jpg",
    "id_album": "1613540653",
    "description": "Space_805177",
    "title": "Space_805177",
    "link_img": "https://live.staticflickr.com/65535/50039987128_2a5829c13a_o.jpg",
    "id_image": "Space_805177",
    "count_view": 0
  },
  {
    "link_thumb": "https://live.staticflickr.com/65535/50040042111_19b90b28a9_n.jpg",
    "id_album": "814701616",
    "description": "PlanetaryRing_717756",
    "title": "PlanetaryRing_717756",
    "link_img": "https://live.staticflickr.com/65535/50040042111_a7f8d5312d_o.jpg",
    "id_image": "PlanetaryRing_717756",
    "count_view": 0
  },
  {
    "link_thumb": "https://live.staticflickr.com/65535/50039375368_77e90053a8_n.jpg",
    "id_album": "395161030",
    "description": "Planet_287007",
    "title": "Planet_287007",
    "link_img": "https://live.staticflickr.com/65535/50039375368_1f0d52b35b_o.jpg",
    "id_image": "Planet_287007",
    "count_view": 0
  },
  {
    "link_thumb": "https://live.staticflickr.com/65535/50039183448_bd47fd7b79_n.jpg",
    "id_album": "-1388385651",
    "description": "MilkyWay_550926",
    "title": "MilkyWay_550926",
    "link_img": "https://live.staticflickr.com/65535/50039183448_4bc8ed835e_o.jpg",
    "id_image": "MilkyWay_550926",
    "count_view": 0
  },
  {
    "link_thumb": "https://live.staticflickr.com/65535/50039496662_1137b48f9a_n.jpg",
    "id_album": "-406145265",
    "description": "Aircraft_155754",
    "title": "Aircraft_155754",
    "link_img": "https://live.staticflickr.com/65535/50039496662_8da75c198f_o.jpg",
    "id_image": "Aircraft_155754",
    "count_view": 0
  },
  {
    "link_thumb": "https://live.staticflickr.com/65535/50041037573_9b29e56138_n.jpg",
    "id_album": "-1675918237",
    "description": "WomenWarrior_931841",
    "title": "WomenWarrior_931841",
    "link_img": "https://live.staticflickr.com/65535/50041037573_37743f3388_o.jpg",
    "id_image": "WomenWarrior_931841",
    "count_view": 0
  },
  {
    "link_thumb": "https://live.staticflickr.com/65535/50040782427_f030ec117f_n.jpg",
    "id_album": "1613540653",
    "description": "Space_62009",
    "title": "Space_62009",
    "link_img": "https://live.staticflickr.com/65535/50040782427_4dac6eeeda_o.jpg",
    "id_image": "Space_62009",
    "count_view": 0
  },
  {
    "link_thumb": "https://live.staticflickr.com/65535/50039295296_2a3ca42d4a_n.jpg",
    "id_album": "523598895",
    "description": "Artistic_122396",
    "title": "Artistic_122396",
    "link_img": "https://live.staticflickr.com/65535/50039295296_a7c7aa8a3a_o.jpg",
    "id_image": "Artistic_122396",
    "count_view": 0
  },
  {
    "link_thumb": "https://live.staticflickr.com/65535/50040049893_97c0b8f962_n.jpg",
    "id_album": "2130067313",
    "description": "Spaceship_238299",
    "title": "Spaceship_238299",
    "link_img": "https://live.staticflickr.com/65535/50040049893_6f4c9e8e72_o.jpg",
    "id_image": "Spaceship_238299",
    "count_view": 0
  },
  {
    "link_thumb": "https://live.staticflickr.com/65535/50039883861_c67c218c7f_n.jpg",
    "id_album": "-1862561193",
    "description": "Other_280887",
    "title": "Other_280887",
    "link_img": "https://live.staticflickr.com/65535/50039883861_8f408f04c9_o.jpg",
    "id_image": "Other_280887",
    "count_view": 0
  },
  {
    "link_thumb": "https://live.staticflickr.com/65535/50038974248_2205819762_n.jpg",
    "id_album": "-1964113117",
    "description": "City_925920",
    "title": "City_925920",
    "link_img": "https://live.staticflickr.com/65535/50038974248_fa08f5fb82_o.jpg",
    "id_image": "City_925920",
    "count_view": 0
  },
  {
    "link_thumb": "https://live.staticflickr.com/65535/50040324547_a93326b843_n.jpg",
    "id_album": "-1102314093",
    "description": "Planets_220569",
    "title": "Planets_220569",
    "link_img": "https://live.staticflickr.com/65535/50040324547_535c81d5e8_o.jpg",
    "id_image": "Planets_220569",
    "count_view": 0
  },
  {
    "link_thumb": "https://live.staticflickr.com/65535/50040286107_77bce60cca_n.jpg",
    "id_album": "814701616",
    "description": "PlanetaryRing_266168",
    "title": "PlanetaryRing_266168",
    "link_img": "https://live.staticflickr.com/65535/50040286107_d97daf61b9_o.jpg",
    "id_image": "PlanetaryRing_266168",
    "count_view": 0
  },
  {
    "link_thumb": "https://live.staticflickr.com/65535/50038968553_e1c8a79818_n.jpg",
    "id_album": "-1964113117",
    "description": "City_905110",
    "title": "City_905110",
    "link_img": "https://live.staticflickr.com/65535/50038968553_46c5239432_o.jpg",
    "id_image": "City_905110",
    "count_view": 0
  },
  {
    "link_thumb": "https://live.staticflickr.com/65535/50039647052_f24f5e12e1_n.jpg",
    "id_album": "869545341",
    "description": "Astronaut_957375",
    "title": "Astronaut_957375",
    "link_img": "https://live.staticflickr.com/65535/50039647052_1bb0945f14_o.jpg",
    "id_image": "Astronaut_957375",
    "count_view": 0
  },
  {
    "link_thumb": "https://live.staticflickr.com/65535/50039243841_295484508c_n.jpg",
    "id_album": "849020728",
    "description": "Alien_108189",
    "title": "Alien_108189",
    "link_img": "https://live.staticflickr.com/65535/50039243841_6c1cb2b5a1_o.jpg",
    "id_image": "Alien_108189",
    "count_view": 0
  },
  {
    "link_thumb": "https://live.staticflickr.com/65535/50040364732_3de065b040_n.jpg",
    "id_album": "-1102314093",
    "description": "Planets_364385",
    "title": "Planets_364385",
    "link_img": "https://live.staticflickr.com/65535/50040364732_ce7bc45fae_o.jpg",
    "id_image": "Planets_364385",
    "count_view": 0
  },
  {
    "link_thumb": "https://live.staticflickr.com/65535/50040454017_51cfca1589_n.jpg",
    "id_album": "-482547208",
    "description": "PostApocalyptic_115275",
    "title": "PostApocalyptic_115275",
    "link_img": "https://live.staticflickr.com/65535/50040454017_060a67d484_o.jpg",
    "id_image": "PostApocalyptic_115275",
    "count_view": 0
  },
  {
    "link_thumb": "https://live.staticflickr.com/65535/50041576337_1c5d301d98_n.jpg",
    "id_album": "1267121215",
    "description": "Steampunk_330248",
    "title": "Steampunk_330248",
    "link_img": "https://live.staticflickr.com/65535/50041576337_641fec7818_o.jpg",
    "id_image": "Steampunk_330248",
    "count_view": 0
  },
  {
    "link_thumb": "https://live.staticflickr.com/65535/50039066248_9b216a22e5_n.jpg",
    "id_album": "2104507156",
    "description": "Fantasy_155966",
    "title": "Fantasy_155966",
    "link_img": "https://live.staticflickr.com/65535/50039066248_b1969a5d83_o.jpg",
    "id_image": "Fantasy_155966",
    "count_view": 0
  },
  {
    "link_thumb": "https://live.staticflickr.com/65535/50039256968_c69ba70e40_n.jpg",
    "id_album": "-1610342324",
    "description": "Nebula_546083",
    "title": "Nebula_546083",
    "link_img": "https://live.staticflickr.com/65535/50039256968_714f141a92_o.jpg",
    "id_image": "Nebula_546083",
    "count_view": 0
  },
  {
    "link_thumb": "https://live.staticflickr.com/65535/50041759407_d33b919e7d_n.jpg",
    "id_album": "-1261420436",
    "description": "Warrior_957239",
    "title": "Warrior_957239",
    "link_img": "https://live.staticflickr.com/65535/50041759407_340cdeebe0_o.jpg",
    "id_image": "Warrior_957239",
    "count_view": 0
  },
  {
    "link_thumb": "https://live.staticflickr.com/65535/50040529452_50a97dfede_n.jpg",
    "id_album": "779690680",
    "description": "Robot_209290",
    "title": "Robot_209290",
    "link_img": "https://live.staticflickr.com/65535/50040529452_6723508c2e_o.jpg",
    "id_image": "Robot_209290",
    "count_view": 0
  },
  {
    "link_thumb": "https://live.staticflickr.com/65535/50039487576_70cae81b0f_n.jpg",
    "id_album": "-1964113117",
    "description": "City_681252",
    "title": "City_681252",
    "link_img": "https://live.staticflickr.com/65535/50039487576_07c24b9308_o.jpg",
    "id_image": "City_681252",
    "count_view": 0
  },
  {
    "link_thumb": "https://live.staticflickr.com/65535/50038940953_5f28c3c1e4_n.jpg",
    "id_album": "-1964113117",
    "description": "City_697301",
    "title": "City_697301",
    "link_img": "https://live.staticflickr.com/65535/50038940953_f3aa29361f_o.jpg",
    "id_image": "City_697301",
    "count_view": 0
  },
  {
    "link_thumb": "https://live.staticflickr.com/65535/50040323891_0f76d1fb06_n.jpg",
    "id_album": "779690680",
    "description": "Robot_464984",
    "title": "Robot_464984",
    "link_img": "https://live.staticflickr.com/65535/50040323891_4bf700e62b_o.jpg",
    "id_image": "Robot_464984",
    "count_view": 0
  },
  {
    "link_thumb": "https://live.staticflickr.com/65535/50039196378_1c3ca97449_n.jpg",
    "id_album": "-1388385651",
    "description": "MilkyWay_720169",
    "title": "MilkyWay_720169",
    "link_img": "https://live.staticflickr.com/65535/50039196378_56d0e4fdaa_o.jpg",
    "id_image": "MilkyWay_720169",
    "count_view": 0
  },
  {
    "link_thumb": "https://live.staticflickr.com/65535/50041585831_5322891d38_n.jpg",
    "id_album": "-1675918237",
    "description": "WomenWarrior_631671",
    "title": "WomenWarrior_631671",
    "link_img": "https://live.staticflickr.com/65535/50041585831_da1f46a1be_o.jpg",
    "id_image": "WomenWarrior_631671",
    "count_view": 0
  },
  {
    "link_thumb": "https://live.staticflickr.com/65535/50040395091_f865f50c00_n.jpg",
    "id_album": "779690680",
    "description": "Robot_887980",
    "title": "Robot_887980",
    "link_img": "https://live.staticflickr.com/65535/50040395091_5458e30cea_o.jpg",
    "id_image": "Robot_887980",
    "count_view": 0
  },
  {
    "link_thumb": "https://live.staticflickr.com/65535/50039624873_98f4293153_n.jpg",
    "id_album": "376235057",
    "description": "Planetscape_531444",
    "title": "Planetscape_531444",
    "link_img": "https://live.staticflickr.com/65535/50039624873_48e2e179f1_o.jpg",
    "id_image": "Planetscape_531444",
    "count_view": 0
  },
  {
    "link_thumb": "https://live.staticflickr.com/65535/50039997066_387b70944c_n.jpg",
    "id_album": "1443611160",
    "description": "PlanetRise_177495",
    "title": "PlanetRise_177495",
    "link_img": "https://live.staticflickr.com/65535/50039997066_be2eea0a14_o.jpg",
    "id_image": "PlanetRise_177495",
    "count_view": 0
  },
  {
    "link_thumb": "https://live.staticflickr.com/65535/50039778011_54e3b11dc3_n.jpg",
    "id_album": "-1610342324",
    "description": "Nebula_25553",
    "title": "Nebula_25553",
    "link_img": "https://live.staticflickr.com/65535/50039778011_cd041e0962_o.jpg",
    "id_image": "Nebula_25553",
    "count_view": 0
  },
  {
    "link_thumb": "https://live.staticflickr.com/65535/50040890227_7f1793b6c4_n.jpg",
    "id_album": "2130067313",
    "description": "Spaceship_284589",
    "title": "Spaceship_284589",
    "link_img": "https://live.staticflickr.com/65535/50040890227_fa55ba9c10_o.jpg",
    "id_image": "Spaceship_284589",
    "count_view": 0
  },
  {
    "link_thumb": "https://live.staticflickr.com/65535/50039565752_1e7cbabd47_n.jpg",
    "id_album": "523598895",
    "description": "Artistic_174836",
    "title": "Artistic_174836",
    "link_img": "https://live.staticflickr.com/65535/50039565752_228023ebce_o.jpg",
    "id_image": "Artistic_174836",
    "count_view": 0
  },
  {
    "link_thumb": "https://live.staticflickr.com/65535/50040304771_13ce5a9e28_n.jpg",
    "id_album": "779690680",
    "description": "Robot_410859",
    "title": "Robot_410859",
    "link_img": "https://live.staticflickr.com/65535/50040304771_1ec80173cb_o.jpg",
    "id_image": "Robot_410859",
    "count_view": 0
  },
  {
    "link_thumb": "https://live.staticflickr.com/65535/50040597361_204ae7faab_n.jpg",
    "id_album": "2130067313",
    "description": "Spaceship_204513",
    "title": "Spaceship_204513",
    "link_img": "https://live.staticflickr.com/65535/50040597361_14dc183c05_o.jpg",
    "id_image": "Spaceship_204513",
    "count_view": 0
  },
  {
    "link_thumb": "https://live.staticflickr.com/65535/50039698722_20b604bf5c_n.jpg",
    "id_album": "-1964113117",
    "description": "City_152003",
    "title": "City_152003",
    "link_img": "https://live.staticflickr.com/65535/50039698722_9ed90111d4_o.jpg",
    "id_image": "City_152003",
    "count_view": 0
  },
  {
    "link_thumb": "https://live.staticflickr.com/65535/50040055857_6f6f7af5ee_n.jpg",
    "id_album": "-1610342324",
    "description": "Nebula_397551",
    "title": "Nebula_397551",
    "link_img": "https://live.staticflickr.com/65535/50040055857_c50f67c23f_o.jpg",
    "id_image": "Nebula_397551",
    "count_view": 0
  },
  {
    "link_thumb": "https://live.staticflickr.com/65535/50039772903_b864d98bef_n.jpg",
    "id_album": "779690680",
    "description": "Robot_497237",
    "title": "Robot_497237",
    "link_img": "https://live.staticflickr.com/65535/50039772903_b4f5c2e84f_o.jpg",
    "id_image": "Robot_497237",
    "count_view": 0
  },
  {
    "link_thumb": "https://live.staticflickr.com/65535/50038925988_942379008a_n.jpg",
    "id_album": "-1964113117",
    "description": "City_522777",
    "title": "City_522777",
    "link_img": "https://live.staticflickr.com/65535/50038925988_745a2570e2_o.jpg",
    "id_image": "City_522777",
    "count_view": 0
  },
  {
    "link_thumb": "https://live.staticflickr.com/65535/50039490372_e72d04b25e_n.jpg",
    "id_album": "280884763",
    "description": "Abstract_222299",
    "title": "Abstract_222299",
    "link_img": "https://live.staticflickr.com/65535/50039490372_b85f937a76_o.jpg",
    "id_image": "Abstract_222299",
    "count_view": 0
  },
  {
    "link_thumb": "https://live.staticflickr.com/65535/50039885988_64343aa07e_n.jpg",
    "id_album": "779690680",
    "description": "Robot_949786",
    "title": "Robot_949786",
    "link_img": "https://live.staticflickr.com/65535/50039885988_76b6ddaa08_o.jpg",
    "id_image": "Robot_949786",
    "count_view": 0
  },
  {
    "link_thumb": "https://live.staticflickr.com/65535/50038984288_08d32ff75c_n.jpg",
    "id_album": "-1964113117",
    "description": "City_988763",
    "title": "City_988763",
    "link_img": "https://live.staticflickr.com/65535/50038984288_0ab8eb6b0e_o.jpg",
    "id_image": "City_988763",
    "count_view": 0
  },
  {
    "link_thumb": "https://live.staticflickr.com/65535/50041257241_4247cfe1ca_n.jpg",
    "id_album": "-1587696329",
    "description": "Stars_173368",
    "title": "Stars_173368",
    "link_img": "https://live.staticflickr.com/65535/50041257241_fe13e4bef0_o.jpg",
    "id_image": "Stars_173368",
    "count_view": 0
  },
  {
    "link_thumb": "https://live.staticflickr.com/65535/50040086737_3c84f22486_n.jpg",
    "id_album": "-1610342324",
    "description": "Nebula_699332",
    "title": "Nebula_699332",
    "link_img": "https://live.staticflickr.com/65535/50040086737_1725800d53_o.jpg",
    "id_image": "Nebula_699332",
    "count_view": 0
  },
  {
    "link_thumb": "https://live.staticflickr.com/65535/50041438572_54a86ec681_n.jpg",
    "id_album": "-1863373220",
    "description": "StarWars_393585",
    "title": "StarWars_393585",
    "link_img": "https://live.staticflickr.com/65535/50041438572_2ea2a38912_o.jpg",
    "id_image": "StarWars_393585",
    "count_view": 0
  },
  {
    "link_thumb": "https://live.staticflickr.com/65535/50039683503_13776077eb_n.jpg",
    "id_album": "-482547208",
    "description": "PostApocalyptic_977112",
    "title": "PostApocalyptic_977112",
    "link_img": "https://live.staticflickr.com/65535/50039683503_baa35c4ec0_o.jpg",
    "id_image": "PostApocalyptic_977112",
    "count_view": 0
  },
  {
    "link_thumb": "https://live.staticflickr.com/65535/50039229148_cae736a20f_n.jpg",
    "id_album": "-1610342324",
    "description": "Nebula_264704",
    "title": "Nebula_264704",
    "link_img": "https://live.staticflickr.com/65535/50039229148_cb14a59e85_o.jpg",
    "id_image": "Nebula_264704",
    "count_view": 0
  },
  {
    "link_thumb": "https://live.staticflickr.com/65535/50040465951_f31854b5e1_n.jpg",
    "id_album": "1613540653",
    "description": "Space_121041",
    "title": "Space_121041",
    "link_img": "https://live.staticflickr.com/65535/50040465951_3fb47c76dc_o.jpg",
    "id_image": "Space_121041",
    "count_view": 0
  },
  {
    "link_thumb": "https://live.staticflickr.com/65535/50039717503_c063842eeb_n.jpg",
    "id_album": "779690680",
    "description": "Robot_245595",
    "title": "Robot_245595",
    "link_img": "https://live.staticflickr.com/65535/50039717503_b2358b2398_o.jpg",
    "id_image": "Robot_245595",
    "count_view": 0
  },
  {
    "link_thumb": "https://live.staticflickr.com/65535/50039413286_dca54f1d05_n.jpg",
    "id_album": "-1780971522",
    "description": "Biohazard_333211",
    "title": "Biohazard_333211",
    "link_img": "https://live.staticflickr.com/65535/50039413286_0f4d694e63_o.jpg",
    "id_image": "Biohazard_333211",
    "count_view": 0
  },
  {
    "link_thumb": "https://live.staticflickr.com/65535/50039889627_8e5be759d9_n.jpg",
    "id_album": "1204249541",
    "description": "Galaxy_220976",
    "title": "Galaxy_220976",
    "link_img": "https://live.staticflickr.com/65535/50039889627_09867d1699_o.jpg",
    "id_image": "Galaxy_220976",
    "count_view": 0
  },
  {
    "link_thumb": "https://live.staticflickr.com/65535/50040543766_122e399caa_n.jpg",
    "id_album": "1613540653",
    "description": "Space_822474",
    "title": "Space_822474",
    "link_img": "https://live.staticflickr.com/65535/50040543766_04bfdc74f0_o.jpg",
    "id_image": "Space_822474",
    "count_view": 0
  },
  {
    "link_thumb": "https://live.staticflickr.com/65535/50038721758_5aeda8d848_n.jpg",
    "id_album": "849020728",
    "description": "Alien_556059",
    "title": "Alien_556059",
    "link_img": "https://live.staticflickr.com/65535/50038721758_ba2b32158e_o.jpg",
    "id_image": "Alien_556059",
    "count_view": 0
  },
  {
    "link_thumb": "https://live.staticflickr.com/65535/50039630941_b9a0d439eb_n.jpg",
    "id_album": "1204249541",
    "description": "Galaxy_324585",
    "title": "Galaxy_324585",
    "link_img": "https://live.staticflickr.com/65535/50039630941_b96a766038_o.jpg",
    "id_image": "Galaxy_324585",
    "count_view": 0
  },
  {
    "link_thumb": "https://live.staticflickr.com/65535/50039296371_9b89032ea1_n.jpg",
    "id_album": "523598895",
    "description": "Artistic_150991",
    "title": "Artistic_150991",
    "link_img": "https://live.staticflickr.com/65535/50039296371_f8bca3decd_o.jpg",
    "id_image": "Artistic_150991",
    "count_view": 0
  },
  {
    "link_thumb": "https://live.staticflickr.com/65535/50039615427_fa433ee923_n.jpg",
    "id_album": "869545341",
    "description": "Astronaut_314713",
    "title": "Astronaut_314713",
    "link_img": "https://live.staticflickr.com/65535/50039615427_fbb6417f9a_o.jpg",
    "id_image": "Astronaut_314713",
    "count_view": 0
  },
  {
    "link_thumb": "https://live.staticflickr.com/65535/50040828848_83378202cc_n.jpg",
    "id_album": "2020068132",
    "description": "Vehicle_271142",
    "title": "Vehicle_271142",
    "link_img": "https://live.staticflickr.com/65535/50040828848_0755b1ed6b_o.jpg",
    "id_image": "Vehicle_271142",
    "count_view": 0
  },
  {
    "link_thumb": "https://live.staticflickr.com/65535/50039424631_fc0d595b55_n.jpg",
    "id_album": "406431601",
    "description": "Building_871317",
    "title": "Building_871317",
    "link_img": "https://live.staticflickr.com/65535/50039424631_38b2d55113_o.jpg",
    "id_image": "Building_871317",
    "count_view": 0
  },
  {
    "link_thumb": "https://live.staticflickr.com/65535/50041503767_e195265922_n.jpg",
    "id_album": "-1863373220",
    "description": "StarWars_913639",
    "title": "StarWars_913639",
    "link_img": "https://live.staticflickr.com/65535/50041503767_8a27f0e63f_o.jpg",
    "id_image": "StarWars_913639",
    "count_view": 0
  },
  {
    "link_thumb": "https://live.staticflickr.com/65535/50040557617_839b0e52c1_n.jpg",
    "id_album": "779690680",
    "description": "Robot_338444",
    "title": "Robot_338444",
    "link_img": "https://live.staticflickr.com/65535/50040557617_d9b40d8ec4_o.jpg",
    "id_image": "Robot_338444",
    "count_view": 0
  },
  {
    "link_thumb": "https://live.staticflickr.com/65535/50040743912_78d0f63bc2_n.jpg",
    "id_album": "1613540653",
    "description": "Space_212456",
    "title": "Space_212456",
    "link_img": "https://live.staticflickr.com/65535/50040743912_067de2db5e_o.jpg",
    "id_image": "Space_212456",
    "count_view": 0
  },
  {
    "link_thumb": "https://live.staticflickr.com/65535/50040214586_39dc75b89b_n.jpg",
    "id_album": "-482547208",
    "description": "PostApocalyptic_568744",
    "title": "PostApocalyptic_568744",
    "link_img": "https://live.staticflickr.com/65535/50040214586_e0507098de_o.jpg",
    "id_image": "PostApocalyptic_568744",
    "count_view": 0
  },
  {
    "link_thumb": "https://live.staticflickr.com/65535/50039890217_8f2bb3522d_n.jpg",
    "id_album": "1204249541",
    "description": "Galaxy_234675",
    "title": "Galaxy_234675",
    "link_img": "https://live.staticflickr.com/65535/50039890217_3d5dc82063_o.jpg",
    "id_image": "Galaxy_234675",
    "count_view": 0
  },
  {
    "link_thumb": "https://live.staticflickr.com/65535/50039351403_72481bbb3c_n.jpg",
    "id_album": "395161030",
    "description": "Planet_1004885",
    "title": "Planet_1004885",
    "link_img": "https://live.staticflickr.com/65535/50039351403_9f6e816b25_o.jpg",
    "id_image": "Planet_1004885",
    "count_view": 0
  },
  {
    "link_thumb": "https://live.staticflickr.com/65535/50040143207_f42365c300_n.jpg",
    "id_album": "-1862561193",
    "description": "Other_233383",
    "title": "Other_233383",
    "link_img": "https://live.staticflickr.com/65535/50040143207_c0108d6a07_o.jpg",
    "id_image": "Other_233383",
    "count_view": 0
  },
  {
    "link_thumb": "https://live.staticflickr.com/65535/50039884928_98c57e91df_n.jpg",
    "id_album": "779690680",
    "description": "Robot_944759",
    "title": "Robot_944759",
    "link_img": "https://live.staticflickr.com/65535/50039884928_15f846d98a_o.jpg",
    "id_image": "Robot_944759",
    "count_view": 0
  },
  {
    "link_thumb": "https://live.staticflickr.com/65535/50039752996_0fbee80138_n.jpg",
    "id_album": "416351698",
    "description": "Moon_113990",
    "title": "Moon_113990",
    "link_img": "https://live.staticflickr.com/65535/50039752996_424e0dfc11_o.jpg",
    "id_image": "Moon_113990",
    "count_view": 0
  },
  {
    "link_thumb": "https://live.staticflickr.com/65535/50039666647_85342c02c5_n.jpg",
    "id_album": "1187037014",
    "description": "Battle_602051",
    "title": "Battle_602051",
    "link_img": "https://live.staticflickr.com/65535/50039666647_2c44e76a52_o.jpg",
    "id_image": "Battle_602051",
    "count_view": 0
  },
  {
    "link_thumb": "https://live.staticflickr.com/65535/50041843017_89dbc1c09d_n.jpg",
    "id_album": "-1675918237",
    "description": "WomenWarrior_584726",
    "title": "WomenWarrior_584726",
    "link_img": "https://live.staticflickr.com/65535/50041843017_d9fdbe7036_o.jpg",
    "id_image": "WomenWarrior_584726",
    "count_view": 0
  },
  {
    "link_thumb": "https://live.staticflickr.com/65535/50041370331_13b8714ddc_n.jpg",
    "id_album": "-1177476763",
    "description": "Sunrise_86181",
    "title": "Sunrise_86181",
    "link_img": "https://live.staticflickr.com/65535/50041370331_aae858e23e_o.jpg",
    "id_image": "Sunrise_86181",
    "count_view": 0
  },
  {
    "link_thumb": "https://live.staticflickr.com/65535/50039171583_34aacbe682_n.jpg",
    "id_album": "1402713104",
    "description": "Landscape_906139",
    "title": "Landscape_906139",
    "link_img": "https://live.staticflickr.com/65535/50039171583_4c3a6c9d69_o.jpg",
    "id_image": "Landscape_906139",
    "count_view": 0
  },
  {
    "link_thumb": "https://live.staticflickr.com/65535/50041492311_157fd56107_n.jpg",
    "id_album": "-1261420436",
    "description": "Warrior_893431",
    "title": "Warrior_893431",
    "link_img": "https://live.staticflickr.com/65535/50041492311_e305695e79_o.jpg",
    "id_image": "Warrior_893431",
    "count_view": 0
  },
  {
    "link_thumb": "https://live.staticflickr.com/65535/50039897672_d1f6f2193f_n.jpg",
    "id_album": "1204249541",
    "description": "Galaxy_441058",
    "title": "Galaxy_441058",
    "link_img": "https://live.staticflickr.com/65535/50039897672_5c44a731ba_o.jpg",
    "id_image": "Galaxy_441058",
    "count_view": 0
  },
  {
    "link_thumb": "https://live.staticflickr.com/65535/50038716848_e7330b74d1_n.jpg",
    "id_album": "849020728",
    "description": "Alien_41623",
    "title": "Alien_41623",
    "link_img": "https://live.staticflickr.com/65535/50038716848_4ea3f5ec66_o.jpg",
    "id_image": "Alien_41623",
    "count_view": 0
  },
  {
    "link_thumb": "https://live.staticflickr.com/65535/50039795957_e3f6aedda6_n.jpg",
    "id_album": "-1964113117",
    "description": "City_997271",
    "title": "City_997271",
    "link_img": "https://live.staticflickr.com/65535/50039795957_f3d4634362_o.jpg",
    "id_image": "City_997271",
    "count_view": 0
  },
  {
    "link_thumb": "https://live.staticflickr.com/65535/50040899208_50799e323c_n.jpg",
    "id_album": "-1261420436",
    "description": "Warrior_373915",
    "title": "Warrior_373915",
    "link_img": "https://live.staticflickr.com/65535/50040899208_3966f97b48_o.jpg",
    "id_image": "Warrior_373915",
    "count_view": 0
  },
  {
    "link_thumb": "https://live.staticflickr.com/65535/50040741362_b0e241b18d_n.jpg",
    "id_album": "1613540653",
    "description": "Space_192889",
    "title": "Space_192889",
    "link_img": "https://live.staticflickr.com/65535/50040741362_403dac0a45_o.jpg",
    "id_image": "Space_192889",
    "count_view": 0
  },
  {
    "link_thumb": "https://live.staticflickr.com/65535/50040045187_e55c38c69a_n.jpg",
    "id_album": "-1610342324",
    "description": "Nebula_284832",
    "title": "Nebula_284832",
    "link_img": "https://live.staticflickr.com/65535/50040045187_eaf6cdff0d_o.jpg",
    "id_image": "Nebula_284832",
    "count_view": 0
  },
  {
    "link_thumb": "https://live.staticflickr.com/65535/50040376821_fb63d45c2d_n.jpg",
    "id_album": "779690680",
    "description": "Robot_859573",
    "title": "Robot_859573",
    "link_img": "https://live.staticflickr.com/65535/50040376821_d348da2a7d_o.jpg",
    "id_image": "Robot_859573",
    "count_view": 0
  },
  {
    "link_thumb": "https://live.staticflickr.com/65535/50041337091_2a6f885b09_n.jpg",
    "id_album": "1267121215",
    "description": "Steampunk_992541",
    "title": "Steampunk_992541",
    "link_img": "https://live.staticflickr.com/65535/50041337091_645e07d002_o.jpg",
    "id_image": "Steampunk_992541",
    "count_view": 0
  },
  {
    "link_thumb": "https://live.staticflickr.com/65535/50039720256_449d043649_n.jpg",
    "id_album": "1402713104",
    "description": "Landscape_902745",
    "title": "Landscape_902745",
    "link_img": "https://live.staticflickr.com/65535/50039720256_47a3b684ff_o.jpg",
    "id_image": "Landscape_902745",
    "count_view": 0
  },
  {
    "link_thumb": "https://live.staticflickr.com/65535/50040484926_176d7ecf2b_n.jpg",
    "id_album": "1613540653",
    "description": "Space_274266",
    "title": "Space_274266",
    "link_img": "https://live.staticflickr.com/65535/50040484926_3cdae2ed26_o.jpg",
    "id_image": "Space_274266",
    "count_view": 0
  },
  {
    "link_thumb": "https://live.staticflickr.com/65535/50039992783_2f29591279_n.jpg",
    "id_album": "1613540653",
    "description": "Space_849370",
    "title": "Space_849370",
    "link_img": "https://live.staticflickr.com/65535/50039992783_e4e5d9018e_o.jpg",
    "id_image": "Space_849370",
    "count_view": 0
  },
  {
    "link_thumb": "https://live.staticflickr.com/65535/50039529546_7b289acfe2_n.jpg",
    "id_album": "-1964113117",
    "description": "City_971751",
    "title": "City_971751",
    "link_img": "https://live.staticflickr.com/65535/50039529546_0c248bf076_o.jpg",
    "id_image": "City_971751",
    "count_view": 0
  },
  {
    "link_thumb": "https://live.staticflickr.com/65535/50040963318_5f94f0d71d_n.jpg",
    "id_album": "-1126835654",
    "description": "Women_283781",
    "title": "Women_283781",
    "link_img": "https://live.staticflickr.com/65535/50040963318_392fdfd1ee_o.jpg",
    "id_image": "Women_283781",
    "count_view": 0
  },
  {
    "link_thumb": "https://live.staticflickr.com/65535/50039287008_139a8fe37b_n.jpg",
    "id_album": "-1610342324",
    "description": "Nebula_785583",
    "title": "Nebula_785583",
    "link_img": "https://live.staticflickr.com/65535/50039287008_a58eaa762f_o.jpg",
    "id_image": "Nebula_785583",
    "count_view": 0
  },
  {
    "link_thumb": "https://live.staticflickr.com/65535/50039747612_1d8f2eb968_n.jpg",
    "id_album": "-1964113117",
    "description": "City_671368",
    "title": "City_671368",
    "link_img": "https://live.staticflickr.com/65535/50039747612_8a3372d712_o.jpg",
    "id_image": "City_671368",
    "count_view": 0
  },
  {
    "link_thumb": "https://live.staticflickr.com/65535/50038829443_ec2e5335b7_n.jpg",
    "id_album": "869545341",
    "description": "Astronaut_913006",
    "title": "Astronaut_913006",
    "link_img": "https://live.staticflickr.com/65535/50038829443_316cd0e360_o.jpg",
    "id_image": "Astronaut_913006",
    "count_view": 0
  },
  {
    "link_thumb": "https://live.staticflickr.com/65535/50039399931_99ba3cc007_n.jpg",
    "id_album": "1187037014",
    "description": "Battle_299865",
    "title": "Battle_299865",
    "link_img": "https://live.staticflickr.com/65535/50039399931_86f517314c_o.jpg",
    "id_image": "Battle_299865",
    "count_view": 0
  },
  {
    "link_thumb": "https://live.staticflickr.com/65535/50039398223_25ffa88a3c_n.jpg",
    "id_album": "395161030",
    "description": "Planet_396516",
    "title": "Planet_396516",
    "link_img": "https://live.staticflickr.com/65535/50039398223_bb2a089ee7_o.jpg",
    "id_image": "Planet_396516",
    "count_view": 0
  },
  {
    "link_thumb": "https://live.staticflickr.com/65535/50040477481_0f64201905_n.jpg",
    "id_album": "1613540653",
    "description": "Space_193",
    "title": "Space_193",
    "link_img": "https://live.staticflickr.com/65535/50040477481_5162ab3ddf_o.jpg",
    "id_image": "Space_193",
    "count_view": 0
  },
  {
    "link_thumb": "https://live.staticflickr.com/65535/50039627611_b6e86245df_n.jpg",
    "id_album": "1204249541",
    "description": "Galaxy_225945",
    "title": "Galaxy_225945",
    "link_img": "https://live.staticflickr.com/65535/50039627611_878b6deded_o.jpg",
    "id_image": "Galaxy_225945",
    "count_view": 0
  },
  {
    "link_thumb": "https://live.staticflickr.com/65535/50040837413_60604b9b14_n.jpg",
    "id_album": "2020068132",
    "description": "Vehicle_342933",
    "title": "Vehicle_342933",
    "link_img": "https://live.staticflickr.com/65535/50040837413_496c40a0ea_o.jpg",
    "id_image": "Vehicle_342933",
    "count_view": 0
  },
  {
    "link_thumb": "https://live.staticflickr.com/65535/50039730278_74eda11a41_n.jpg",
    "id_album": "779690680",
    "description": "Robot_291956",
    "title": "Robot_291956",
    "link_img": "https://live.staticflickr.com/65535/50039730278_4f854ed7fa_o.jpg",
    "id_image": "Robot_291956",
    "count_view": 0
  },
  {
    "link_thumb": "https://live.staticflickr.com/65535/50039527471_f224116674_n.jpg",
    "id_album": "-1964113117",
    "description": "City_956723",
    "title": "City_956723",
    "link_img": "https://live.staticflickr.com/65535/50039527471_6a40ce01f5_o.jpg",
    "id_image": "City_956723",
    "count_view": 0
  },
  {
    "link_thumb": "https://live.staticflickr.com/65535/50040598751_841cf94f6c_n.jpg",
    "id_album": "2130067313",
    "description": "Spaceship_211057",
    "title": "Spaceship_211057",
    "link_img": "https://live.staticflickr.com/65535/50040598751_3e3e0d5bec_o.jpg",
    "id_image": "Spaceship_211057",
    "count_view": 0
  },
  {
    "link_thumb": "https://live.staticflickr.com/65535/50038936328_245e5cdde7_n.jpg",
    "id_album": "-1964113117",
    "description": "City_665742",
    "title": "City_665742",
    "link_img": "https://live.staticflickr.com/65535/50038936328_90db83e5d3_o.jpg",
    "id_image": "City_665742",
    "count_view": 0
  },
  {
    "link_thumb": "https://live.staticflickr.com/65535/50039341081_dcfb74aea1_n.jpg",
    "id_album": "523598895",
    "description": "Artistic_653391",
    "title": "Artistic_653391",
    "link_img": "https://live.staticflickr.com/65535/50039341081_a1caa306a8_o.jpg",
    "id_image": "Artistic_653391",
    "count_view": 0
  },
  {
    "link_thumb": "https://live.staticflickr.com/65535/50041622112_07f9009d50_n.jpg",
    "id_album": "-1177476763",
    "description": "Sunrise_286842",
    "title": "Sunrise_286842",
    "link_img": "https://live.staticflickr.com/65535/50041622112_69bc138730_o.jpg",
    "id_image": "Sunrise_286842",
    "count_view": 0
  },
  {
    "link_thumb": "https://live.staticflickr.com/65535/50039668851_6525914227_n.jpg",
    "id_album": "1402713104",
    "description": "Landscape_279664",
    "title": "Landscape_279664",
    "link_img": "https://live.staticflickr.com/65535/50039668851_772d764613_o.jpg",
    "id_image": "Landscape_279664",
    "count_view": 0
  },
  {
    "link_thumb": "https://live.staticflickr.com/65535/50039735566_7ede620eb4_n.jpg",
    "id_album": "-1388385651",
    "description": "MilkyWay_596227",
    "title": "MilkyWay_596227",
    "link_img": "https://live.staticflickr.com/65535/50039735566_a522bafb72_o.jpg",
    "id_image": "MilkyWay_596227",
    "count_view": 0
  },
  {
    "link_thumb": "https://live.staticflickr.com/65535/50040471921_487797ff8c_n.jpg",
    "id_album": "1613540653",
    "description": "Space_172125",
    "title": "Space_172125",
    "link_img": "https://live.staticflickr.com/65535/50040471921_7b787a1698_o.jpg",
    "id_image": "Space_172125",
    "count_view": 0
  },
  {
    "link_thumb": "https://live.staticflickr.com/65535/50039996046_e56066bfdb_n.jpg",
    "id_album": "1443611160",
    "description": "PlanetRise_121801",
    "title": "PlanetRise_121801",
    "link_img": "https://live.staticflickr.com/65535/50039996046_a46456ab6e_o.jpg",
    "id_image": "PlanetRise_121801",
    "count_view": 0
  },
  {
    "link_thumb": "https://live.staticflickr.com/65535/50039755482_92035f070a_n.jpg",
    "id_album": "-1964113117",
    "description": "City_725221",
    "title": "City_725221",
    "link_img": "https://live.staticflickr.com/65535/50039755482_0d4f29361c_o.jpg",
    "id_image": "City_725221",
    "count_view": 0
  },
  {
    "link_thumb": "https://live.staticflickr.com/65535/50040716312_32d4464f15_n.jpg",
    "id_album": "779690680",
    "description": "Robot_972822",
    "title": "Robot_972822",
    "link_img": "https://live.staticflickr.com/65535/50040716312_81a46941d8_o.jpg",
    "id_image": "Robot_972822",
    "count_view": 0
  },
  {
    "link_thumb": "https://live.staticflickr.com/65535/50039316241_d6fce596cf_n.jpg",
    "id_album": "523598895",
    "description": "Artistic_220358",
    "title": "Artistic_220358",
    "link_img": "https://live.staticflickr.com/65535/50039316241_c78fd99072_o.jpg",
    "id_image": "Artistic_220358",
    "count_view": 0
  },
  {
    "link_thumb": "https://live.staticflickr.com/65535/50039482416_5c40ce104f_n.jpg",
    "id_album": "-1964113117",
    "description": "City_635056",
    "title": "City_635056",
    "link_img": "https://live.staticflickr.com/65535/50039482416_49959e162f_o.jpg",
    "id_image": "City_635056",
    "count_view": 0
  },
  {
    "link_thumb": "https://live.staticflickr.com/65535/50041486361_0f5c32f121_n.jpg",
    "id_album": "-1261420436",
    "description": "Warrior_778589",
    "title": "Warrior_778589",
    "link_img": "https://live.staticflickr.com/65535/50041486361_04c0a9b187_o.jpg",
    "id_image": "Warrior_778589",
    "count_view": 0
  },
  {
    "link_thumb": "https://live.staticflickr.com/65535/50040714458_0d99f10ec3_n.jpg",
    "id_album": "-1587696329",
    "description": "Stars_438994",
    "title": "Stars_438994",
    "link_img": "https://live.staticflickr.com/65535/50040714458_7c5f042b8c_o.jpg",
    "id_image": "Stars_438994",
    "count_view": 0
  },
  {
    "link_thumb": "https://live.staticflickr.com/65535/50041495157_622d057474_n.jpg",
    "id_album": "-1863373220",
    "description": "StarWars_881039",
    "title": "StarWars_881039",
    "link_img": "https://live.staticflickr.com/65535/50041495157_06e1b1be00_o.jpg",
    "id_image": "StarWars_881039",
    "count_view": 0
  },
  {
    "link_thumb": "https://live.staticflickr.com/65535/50039924581_41bc2572cf_n.jpg",
    "id_album": "395161030",
    "description": "Planet_287058",
    "title": "Planet_287058",
    "link_img": "https://live.staticflickr.com/65535/50039924581_17281bf4b6_o.jpg",
    "id_image": "Planet_287058",
    "count_view": 0
  },
  {
    "link_thumb": "https://live.staticflickr.com/65535/50039868797_d7e2e7f908_n.jpg",
    "id_album": "829169633",
    "description": "Cyborg_964089",
    "title": "Cyborg_964089",
    "link_img": "https://live.staticflickr.com/65535/50039868797_5f1c1ab277_o.jpg",
    "id_image": "Cyborg_964089",
    "count_view": 0
  },
  {
    "link_thumb": "https://live.staticflickr.com/65535/50039896027_c7f5471989_n.jpg",
    "id_album": "1204249541",
    "description": "Galaxy_422263",
    "title": "Galaxy_422263",
    "link_img": "https://live.staticflickr.com/65535/50039896027_ee16687425_o.jpg",
    "id_image": "Galaxy_422263",
    "count_view": 0
  },
  {
    "link_thumb": "https://live.staticflickr.com/65535/50039649643_1ee4861fe7_n.jpg",
    "id_album": "-482547208",
    "description": "PostApocalyptic_245473",
    "title": "PostApocalyptic_245473",
    "link_img": "https://live.staticflickr.com/65535/50039649643_086397fb43_o.jpg",
    "id_image": "PostApocalyptic_245473",
    "count_view": 0
  },
  {
    "link_thumb": "https://live.staticflickr.com/65535/50039262466_c4f6c5191c_n.jpg",
    "id_album": "849020728",
    "description": "Alien_393642",
    "title": "Alien_393642",
    "link_img": "https://live.staticflickr.com/65535/50039262466_49b3cf974c_o.jpg",
    "id_image": "Alien_393642",
    "count_view": 0
  },
  {
    "link_thumb": "https://live.staticflickr.com/65535/50039354763_b60fb0e016_n.jpg",
    "id_album": "395161030",
    "description": "Planet_113326",
    "title": "Planet_113326",
    "link_img": "https://live.staticflickr.com/65535/50039354763_8f6f5b913a_o.jpg",
    "id_image": "Planet_113326",
    "count_view": 0
  },
  {
    "link_thumb": "https://live.staticflickr.com/65535/50041555042_4f9792f3b7_n.jpg",
    "id_album": "1267121215",
    "description": "Steampunk_190375",
    "title": "Steampunk_190375",
    "link_img": "https://live.staticflickr.com/65535/50041555042_10216c7a9b_o.jpg",
    "id_image": "Steampunk_190375",
    "count_view": 0
  },
  {
    "link_thumb": "https://live.staticflickr.com/65535/50040445181_de04459a4c_n.jpg",
    "id_album": "779690680",
    "description": "Robot_957105",
    "title": "Robot_957105",
    "link_img": "https://live.staticflickr.com/65535/50040445181_fb3c38d535_o.jpg",
    "id_image": "Robot_957105",
    "count_view": 0
  },
  {
    "link_thumb": "https://live.staticflickr.com/65535/50039629951_0f5e3e9cbd_n.jpg",
    "id_album": "1204249541",
    "description": "Galaxy_286765",
    "title": "Galaxy_286765",
    "link_img": "https://live.staticflickr.com/65535/50039629951_07369883f5_o.jpg",
    "id_image": "Galaxy_286765",
    "count_view": 0
  },
  {
    "link_thumb": "https://live.staticflickr.com/65535/50041701702_88f361d27c_n.jpg",
    "id_album": "-1261420436",
    "description": "Warrior_262545",
    "title": "Warrior_262545",
    "link_img": "https://live.staticflickr.com/65535/50041701702_8b89ebd29f_o.jpg",
    "id_image": "Warrior_262545",
    "count_view": 0
  },
  {
    "link_thumb": "https://live.staticflickr.com/65535/50039790232_6d6812ae80_n.jpg",
    "id_album": "-1964113117",
    "description": "City_962967",
    "title": "City_962967",
    "link_img": "https://live.staticflickr.com/65535/50039790232_2bac71de3a_o.jpg",
    "id_image": "City_962967",
    "count_view": 0
  },
  {
    "link_thumb": "https://live.staticflickr.com/65535/50039870548_5a38cfcf28_n.jpg",
    "id_album": "779690680",
    "description": "Robot_928592",
    "title": "Robot_928592",
    "link_img": "https://live.staticflickr.com/65535/50039870548_fa55d0ceac_o.jpg",
    "id_image": "Robot_928592",
    "count_view": 0
  },
  {
    "link_thumb": "https://live.staticflickr.com/65535/50040113462_ae55abc373_n.jpg",
    "id_album": "-1610342324",
    "description": "Nebula_882802",
    "title": "Nebula_882802",
    "link_img": "https://live.staticflickr.com/65535/50040113462_a61c005a2d_o.jpg",
    "id_image": "Nebula_882802",
    "count_view": 0
  },
  {
    "link_thumb": "https://live.staticflickr.com/65535/50039852963_4b0eafcea6_n.jpg",
    "id_album": "779690680",
    "description": "Robot_910928",
    "title": "Robot_910928",
    "link_img": "https://live.staticflickr.com/65535/50039852963_2e43908fc9_o.jpg",
    "id_image": "Robot_910928",
    "count_view": 0
  },
  {
    "link_thumb": "https://live.staticflickr.com/65535/50040287446_f2327c5e8d_n.jpg",
    "id_album": "779690680",
    "description": "Robot_314998",
    "title": "Robot_314998",
    "link_img": "https://live.staticflickr.com/65535/50040287446_9f11c3aa50_o.jpg",
    "id_image": "Robot_314998",
    "count_view": 0
  },
  {
    "link_thumb": "https://live.staticflickr.com/65535/50039252061_36a97466e6_n.jpg",
    "id_album": "849020728",
    "description": "Alien_194013",
    "title": "Alien_194013",
    "link_img": "https://live.staticflickr.com/65535/50039252061_243d682a21_o.jpg",
    "id_image": "Alien_194013",
    "count_view": 0
  },
  {
    "link_thumb": "https://live.staticflickr.com/65535/50040372547_93e902a3a6_n.jpg",
    "id_album": "-1102314093",
    "description": "Planets_408838",
    "title": "Planets_408838",
    "link_img": "https://live.staticflickr.com/65535/50040372547_ef7d3427ba_o.jpg",
    "id_image": "Planets_408838",
    "count_view": 0
  },
  {
    "link_thumb": "https://live.staticflickr.com/65535/50039937717_3b451ec3af_n.jpg",
    "id_album": "1402713104",
    "description": "Landscape_311326",
    "title": "Landscape_311326",
    "link_img": "https://live.staticflickr.com/65535/50039937717_599547c66d_o.jpg",
    "id_image": "Landscape_311326",
    "count_view": 0
  },
  {
    "link_thumb": "https://live.staticflickr.com/65535/50041241001_5ed015b372_n.jpg",
    "id_album": "-1863373220",
    "description": "StarWars_914147",
    "title": "StarWars_914147",
    "link_img": "https://live.staticflickr.com/65535/50041241001_53c20cd84a_o.jpg",
    "id_image": "StarWars_914147",
    "count_view": 0
  },
  {
    "link_thumb": "https://live.staticflickr.com/65535/50040622793_d6af99f05d_n.jpg",
    "id_album": "-1863373220",
    "description": "StarWars_398455",
    "title": "StarWars_398455",
    "link_img": "https://live.staticflickr.com/65535/50040622793_42b74e4bf3_o.jpg",
    "id_image": "StarWars_398455",
    "count_view": 0
  },
  {
    "link_thumb": "https://live.staticflickr.com/65535/50040418611_0667982f40_n.jpg",
    "id_album": "779690680",
    "description": "Robot_922857",
    "title": "Robot_922857",
    "link_img": "https://live.staticflickr.com/65535/50040418611_69a35df553_o.jpg",
    "id_image": "Robot_922857",
    "count_view": 0
  },
  {
    "link_thumb": "https://live.staticflickr.com/65535/50040801177_9a479cc642_n.jpg",
    "id_album": "1613540653",
    "description": "Space_748350",
    "title": "Space_748350",
    "link_img": "https://live.staticflickr.com/65535/50040801177_cf00ba5ec8_o.jpg",
    "id_image": "Space_748350",
    "count_view": 0
  },
  {
    "link_thumb": "https://live.staticflickr.com/65535/50040779802_9c562cf6d6_n.jpg",
    "id_album": "1613540653",
    "description": "Space_577980",
    "title": "Space_577980",
    "link_img": "https://live.staticflickr.com/65535/50040779802_7339767d17_o.jpg",
    "id_image": "Space_577980",
    "count_view": 0
  },
  {
    "link_thumb": "https://live.staticflickr.com/65535/50039485676_549583b5c4_n.jpg",
    "id_album": "-1964113117",
    "description": "City_673591",
    "title": "City_673591",
    "link_img": "https://live.staticflickr.com/65535/50039485676_750a4ef4af_o.jpg",
    "id_image": "City_673591",
    "count_view": 0
  },
  {
    "link_thumb": "https://live.staticflickr.com/65535/50039300238_ff91168d13_n.jpg",
    "id_album": "-1610342324",
    "description": "Nebula_885416",
    "title": "Nebula_885416",
    "link_img": "https://live.staticflickr.com/65535/50039300238_f70fc865b1_o.jpg",
    "id_image": "Nebula_885416",
    "count_view": 0
  },
  {
    "link_thumb": "https://live.staticflickr.com/65535/50038882418_20d7831f9a_n.jpg",
    "id_album": "-1964113117",
    "description": "City_103373",
    "title": "City_103373",
    "link_img": "https://live.staticflickr.com/65535/50038882418_cabcfc696b_o.jpg",
    "id_image": "City_103373",
    "count_view": 0
  },
  {
    "link_thumb": "https://live.staticflickr.com/65535/50041679732_ab7c5cb28f_n.jpg",
    "id_album": "2020068132",
    "description": "Vehicle_874660",
    "title": "Vehicle_874660",
    "link_img": "https://live.staticflickr.com/65535/50041679732_900c5f1d91_o.jpg",
    "id_image": "Vehicle_874660",
    "count_view": 0
  },
  {
    "link_thumb": "https://live.staticflickr.com/65535/50039530621_199ccd41b0_n.jpg",
    "id_album": "-1964113117",
    "description": "City_976909",
    "title": "City_976909",
    "link_img": "https://live.staticflickr.com/65535/50039530621_5395835ac4_o.jpg",
    "id_image": "City_976909",
    "count_view": 0
  },
  {
    "link_thumb": "https://live.staticflickr.com/65535/50039457618_3eb4d1e348_n.jpg",
    "id_album": "1443611160",
    "description": "PlanetRise_472335",
    "title": "PlanetRise_472335",
    "link_img": "https://live.staticflickr.com/65535/50039457618_e1fdbeba91_o.jpg",
    "id_image": "PlanetRise_472335",
    "count_view": 0
  },
  {
    "link_thumb": "https://live.staticflickr.com/65535/50039805657_7815d4268e_n.jpg",
    "id_album": "894679094",
    "description": "Collision_78653",
    "title": "Collision_78653",
    "link_img": "https://live.staticflickr.com/65535/50039805657_733b6692b3_o.jpg",
    "id_image": "Collision_78653",
    "count_view": 0
  },
  {
    "link_thumb": "https://live.staticflickr.com/65535/50039749617_b57e1ddccf_n.jpg",
    "id_album": "-1964113117",
    "description": "City_681245",
    "title": "City_681245",
    "link_img": "https://live.staticflickr.com/65535/50039749617_536c1cede9_o.jpg",
    "id_image": "City_681245",
    "count_view": 0
  },
  {
    "link_thumb": "https://live.staticflickr.com/65535/50040190697_e1198dc976_n.jpg",
    "id_album": "395161030",
    "description": "Planet_316710",
    "title": "Planet_316710",
    "link_img": "https://live.staticflickr.com/65535/50040190697_6d64c2e9e1_o.jpg",
    "id_image": "Planet_316710",
    "count_view": 0
  },
  {
    "link_thumb": "https://live.staticflickr.com/65535/50038988118_a06088e567_n.jpg",
    "id_album": "894679094",
    "description": "Collision_154805",
    "title": "Collision_154805",
    "link_img": "https://live.staticflickr.com/65535/50038988118_57e508dec9_o.jpg",
    "id_image": "Collision_154805",
    "count_view": 0
  },
  {
    "link_thumb": "https://live.staticflickr.com/65535/50039477236_0189ea0b06_n.jpg",
    "id_album": "-1964113117",
    "description": "City_546961",
    "title": "City_546961",
    "link_img": "https://live.staticflickr.com/65535/50039477236_87559844fb_o.jpg",
    "id_image": "City_546961",
    "count_view": 0
  },
  {
    "link_thumb": "https://live.staticflickr.com/65535/50038809273_e0356d2078_n.jpg",
    "id_album": "869545341",
    "description": "Astronaut_556061",
    "title": "Astronaut_556061",
    "link_img": "https://live.staticflickr.com/65535/50038809273_a79f4f303f_o.jpg",
    "id_image": "Astronaut_556061",
    "count_view": 0
  },
  {
    "link_thumb": "https://live.staticflickr.com/65535/50040074587_a3cfdf7666_n.jpg",
    "id_album": "-1610342324",
    "description": "Nebula_560773",
    "title": "Nebula_560773",
    "link_img": "https://live.staticflickr.com/65535/50040074587_16e52794ba_o.jpg",
    "id_image": "Nebula_560773",
    "count_view": 0
  },
  {
    "link_thumb": "https://live.staticflickr.com/65535/50039438831_64ab853387_n.jpg",
    "id_album": "-1964113117",
    "description": "City_167027",
    "title": "City_167027",
    "link_img": "https://live.staticflickr.com/65535/50039438831_6aed274eb4_o.jpg",
    "id_image": "City_167027",
    "count_view": 0
  },
  {
    "link_thumb": "https://live.staticflickr.com/65535/50039524761_1144662c94_n.jpg",
    "id_album": "-1964113117",
    "description": "City_942082",
    "title": "City_942082",
    "link_img": "https://live.staticflickr.com/65535/50039524761_5660ed6f56_o.jpg",
    "id_image": "City_942082",
    "count_view": 0
  },
  {
    "link_thumb": "https://live.staticflickr.com/65535/50039722226_25e8615fe3_n.jpg",
    "id_album": "1402713104",
    "description": "Landscape_914396",
    "title": "Landscape_914396",
    "link_img": "https://live.staticflickr.com/65535/50039722226_7c26b070b9_o.jpg",
    "id_image": "Landscape_914396",
    "count_view": 0
  },
  {
    "link_thumb": "https://live.staticflickr.com/65535/50039029538_900c5caa3c_n.jpg",
    "id_album": "829169633",
    "description": "Cyborg_177109",
    "title": "Cyborg_177109",
    "link_img": "https://live.staticflickr.com/65535/50039029538_67cdaa4354_o.jpg",
    "id_image": "Cyborg_177109",
    "count_view": 0
  },
  {
    "link_thumb": "https://live.staticflickr.com/65535/50039582956_7a73624ffa_n.jpg",
    "id_album": "829169633",
    "description": "Cyborg_249599",
    "title": "Cyborg_249599",
    "link_img": "https://live.staticflickr.com/65535/50039582956_7857a52a2e_o.jpg",
    "id_image": "Cyborg_249599",
    "count_view": 0
  },
  {
    "link_thumb": "https://live.staticflickr.com/65535/50041531227_7ffaa8323e_n.jpg",
    "id_album": "-1587696329",
    "description": "Stars_428970",
    "title": "Stars_428970",
    "link_img": "https://live.staticflickr.com/65535/50041531227_83aa0206c5_o.jpg",
    "id_image": "Stars_428970",
    "count_view": 0
  },
  {
    "link_thumb": "https://live.staticflickr.com/65535/50039369868_1e6c3b2e35_n.jpg",
    "id_album": "395161030",
    "description": "Planet_206087",
    "title": "Planet_206087",
    "link_img": "https://live.staticflickr.com/65535/50039369868_2c81d7a794_o.jpg",
    "id_image": "Planet_206087",
    "count_view": 0
  },
  {
    "link_thumb": "https://live.staticflickr.com/65535/50040751692_7dae9f6ebb_n.jpg",
    "id_album": "1613540653",
    "description": "Space_286970",
    "title": "Space_286970",
    "link_img": "https://live.staticflickr.com/65535/50040751692_2520a66db9_o.jpg",
    "id_image": "Space_286970",
    "count_view": 0
  },
  {
    "link_thumb": "https://live.staticflickr.com/65535/50038755098_f258e06eea_n.jpg",
    "id_album": "523598895",
    "description": "Artistic_172002",
    "title": "Artistic_172002",
    "link_img": "https://live.staticflickr.com/65535/50038755098_36d69634e6_o.jpg",
    "id_image": "Artistic_172002",
    "count_view": 0
  },
  {
    "link_thumb": "https://live.staticflickr.com/65535/50039437311_e30a7eea65_n.jpg",
    "id_album": "-1964113117",
    "description": "City_156954",
    "title": "City_156954",
    "link_img": "https://live.staticflickr.com/65535/50039437311_e30cb41114_o.jpg",
    "id_image": "City_156954",
    "count_view": 0
  },
  {
    "link_thumb": "https://live.staticflickr.com/65535/50040164417_aa351d236f_n.jpg",
    "id_album": "395161030",
    "description": "Planet_10004",
    "title": "Planet_10004",
    "link_img": "https://live.staticflickr.com/65535/50040164417_37dae06533_o.jpg",
    "id_image": "Planet_10004",
    "count_view": 0
  },
  {
    "link_thumb": "https://live.staticflickr.com/65535/50040400336_b2ee02a45e_n.jpg",
    "id_album": "779690680",
    "description": "Robot_901648",
    "title": "Robot_901648",
    "link_img": "https://live.staticflickr.com/65535/50040400336_fa8c8215d2_o.jpg",
    "id_image": "Robot_901648",
    "count_view": 0
  },
  {
    "link_thumb": "https://live.staticflickr.com/65535/50041325101_ac8d31aedb_n.jpg",
    "id_album": "1267121215",
    "description": "Steampunk_655447",
    "title": "Steampunk_655447",
    "link_img": "https://live.staticflickr.com/65535/50041325101_fbe50a6bb3_o.jpg",
    "id_image": "Steampunk_655447",
    "count_view": 0
  },
  {
    "link_thumb": "https://live.staticflickr.com/65535/50039359331_e461c03691_n.jpg",
    "id_album": "869545341",
    "description": "Astronaut_588608",
    "title": "Astronaut_588608",
    "link_img": "https://live.staticflickr.com/65535/50039359331_d54715e632_o.jpg",
    "id_image": "Astronaut_588608",
    "count_view": 0
  },
  {
    "link_thumb": "https://live.staticflickr.com/65535/50040421202_502e2a0f1f_n.jpg",
    "id_album": "376235057",
    "description": "Planetscape_286984",
    "title": "Planetscape_286984",
    "link_img": "https://live.staticflickr.com/65535/50040421202_c8c09ae325_o.jpg",
    "id_image": "Planetscape_286984",
    "count_view": 0
  },
  {
    "link_thumb": "https://live.staticflickr.com/65535/50039568902_aff0566590_n.jpg",
    "id_album": "523598895",
    "description": "Artistic_184641",
    "title": "Artistic_184641",
    "link_img": "https://live.staticflickr.com/65535/50039568902_6b3dcbc222_o.jpg",
    "id_image": "Artistic_184641",
    "count_view": 0
  },
  {
    "link_thumb": "https://live.staticflickr.com/65535/50041178056_c865857b68_n.jpg",
    "id_album": "-1863373220",
    "description": "StarWars_411412",
    "title": "StarWars_411412",
    "link_img": "https://live.staticflickr.com/65535/50041178056_b87ac830e3_o.jpg",
    "id_image": "StarWars_411412",
    "count_view": 0
  },
  {
    "link_thumb": "https://live.staticflickr.com/65535/50040105851_112b620dd5_n.jpg",
    "id_album": "-1102314093",
    "description": "Planets_393960",
    "title": "Planets_393960",
    "link_img": "https://live.staticflickr.com/65535/50040105851_ba4bf4dd32_o.jpg",
    "id_image": "Planets_393960",
    "count_view": 0
  },
  {
    "link_thumb": "https://live.staticflickr.com/65535/50039541511_42bb6d4de9_n.jpg",
    "id_album": "894679094",
    "description": "Collision_432613",
    "title": "Collision_432613",
    "link_img": "https://live.staticflickr.com/65535/50039541511_0a843b6b6c_o.jpg",
    "id_image": "Collision_432613",
    "count_view": 0
  },
  {
    "link_thumb": "https://live.staticflickr.com/65535/50041419706_e036f0fdd1_n.jpg",
    "id_album": "2020068132",
    "description": "Vehicle_910953",
    "title": "Vehicle_910953",
    "link_img": "https://live.staticflickr.com/65535/50041419706_d4fe7156ab_o.jpg",
    "id_image": "Vehicle_910953",
    "count_view": 0
  },
  {
    "link_thumb": "https://live.staticflickr.com/65535/50039650742_3fbc2254e2_n.jpg",
    "id_album": "869545341",
    "description": "Astronaut_971255",
    "title": "Astronaut_971255",
    "link_img": "https://live.staticflickr.com/65535/50039650742_a4f551daed_o.jpg",
    "id_image": "Astronaut_971255",
    "count_view": 0
  },
  {
    "link_thumb": "https://live.staticflickr.com/65535/50040135701_46bafa5edd_n.jpg",
    "id_album": "-1102314093",
    "description": "Planets_786785",
    "title": "Planets_786785",
    "link_img": "https://live.staticflickr.com/65535/50040135701_442f527d34_o.jpg",
    "id_image": "Planets_786785",
    "count_view": 0
  },
  {
    "link_thumb": "https://live.staticflickr.com/65535/50039262271_12f17ee40f_n.jpg",
    "id_album": "849020728",
    "description": "Alien_393637",
    "title": "Alien_393637",
    "link_img": "https://live.staticflickr.com/65535/50039262271_698be4ef09_o.jpg",
    "id_image": "Alien_393637",
    "count_view": 0
  },
  {
    "link_thumb": "https://live.staticflickr.com/65535/50040251697_da51773fc8_n.jpg",
    "id_album": "395161030",
    "description": "Planet_957424",
    "title": "Planet_957424",
    "link_img": "https://live.staticflickr.com/65535/50040251697_62e109065f_o.jpg",
    "id_image": "Planet_957424",
    "count_view": 0
  },
  {
    "link_thumb": "https://live.staticflickr.com/65535/50039149598_f139013642_n.jpg",
    "id_album": "1402713104",
    "description": "Landscape_674916",
    "title": "Landscape_674916",
    "link_img": "https://live.staticflickr.com/65535/50039149598_118d728efa_o.jpg",
    "id_image": "Landscape_674916",
    "count_view": 0
  },
  {
    "link_thumb": "https://live.staticflickr.com/65535/50040151742_4d1a1b56b9_n.jpg",
    "id_album": "-1862561193",
    "description": "Other_298923",
    "title": "Other_298923",
    "link_img": "https://live.staticflickr.com/65535/50040151742_17952e0d0f_o.jpg",
    "id_image": "Other_298923",
    "count_view": 0
  },
  {
    "link_thumb": "https://live.staticflickr.com/65535/50039305461_62da245ab9_n.jpg",
    "id_album": "523598895",
    "description": "Artistic_179637",
    "title": "Artistic_179637",
    "link_img": "https://live.staticflickr.com/65535/50039305461_269aa6c6cd_o.jpg",
    "id_image": "Artistic_179637",
    "count_view": 0
  },
  {
    "link_thumb": "https://live.staticflickr.com/65535/50040857678_40f1dbcd8e_n.jpg",
    "id_album": "2020068132",
    "description": "Vehicle_685084",
    "title": "Vehicle_685084",
    "link_img": "https://live.staticflickr.com/65535/50040857678_3d0676e967_o.jpg",
    "id_image": "Vehicle_685084",
    "count_view": 0
  },
  {
    "link_thumb": "https://live.staticflickr.com/65535/50041026433_d3fee9b958_n.jpg",
    "id_album": "-1675918237",
    "description": "WomenWarrior_551721",
    "title": "WomenWarrior_551721",
    "link_img": "https://live.staticflickr.com/65535/50041026433_95ce8fb518_o.jpg",
    "id_image": "WomenWarrior_551721",
    "count_view": 0
  },
  {
    "link_thumb": "https://live.staticflickr.com/65535/50039884741_c0004ac8a9_n.jpg",
    "id_album": "-1862561193",
    "description": "Other_284563",
    "title": "Other_284563",
    "link_img": "https://live.staticflickr.com/65535/50039884741_0e9af12d73_o.jpg",
    "id_image": "Other_284563",
    "count_view": 0
  },
  {
    "link_thumb": "https://live.staticflickr.com/65535/50041586351_af1511a18c_n.jpg",
    "id_album": "-1675918237",
    "description": "WomenWarrior_688403",
    "title": "WomenWarrior_688403",
    "link_img": "https://live.staticflickr.com/65535/50041586351_d8c1208163_o.jpg",
    "id_image": "WomenWarrior_688403",
    "count_view": 0
  },
  {
    "link_thumb": "https://live.staticflickr.com/65535/50039916951_8f0a85979d_n.jpg",
    "id_album": "395161030",
    "description": "Planet_197459",
    "title": "Planet_197459",
    "link_img": "https://live.staticflickr.com/65535/50039916951_3ebe7cae92_o.jpg",
    "id_image": "Planet_197459",
    "count_view": 0
  },
  {
    "link_thumb": "https://live.staticflickr.com/65535/50040432426_738d331010_n.jpg",
    "id_album": "779690680",
    "description": "Robot_936221",
    "title": "Robot_936221",
    "link_img": "https://live.staticflickr.com/65535/50040432426_79b9c0838f_o.jpg",
    "id_image": "Robot_936221",
    "count_view": 0
  },
  {
    "link_thumb": "https://live.staticflickr.com/65535/50039682648_cc75c47ec5_n.jpg",
    "id_album": "-482547208",
    "description": "PostApocalyptic_965907",
    "title": "PostApocalyptic_965907",
    "link_img": "https://live.staticflickr.com/65535/50039682648_2cc5250955_o.jpg",
    "id_image": "PostApocalyptic_965907",
    "count_view": 0
  },
  {
    "link_thumb": "https://live.staticflickr.com/65535/50039464151_dfd718a764_n.jpg",
    "id_album": "-1964113117",
    "description": "City_335854",
    "title": "City_335854",
    "link_img": "https://live.staticflickr.com/65535/50039464151_bef6eaca92_o.jpg",
    "id_image": "City_335854",
    "count_view": 0
  },
  {
    "link_thumb": "https://live.staticflickr.com/65535/50040908828_cd1e67c9c6_n.jpg",
    "id_album": "-1261420436",
    "description": "Warrior_476174",
    "title": "Warrior_476174",
    "link_img": "https://live.staticflickr.com/65535/50040908828_5016715080_o.jpg",
    "id_image": "Warrior_476174",
    "count_view": 0
  },
  {
    "link_thumb": "https://live.staticflickr.com/65535/50040627921_3fb1a8f06a_n.jpg",
    "id_album": "2130067313",
    "description": "Spaceship_286820",
    "title": "Spaceship_286820",
    "link_img": "https://live.staticflickr.com/65535/50040627921_9d86198483_o.jpg",
    "id_image": "Spaceship_286820",
    "count_view": 0
  },
  {
    "link_thumb": "https://live.staticflickr.com/65535/50039646727_eb784f45c0_n.jpg",
    "id_album": "869545341",
    "description": "Astronaut_957344",
    "title": "Astronaut_957344",
    "link_img": "https://live.staticflickr.com/65535/50039646727_27bce795c8_o.jpg",
    "id_image": "Astronaut_957344",
    "count_view": 0
  },
  {
    "link_thumb": "https://live.staticflickr.com/65535/50039439581_3d087a216d_n.jpg",
    "id_album": "-1964113117",
    "description": "City_174082",
    "title": "City_174082",
    "link_img": "https://live.staticflickr.com/65535/50039439581_438403b07e_o.jpg",
    "id_image": "City_174082",
    "count_view": 0
  },
  {
    "link_thumb": "https://live.staticflickr.com/65535/50040083572_5bb28b9efb_n.jpg",
    "id_album": "-1610342324",
    "description": "Nebula_676673",
    "title": "Nebula_676673",
    "link_img": "https://live.staticflickr.com/65535/50040083572_0690b19d5e_o.jpg",
    "id_image": "Nebula_676673",
    "count_view": 0
  },
  {
    "link_thumb": "https://live.staticflickr.com/65535/50039433606_3316558ca6_n.jpg",
    "id_album": "-1964113117",
    "description": "City_118677",
    "title": "City_118677",
    "link_img": "https://live.staticflickr.com/65535/50039433606_dbe69aeddb_o.jpg",
    "id_image": "City_118677",
    "count_view": 0
  },
  {
    "link_thumb": "https://live.staticflickr.com/65535/50039601642_21da17e7b6_n.jpg",
    "id_album": "523598895",
    "description": "Artistic_593706",
    "title": "Artistic_593706",
    "link_img": "https://live.staticflickr.com/65535/50039601642_263c81dc07_o.jpg",
    "id_image": "Artistic_593706",
    "count_view": 0
  },
  {
    "link_thumb": "https://live.staticflickr.com/65535/50040697167_74f69abd9b_n.jpg",
    "id_album": "779690680",
    "description": "Robot_936223",
    "title": "Robot_936223",
    "link_img": "https://live.staticflickr.com/65535/50040697167_cff9239b38_o.jpg",
    "id_image": "Robot_936223",
    "count_view": 0
  },
  {
    "link_thumb": "https://live.staticflickr.com/65535/50039643306_aaa0eccb64_n.jpg",
    "id_album": "1204249541",
    "description": "Galaxy_559143",
    "title": "Galaxy_559143",
    "link_img": "https://live.staticflickr.com/65535/50039643306_54fc035ac9_o.jpg",
    "id_image": "Galaxy_559143",
    "count_view": 0
  },
  {
    "link_thumb": "https://live.staticflickr.com/65535/50040071761_18ba6b7b64_n.jpg",
    "id_album": "-1102314093",
    "description": "Planets_279990",
    "title": "Planets_279990",
    "link_img": "https://live.staticflickr.com/65535/50040071761_ffa6000769_o.jpg",
    "id_image": "Planets_279990",
    "count_view": 0
  },
  {
    "link_thumb": "https://live.staticflickr.com/65535/50039853432_bb2969ab30_n.jpg",
    "id_album": "829169633",
    "description": "Cyborg_488050",
    "title": "Cyborg_488050",
    "link_img": "https://live.staticflickr.com/65535/50039853432_311cc64368_o.jpg",
    "id_image": "Cyborg_488050",
    "count_view": 0
  },
  {
    "link_thumb": "https://live.staticflickr.com/65535/50040034217_f533d1d8c9_n.jpg",
    "id_album": "-1610342324",
    "description": "Nebula_214571",
    "title": "Nebula_214571",
    "link_img": "https://live.staticflickr.com/65535/50040034217_d24bc33c3e_o.jpg",
    "id_image": "Nebula_214571",
    "count_view": 0
  },
  {
    "link_thumb": "https://live.staticflickr.com/65535/50039297403_09908ac0b0_n.jpg",
    "id_album": "-1610342324",
    "description": "Nebula_871901",
    "title": "Nebula_871901",
    "link_img": "https://live.staticflickr.com/65535/50039297403_01cae7f73a_o.jpg",
    "id_image": "Nebula_871901",
    "count_view": 0
  },
  {
    "link_thumb": "https://live.staticflickr.com/65535/50038716488_df6335a28c_n.jpg",
    "id_album": "849020728",
    "description": "Alien_410857",
    "title": "Alien_410857",
    "link_img": "https://live.staticflickr.com/65535/50038716488_75988dcf3f_o.jpg",
    "id_image": "Alien_410857",
    "count_view": 0
  },
  {
    "link_thumb": "https://live.staticflickr.com/65535/50041415182_bfc9efac1f_n.jpg",
    "id_album": "-1863373220",
    "description": "StarWars_238888",
    "title": "StarWars_238888",
    "link_img": "https://live.staticflickr.com/65535/50041415182_47061c5cc8_o.jpg",
    "id_image": "StarWars_238888",
    "count_view": 0
  },
  {
    "link_thumb": "https://live.staticflickr.com/65535/50039520951_a3c4536b62_n.jpg",
    "id_album": "-1964113117",
    "description": "City_918482",
    "title": "City_918482",
    "link_img": "https://live.staticflickr.com/65535/50039520951_40ceecabab_o.jpg",
    "id_image": "City_918482",
    "count_view": 0
  },
  {
    "link_thumb": "https://live.staticflickr.com/65535/50040848632_57937af14f_n.jpg",
    "id_album": "2130067313",
    "description": "Spaceship_169701",
    "title": "Spaceship_169701",
    "link_img": "https://live.staticflickr.com/65535/50040848632_ab79790e0f_o.jpg",
    "id_image": "Spaceship_169701",
    "count_view": 0
  },
  {
    "link_thumb": "https://live.staticflickr.com/65535/50039311076_81dcf73a3d_n.jpg",
    "id_album": "523598895",
    "description": "Artistic_200406",
    "title": "Artistic_200406",
    "link_img": "https://live.staticflickr.com/65535/50039311076_52dd21e194_o.jpg",
    "id_image": "Artistic_200406",
    "count_view": 0
  },
  {
    "link_thumb": "https://live.staticflickr.com/65535/50039633796_af539bcf27_n.jpg",
    "id_album": "1204249541",
    "description": "Galaxy_427241",
    "title": "Galaxy_427241",
    "link_img": "https://live.staticflickr.com/65535/50039633796_8ace2040d6_o.jpg",
    "id_image": "Galaxy_427241",
    "count_view": 0
  },
  {
    "link_thumb": "https://live.staticflickr.com/65535/50039253493_ee4134c08c_n.jpg",
    "id_album": "-1610342324",
    "description": "Nebula_507384",
    "title": "Nebula_507384",
    "link_img": "https://live.staticflickr.com/65535/50039253493_aa6fc09bc0_o.jpg",
    "id_image": "Nebula_507384",
    "count_view": 0
  },
  {
    "link_thumb": "https://live.staticflickr.com/65535/50038826893_3b48e23432_n.jpg",
    "id_album": "869545341",
    "description": "Astronaut_865987",
    "title": "Astronaut_865987",
    "link_img": "https://live.staticflickr.com/65535/50038826893_a7bc4c89c8_o.jpg",
    "id_image": "Astronaut_865987",
    "count_view": 0
  },
  {
    "link_thumb": "https://live.staticflickr.com/65535/50040185647_e42b8c1f6a_n.jpg",
    "id_album": "395161030",
    "description": "Planet_275966",
    "title": "Planet_275966",
    "link_img": "https://live.staticflickr.com/65535/50040185647_156bedb0f6_o.jpg",
    "id_image": "Planet_275966",
    "count_view": 0
  },
  {
    "link_thumb": "https://live.staticflickr.com/65535/50041360771_2fcd110c6c_n.jpg",
    "id_album": "-1177476763",
    "description": "Sunrise_328902",
    "title": "Sunrise_328902",
    "link_img": "https://live.staticflickr.com/65535/50041360771_ab27eb2004_o.jpg",
    "id_image": "Sunrise_328902",
    "count_view": 0
  },
  {
    "link_thumb": "https://live.staticflickr.com/65535/50039077518_0e2b344c2e_n.jpg",
    "id_album": "1204249541",
    "description": "Galaxy_220712",
    "title": "Galaxy_220712",
    "link_img": "https://live.staticflickr.com/65535/50039077518_5db786c315_o.jpg",
    "id_image": "Galaxy_220712",
    "count_view": 0
  },
  {
    "link_thumb": "https://live.staticflickr.com/65535/50039357901_10896687e9_n.jpg",
    "id_album": "869545341",
    "description": "Astronaut_565690",
    "title": "Astronaut_565690",
    "link_img": "https://live.staticflickr.com/65535/50039357901_1d4d8bf517_o.jpg",
    "id_image": "Astronaut_565690",
    "count_view": 0
  },
  {
    "link_thumb": "https://live.staticflickr.com/65535/50039892497_667b10148b_n.jpg",
    "id_album": "1204249541",
    "description": "Galaxy_286847",
    "title": "Galaxy_286847",
    "link_img": "https://live.staticflickr.com/65535/50039892497_82c94ce85a_o.jpg",
    "id_image": "Galaxy_286847",
    "count_view": 0
  },
  {
    "link_thumb": "https://live.staticflickr.com/65535/50038808373_30247e35a9_n.jpg",
    "id_album": "869545341",
    "description": "Astronaut_533958",
    "title": "Astronaut_533958",
    "link_img": "https://live.staticflickr.com/65535/50038808373_719828bfc0_o.jpg",
    "id_image": "Astronaut_533958",
    "count_view": 0
  },
  {
    "link_thumb": "https://live.staticflickr.com/65535/50041249811_ece1da76fd_n.jpg",
    "id_album": "-1863373220",
    "description": "StarWars_980541",
    "title": "StarWars_980541",
    "link_img": "https://live.staticflickr.com/65535/50041249811_1501f8f87d_o.jpg",
    "id_image": "StarWars_980541",
    "count_view": 0
  },
  {
    "link_thumb": "https://live.staticflickr.com/65535/50039872113_142d9e857d_n.jpg",
    "id_album": "779690680",
    "description": "Robot_928645",
    "title": "Robot_928645",
    "link_img": "https://live.staticflickr.com/65535/50039872113_3fc60675f3_o.jpg",
    "id_image": "Robot_928645",
    "count_view": 0
  },
  {
    "link_thumb": "https://live.staticflickr.com/65535/50041521887_87b3a99770_n.jpg",
    "id_album": "-1587696329",
    "description": "Stars_192660",
    "title": "Stars_192660",
    "link_img": "https://live.staticflickr.com/65535/50041521887_92274e4066_o.jpg",
    "id_image": "Stars_192660",
    "count_view": 0
  },
  {
    "link_thumb": "https://live.staticflickr.com/65535/50038679778_a54e0b8386_n.jpg",
    "id_album": "280884763",
    "description": "Abstract_129854",
    "title": "Abstract_129854",
    "link_img": "https://live.staticflickr.com/65535/50038679778_05b9b30949_o.jpg",
    "id_image": "Abstract_129854",
    "count_view": 0
  },
  {
    "link_thumb": "https://live.staticflickr.com/65535/50041357191_9a4ab5fc53_n.jpg",
    "id_album": "-1177476763",
    "description": "Sunrise_121799",
    "title": "Sunrise_121799",
    "link_img": "https://live.staticflickr.com/65535/50041357191_e198a55752_o.jpg",
    "id_image": "Sunrise_121799",
    "count_view": 0
  },
  {
    "link_thumb": "https://live.staticflickr.com/65535/50039350968_95fbe45329_n.jpg",
    "id_album": "395161030",
    "description": "Planet_1003035",
    "title": "Planet_1003035",
    "link_img": "https://live.staticflickr.com/65535/50039350968_064a32d958_o.jpg",
    "id_image": "Planet_1003035",
    "count_view": 0
  },
  {
    "link_thumb": "https://live.staticflickr.com/65535/50041422771_1b607aaf7a_n.jpg",
    "id_album": "2020068132",
    "description": "Vehicle_955936",
    "title": "Vehicle_955936",
    "link_img": "https://live.staticflickr.com/65535/50041422771_389dd09114_o.jpg",
    "id_image": "Vehicle_955936",
    "count_view": 0
  },
  {
    "link_thumb": "https://live.staticflickr.com/65535/50039689167_53645053d3_n.jpg",
    "id_album": "406431601",
    "description": "Building_912993",
    "title": "Building_912993",
    "link_img": "https://live.staticflickr.com/65535/50039689167_81c882ab1c_o.jpg",
    "id_image": "Building_912993",
    "count_view": 0
  },
  {
    "link_thumb": "https://live.staticflickr.com/65535/50039506092_c7b914b2fb_n.jpg",
    "id_album": "849020728",
    "description": "Alien_108487",
    "title": "Alien_108487",
    "link_img": "https://live.staticflickr.com/65535/50039506092_f775b6838e_o.jpg",
    "id_image": "Alien_108487",
    "count_view": 0
  },
  {
    "link_thumb": "https://live.staticflickr.com/65535/50038802873_6369bc2cc4_n.jpg",
    "id_album": "869545341",
    "description": "Astronaut_232224",
    "title": "Astronaut_232224",
    "link_img": "https://live.staticflickr.com/65535/50038802873_3c6c36f885_o.jpg",
    "id_image": "Astronaut_232224",
    "count_view": 0
  },
  {
    "link_thumb": "https://live.staticflickr.com/65535/50039613841_1092ac979d_n.jpg",
    "id_album": "651930207",
    "description": "Explosion_995433",
    "title": "Explosion_995433",
    "link_img": "https://live.staticflickr.com/65535/50039613841_f23ea79c1c_o.jpg",
    "id_image": "Explosion_995433",
    "count_view": 0
  },
  {
    "link_thumb": "https://live.staticflickr.com/65535/50040461891_8914547976_n.jpg",
    "id_album": "1613540653",
    "description": "Space_104944",
    "title": "Space_104944",
    "link_img": "https://live.staticflickr.com/65535/50040461891_1c5a6ca559_o.jpg",
    "id_image": "Space_104944",
    "count_view": 0
  },
  {
    "link_thumb": "https://live.staticflickr.com/65535/50039773401_a78d8b2db0_n.jpg",
    "id_album": "-1610342324",
    "description": "Nebula_225904",
    "title": "Nebula_225904",
    "link_img": "https://live.staticflickr.com/65535/50039773401_f76bef9e82_o.jpg",
    "id_image": "Nebula_225904",
    "count_view": 0
  },
  {
    "link_thumb": "https://live.staticflickr.com/65535/50040177022_e3a26f05cf_n.jpg",
    "id_album": "395161030",
    "description": "Planet_184291",
    "title": "Planet_184291",
    "link_img": "https://live.staticflickr.com/65535/50040177022_ab47a21fae_o.jpg",
    "id_image": "Planet_184291",
    "count_view": 0
  },
  {
    "link_thumb": "https://live.staticflickr.com/65535/50040008126_0e7dcf468e_n.jpg",
    "id_album": "1443611160",
    "description": "PlanetRise_444817",
    "title": "PlanetRise_444817",
    "link_img": "https://live.staticflickr.com/65535/50040008126_56364d3643_o.jpg",
    "id_image": "PlanetRise_444817",
    "count_view": 0
  },
  {
    "link_thumb": "https://live.staticflickr.com/65535/50039747461_1208242de3_n.jpg",
    "id_album": "-1388385651",
    "description": "MilkyWay_794921",
    "title": "MilkyWay_794921",
    "link_img": "https://live.staticflickr.com/65535/50039747461_320a1aeeae_o.jpg",
    "id_image": "MilkyWay_794921",
    "count_view": 0
  },
  {
    "link_thumb": "https://live.staticflickr.com/65535/50040896073_cf7a0c860c_n.jpg",
    "id_album": "-1261420436",
    "description": "Warrior_336315",
    "title": "Warrior_336315",
    "link_img": "https://live.staticflickr.com/65535/50040896073_1dd2690d12_o.jpg",
    "id_image": "Warrior_336315",
    "count_view": 0
  },
  {
    "link_thumb": "https://live.staticflickr.com/65535/50040749421_e6e1063271_n.jpg",
    "id_album": "2130067313",
    "description": "Spaceship_79157",
    "title": "Spaceship_79157",
    "link_img": "https://live.staticflickr.com/65535/50040749421_74631aabd4_o.jpg",
    "id_image": "Spaceship_79157",
    "count_view": 0
  },
  {
    "link_thumb": "https://live.staticflickr.com/65535/50039521637_61d851d851_n.jpg",
    "id_album": "849020728",
    "description": "Alien_304601",
    "title": "Alien_304601",
    "link_img": "https://live.staticflickr.com/65535/50039521637_8d07e84d2c_o.jpg",
    "id_image": "Alien_304601",
    "count_view": 0
  },
  {
    "link_thumb": "https://live.staticflickr.com/65535/50041465211_c438715155_n.jpg",
    "id_album": "-1261420436",
    "description": "Warrior_500636",
    "title": "Warrior_500636",
    "link_img": "https://live.staticflickr.com/65535/50041465211_33c271bb29_o.jpg",
    "id_image": "Warrior_500636",
    "count_view": 0
  },
  {
    "link_thumb": "https://live.staticflickr.com/65535/50039029418_9bbdbd50da_n.jpg",
    "id_album": "829169633",
    "description": "Cyborg_176741",
    "title": "Cyborg_176741",
    "link_img": "https://live.staticflickr.com/65535/50039029418_19d35a5942_o.jpg",
    "id_image": "Cyborg_176741",
    "count_view": 0
  },
  {
    "link_thumb": "https://live.staticflickr.com/65535/50040418751_8b8ee7c638_n.jpg",
    "id_album": "779690680",
    "description": "Robot_922858",
    "title": "Robot_922858",
    "link_img": "https://live.staticflickr.com/65535/50040418751_8166db540e_o.jpg",
    "id_image": "Robot_922858",
    "count_view": 0
  },
  {
    "link_thumb": "https://live.staticflickr.com/65535/50039989598_b42d60fb95_n.jpg",
    "id_album": "1613540653",
    "description": "Space_822480",
    "title": "Space_822480",
    "link_img": "https://live.staticflickr.com/65535/50039989598_81164bc11d_o.jpg",
    "id_image": "Space_822480",
    "count_view": 0
  },
  {
    "link_thumb": "https://live.staticflickr.com/65535/50038879108_e64374f038_n.jpg",
    "id_album": "406431601",
    "description": "Building_949123",
    "title": "Building_949123",
    "link_img": "https://live.staticflickr.com/65535/50038879108_b4fc21ce14_o.jpg",
    "id_image": "Building_949123",
    "count_view": 0
  },
  {
    "link_thumb": "https://live.staticflickr.com/65535/50039073328_d162f464ec_n.jpg",
    "id_album": "2104507156",
    "description": "Fantasy_855866",
    "title": "Fantasy_855866",
    "link_img": "https://live.staticflickr.com/65535/50039073328_3376e3563b_o.jpg",
    "id_image": "Fantasy_855866",
    "count_view": 0
  },
  {
    "link_thumb": "https://live.staticflickr.com/65535/50039912581_f075d0094c_n.jpg",
    "id_album": "395161030",
    "description": "Planet_183988",
    "title": "Planet_183988",
    "link_img": "https://live.staticflickr.com/65535/50039912581_2f7f43f535_o.jpg",
    "id_image": "Planet_183988",
    "count_view": 0
  },
  {
    "link_thumb": "https://live.staticflickr.com/65535/50040158888_72c50e0fe5_n.jpg",
    "id_album": "2130067313",
    "description": "Spaceship_546334",
    "title": "Spaceship_546334",
    "link_img": "https://live.staticflickr.com/65535/50040158888_91798d82ca_o.jpg",
    "id_image": "Spaceship_546334",
    "count_view": 0
  },
  {
    "link_thumb": "https://live.staticflickr.com/65535/50040737621_3990a6ea79_n.jpg",
    "id_album": "2130067313",
    "description": "Spaceship_683494",
    "title": "Spaceship_683494",
    "link_img": "https://live.staticflickr.com/65535/50040737621_3c0b3a9108_o.jpg",
    "id_image": "Spaceship_683494",
    "count_view": 0
  },
  {
    "link_thumb": "https://live.staticflickr.com/65535/50039838066_a6c399ae5a_n.jpg",
    "id_album": "-1610342324",
    "description": "Nebula_795901",
    "title": "Nebula_795901",
    "link_img": "https://live.staticflickr.com/65535/50039838066_9e21328a3e_o.jpg",
    "id_image": "Nebula_795901",
    "count_view": 0
  },
  {
    "link_thumb": "https://live.staticflickr.com/65535/50040327112_6a7678301a_n.jpg",
    "id_album": "-1102314093",
    "description": "Planets_237553",
    "title": "Planets_237553",
    "link_img": "https://live.staticflickr.com/65535/50040327112_697a3a18a1_o.jpg",
    "id_image": "Planets_237553",
    "count_view": 0
  },
  {
    "link_thumb": "https://live.staticflickr.com/65535/50038924648_b2d243f09c_n.jpg",
    "id_album": "-1964113117",
    "description": "City_492503",
    "title": "City_492503",
    "link_img": "https://live.staticflickr.com/65535/50038924648_ef3067f492_o.jpg",
    "id_image": "City_492503",
    "count_view": 0
  },
  {
    "link_thumb": "https://live.staticflickr.com/65535/50038873573_8708fde1eb_n.jpg",
    "id_album": "406431601",
    "description": "Building_591891",
    "title": "Building_591891",
    "link_img": "https://live.staticflickr.com/65535/50038873573_8c13991aa6_o.jpg",
    "id_image": "Building_591891",
    "count_view": 0
  },
  {
    "link_thumb": "https://live.staticflickr.com/65535/50039414756_f0fcc16be6_n.jpg",
    "id_album": "-1780971522",
    "description": "Biohazard_484912",
    "title": "Biohazard_484912",
    "link_img": "https://live.staticflickr.com/65535/50039414756_ba99d5da45_o.jpg",
    "id_image": "Biohazard_484912",
    "count_view": 0
  },
  {
    "link_thumb": "https://live.staticflickr.com/65535/50039623806_9698f6cbba_n.jpg",
    "id_album": "1204249541",
    "description": "Galaxy_1010664",
    "title": "Galaxy_1010664",
    "link_img": "https://live.staticflickr.com/65535/50039623806_094c4445af_o.jpg",
    "id_image": "Galaxy_1010664",
    "count_view": 0
  },
  {
    "link_thumb": "https://live.staticflickr.com/65535/50041450807_85d70ee999_n.jpg",
    "id_album": "-1863373220",
    "description": "StarWars_497639",
    "title": "StarWars_497639",
    "link_img": "https://live.staticflickr.com/65535/50041450807_53b0d23841_o.jpg",
    "id_image": "StarWars_497639",
    "count_view": 0
  },
  {
    "link_thumb": "https://live.staticflickr.com/65535/50040024472_9b06c7544c_n.jpg",
    "id_album": "-1610342324",
    "description": "Nebula_104078",
    "title": "Nebula_104078",
    "link_img": "https://live.staticflickr.com/65535/50040024472_89cc183962_o.jpg",
    "id_image": "Nebula_104078",
    "count_view": 0
  },
  {
    "link_thumb": "https://live.staticflickr.com/65535/50040249351_3aa004b344_n.jpg",
    "id_album": "779690680",
    "description": "Robot_1010374",
    "title": "Robot_1010374",
    "link_img": "https://live.staticflickr.com/65535/50040249351_b3fea3e23b_o.jpg",
    "id_image": "Robot_1010374",
    "count_view": 0
  },
  {
    "link_thumb": "https://live.staticflickr.com/65535/50041510007_2a12a9b0b5_n.jpg",
    "id_album": "-1863373220",
    "description": "StarWars_976101",
    "title": "StarWars_976101",
    "link_img": "https://live.staticflickr.com/65535/50041510007_6b9d3f7e05_o.jpg",
    "id_image": "StarWars_976101",
    "count_view": 0
  },
  {
    "link_thumb": "https://live.staticflickr.com/65535/50039299641_a11c6b6e40_n.jpg",
    "id_album": "523598895",
    "description": "Artistic_162949",
    "title": "Artistic_162949",
    "link_img": "https://live.staticflickr.com/65535/50039299641_265e6ce5b5_o.jpg",
    "id_image": "Artistic_162949",
    "count_view": 0
  }
]