[
  {
    "link_thumb": "https://live.staticflickr.com/65535/50039858683_8d3dc5fe65_n.jpg",
    "id_album": "779690680",
    "description": "Robot_915571",
    "title": "Robot_915571",
    "link_img": "https://live.staticflickr.com/65535/50039858683_5e470e33f9_o.jpg",
    "id_image": "Robot_915571",
    "count_view": 0
  },
  {
    "link_thumb": "https://live.staticflickr.com/65535/50040796597_0a71136d1a_n.jpg",
    "id_album": "1613540653",
    "description": "Space_704756",
    "title": "Space_704756",
    "link_img": "https://live.staticflickr.com/65535/50040796597_0c10b9cec4_o.jpg",
    "id_image": "Space_704756",
    "count_view": 0
  },
  {
    "link_thumb": "https://live.staticflickr.com/65535/50041047902_090005729d_n.jpg",
    "id_album": "2130067313",
    "description": "Spaceship_992543",
    "title": "Spaceship_992543",
    "link_img": "https://live.staticflickr.com/65535/50041047902_0f27dee4b9_o.jpg",
    "id_image": "Spaceship_992543",
    "count_view": 0
  },
  {
    "link_thumb": "https://live.staticflickr.com/65535/50038855628_7aeda00024_n.jpg",
    "id_album": "1187037014",
    "description": "Battle_585062",
    "title": "Battle_585062",
    "link_img": "https://live.staticflickr.com/65535/50038855628_7d071cc005_o.jpg",
    "id_image": "Battle_585062",
    "count_view": 0
  },
  {
    "link_thumb": "https://live.staticflickr.com/65535/50041084011_d7ebf6b9ed_n.jpg",
    "id_album": "-1863373220",
    "description": "StarWars_107451",
    "title": "StarWars_107451",
    "link_img": "https://live.staticflickr.com/65535/50041084011_ce6e853565_o.jpg",
    "id_image": "StarWars_107451",
    "count_view": 0
  },
  {
    "link_thumb": "https://live.staticflickr.com/65535/50038963063_308171d183_n.jpg",
    "id_album": "-1964113117",
    "description": "City_878302",
    "title": "City_878302",
    "link_img": "https://live.staticflickr.com/65535/50038963063_9f00e507d5_o.jpg",
    "id_image": "City_878302",
    "count_view": 0
  },
  {
    "link_thumb": "https://live.staticflickr.com/65535/50039472801_77208730d2_n.jpg",
    "id_album": "-1964113117",
    "description": "City_489400",
    "title": "City_489400",
    "link_img": "https://live.staticflickr.com/65535/50039472801_1695aa1174_o.jpg",
    "id_image": "City_489400",
    "count_view": 0
  },
  {
    "link_thumb": "https://live.staticflickr.com/65535/50038922903_e8d70eed64_n.jpg",
    "id_album": "-1964113117",
    "description": "City_438318",
    "title": "City_438318",
    "link_img": "https://live.staticflickr.com/65535/50038922903_82bf5c9114_o.jpg",
    "id_image": "City_438318",
    "count_view": 0
  },
  {
    "link_thumb": "https://live.staticflickr.com/65535/50040241347_45d2abb4c8_n.jpg",
    "id_album": "395161030",
    "description": "Planet_80642",
    "title": "Planet_80642",
    "link_img": "https://live.staticflickr.com/65535/50040241347_54eb22809a_o.jpg",
    "id_image": "Planet_80642",
    "count_view": 0
  },
  {
    "link_thumb": "https://live.staticflickr.com/65535/50040353661_7a7b63d4a3_n.jpg",
    "id_album": "779690680",
    "description": "Robot_658830",
    "title": "Robot_658830",
    "link_img": "https://live.staticflickr.com/65535/50040353661_c603f441f9_o.jpg",
    "id_image": "Robot_658830",
    "count_view": 0
  },
  {
    "link_thumb": "https://live.staticflickr.com/65535/50040784703_626a6fa13a_n.jpg",
    "id_album": "-221671103",
    "description": "Sun_180015",
    "title": "Sun_180015",
    "link_img": "https://live.staticflickr.com/65535/50040784703_8e9cbf30ec_o.jpg",
    "id_image": "Sun_180015",
    "count_view": 0
  },
  {
    "link_thumb": "https://live.staticflickr.com/65535/50041628902_4dd72702a4_n.jpg",
    "id_album": "-1177476763",
    "description": "Sunrise_453077",
    "title": "Sunrise_453077",
    "link_img": "https://live.staticflickr.com/65535/50041628902_5b0b2dcca9_o.jpg",
    "id_image": "Sunrise_453077",
    "count_view": 0
  },
  {
    "link_thumb": "https://live.staticflickr.com/65535/50039904621_9fb06c528e_n.jpg",
    "id_album": "395161030",
    "description": "Planet_118587",
    "title": "Planet_118587",
    "link_img": "https://live.staticflickr.com/65535/50039904621_993dfa1bb6_o.jpg",
    "id_image": "Planet_118587",
    "count_view": 0
  },
  {
    "link_thumb": "https://live.staticflickr.com/65535/50040837413_60604b9b14_n.jpg",
    "id_album": "2020068132",
    "description": "Vehicle_342933",
    "title": "Vehicle_342933",
    "link_img": "https://live.staticflickr.com/65535/50040837413_496c40a0ea_o.jpg",
    "id_image": "Vehicle_342933",
    "count_view": 0
  },
  {
    "link_thumb": "https://live.staticflickr.com/65535/50039499422_fda9ab72e5_n.jpg",
    "id_album": "-406145265",
    "description": "Aircraft_331628",
    "title": "Aircraft_331628",
    "link_img": "https://live.staticflickr.com/65535/50039499422_52c23724be_o.jpg",
    "id_image": "Aircraft_331628",
    "count_view": 0
  },
  {
    "link_thumb": "https://live.staticflickr.com/65535/50040980383_8de78b008a_n.jpg",
    "id_album": "-1126835654",
    "description": "Women_514681",
    "title": "Women_514681",
    "link_img": "https://live.staticflickr.com/65535/50040980383_1b6d578a3a_o.jpg",
    "id_image": "Women_514681",
    "count_view": 0
  },
  {
    "link_thumb": "https://live.staticflickr.com/65535/50039752996_0fbee80138_n.jpg",
    "id_album": "416351698",
    "description": "Moon_113990",
    "title": "Moon_113990",
    "link_img": "https://live.staticflickr.com/65535/50039752996_424e0dfc11_o.jpg",
    "id_image": "Moon_113990",
    "count_view": 0
  },
  {
    "link_thumb": "https://live.staticflickr.com/65535/50038930958_0d396f7342_n.jpg",
    "id_album": "-1964113117",
    "description": "City_569779",
    "title": "City_569779",
    "link_img": "https://live.staticflickr.com/65535/50038930958_10de40a189_o.jpg",
    "id_image": "City_569779",
    "count_view": 0
  },
  {
    "link_thumb": "https://live.staticflickr.com/65535/50039908518_83af7ff6da_n.jpg",
    "id_album": "1613540653",
    "description": "Space_110332",
    "title": "Space_110332",
    "link_img": "https://live.staticflickr.com/65535/50039908518_45e9e28a8a_o.jpg",
    "id_image": "Space_110332",
    "count_view": 0
  },
  {
    "link_thumb": "https://live.staticflickr.com/65535/50039891422_3084d764d6_n.jpg",
    "id_album": "1204249541",
    "description": "Galaxy_264726",
    "title": "Galaxy_264726",
    "link_img": "https://live.staticflickr.com/65535/50039891422_649b75c755_o.jpg",
    "id_image": "Galaxy_264726",
    "count_view": 0
  },
  {
    "link_thumb": "https://live.staticflickr.com/65535/50040752877_a32626a2d9_n.jpg",
    "id_album": "1613540653",
    "description": "Space_287043",
    "title": "Space_287043",
    "link_img": "https://live.staticflickr.com/65535/50040752877_7cc0bb4da7_o.jpg",
    "id_image": "Space_287043",
    "count_view": 0
  },
  {
    "link_thumb": "https://live.staticflickr.com/65535/50040304771_13ce5a9e28_n.jpg",
    "id_album": "779690680",
    "description": "Robot_410859",
    "title": "Robot_410859",
    "link_img": "https://live.staticflickr.com/65535/50040304771_1ec80173cb_o.jpg",
    "id_image": "Robot_410859",
    "count_view": 0
  },
  {
    "link_thumb": "https://live.staticflickr.com/65535/50038682378_9341bd8c3a_n.jpg",
    "id_album": "280884763",
    "description": "Abstract_291819",
    "title": "Abstract_291819",
    "link_img": "https://live.staticflickr.com/65535/50038682378_a6406243bd_o.jpg",
    "id_image": "Abstract_291819",
    "count_view": 0
  },
  {
    "link_thumb": "https://live.staticflickr.com/65535/50039505058_e4761ae2fc_n.jpg",
    "id_album": "-1102314093",
    "description": "Planets_198719",
    "title": "Planets_198719",
    "link_img": "https://live.staticflickr.com/65535/50039505058_853f6cebda_o.jpg",
    "id_image": "Planets_198719",
    "count_view": 0
  },
  {
    "link_thumb": "https://live.staticflickr.com/65535/50041241001_5ed015b372_n.jpg",
    "id_album": "-1863373220",
    "description": "StarWars_914147",
    "title": "StarWars_914147",
    "link_img": "https://live.staticflickr.com/65535/50041241001_53c20cd84a_o.jpg",
    "id_image": "StarWars_914147",
    "count_view": 0
  },
  {
    "link_thumb": "https://live.staticflickr.com/65535/50038808458_81bb64571e_n.jpg",
    "id_album": "869545341",
    "description": "Astronaut_534555",
    "title": "Astronaut_534555",
    "link_img": "https://live.staticflickr.com/65535/50038808458_01433161c0_o.jpg",
    "id_image": "Astronaut_534555",
    "count_view": 0
  },
  {
    "link_thumb": "https://live.staticflickr.com/65535/50040098971_d785cd7344_n.jpg",
    "id_album": "-1102314093",
    "description": "Planets_363073",
    "title": "Planets_363073",
    "link_img": "https://live.staticflickr.com/65535/50040098971_e3e4af5715_o.jpg",
    "id_image": "Planets_363073",
    "count_view": 0
  },
  {
    "link_thumb": "https://live.staticflickr.com/65535/50039929676_8423bc13ea_n.jpg",
    "id_album": "395161030",
    "description": "Planet_334272",
    "title": "Planet_334272",
    "link_img": "https://live.staticflickr.com/65535/50039929676_91c6fab8e0_o.jpg",
    "id_image": "Planet_334272",
    "count_view": 0
  },
  {
    "link_thumb": "https://live.staticflickr.com/65535/50039999788_61551e103a_n.jpg",
    "id_album": "1613540653",
    "description": "Space_957428",
    "title": "Space_957428",
    "link_img": "https://live.staticflickr.com/65535/50039999788_0455526275_o.jpg",
    "id_image": "Space_957428",
    "count_view": 0
  },
  {
    "link_thumb": "https://live.staticflickr.com/65535/50041295486_4e59330704_n.jpg",
    "id_album": "1267121215",
    "description": "Steampunk_190407",
    "title": "Steampunk_190407",
    "link_img": "https://live.staticflickr.com/65535/50041295486_69c01222c7_o.jpg",
    "id_image": "Steampunk_190407",
    "count_view": 0
  },
  {
    "link_thumb": "https://live.staticflickr.com/65535/50041377532_5218f020ed_n.jpg",
    "id_album": "-1863373220",
    "description": "StarWars_107677",
    "title": "StarWars_107677",
    "link_img": "https://live.staticflickr.com/65535/50041377532_dfccf9900b_o.jpg",
    "id_image": "StarWars_107677",
    "count_view": 0
  },
  {
    "link_thumb": "https://live.staticflickr.com/65535/50040833178_f241410f19_n.jpg",
    "id_album": "2020068132",
    "description": "Vehicle_318713",
    "title": "Vehicle_318713",
    "link_img": "https://live.staticflickr.com/65535/50040833178_27e40cca3e_o.jpg",
    "id_image": "Vehicle_318713",
    "count_view": 0
  },
  {
    "link_thumb": "https://live.staticflickr.com/65535/50039595627_d944ea941a_n.jpg",
    "id_album": "523598895",
    "description": "Artistic_401753",
    "title": "Artistic_401753",
    "link_img": "https://live.staticflickr.com/65535/50039595627_e07b326afd_o.jpg",
    "id_image": "Artistic_401753",
    "count_view": 0
  },
  {
    "link_thumb": "https://live.staticflickr.com/65535/50040144788_94c738a3e7_n.jpg",
    "id_album": "2130067313",
    "description": "Spaceship_446852",
    "title": "Spaceship_446852",
    "link_img": "https://live.staticflickr.com/65535/50040144788_b2d4564bbd_o.jpg",
    "id_image": "Spaceship_446852",
    "count_view": 0
  },
  {
    "link_thumb": "https://live.staticflickr.com/65535/50039522887_57f54f1536_n.jpg",
    "id_album": "849020728",
    "description": "Alien_327579",
    "title": "Alien_327579",
    "link_img": "https://live.staticflickr.com/65535/50039522887_2dbd16f7ba_o.jpg",
    "id_image": "Alien_327579",
    "count_view": 0
  },
  {
    "link_thumb": "https://live.staticflickr.com/65535/50039913397_b5d9a69f2f_n.jpg",
    "id_album": "1204249541",
    "description": "Galaxy_678110",
    "title": "Galaxy_678110",
    "link_img": "https://live.staticflickr.com/65535/50039913397_bc7499d786_o.jpg",
    "id_image": "Galaxy_678110",
    "count_view": 0
  },
  {
    "link_thumb": "https://live.staticflickr.com/65535/50039499926_d54132086e_n.jpg",
    "id_album": "-1964113117",
    "description": "City_83514",
    "title": "City_83514",
    "link_img": "https://live.staticflickr.com/65535/50039499926_ea5b0669c2_o.jpg",
    "id_image": "City_83514",
    "count_view": 0
  },
  {
    "link_thumb": "https://live.staticflickr.com/65535/50041593541_37027a1073_n.jpg",
    "id_album": "-1675918237",
    "description": "WomenWarrior_985659",
    "title": "WomenWarrior_985659",
    "link_img": "https://live.staticflickr.com/65535/50041593541_37efdfa449_o.jpg",
    "id_image": "WomenWarrior_985659",
    "count_view": 0
  },
  {
    "link_thumb": "https://live.staticflickr.com/65535/50040296216_3093f12733_n.jpg",
    "id_album": "779690680",
    "description": "Robot_367646",
    "title": "Robot_367646",
    "link_img": "https://live.staticflickr.com/65535/50040296216_f36bf00854_o.jpg",
    "id_image": "Robot_367646",
    "count_view": 0
  },
  {
    "link_thumb": "https://live.staticflickr.com/65535/50040407407_f592d02ba6_n.jpg",
    "id_album": "-1102314093",
    "description": "Planets_874502",
    "title": "Planets_874502",
    "link_img": "https://live.staticflickr.com/65535/50040407407_1da172d21e_o.jpg",
    "id_image": "Planets_874502",
    "count_view": 0
  },
  {
    "link_thumb": "https://live.staticflickr.com/65535/50039639442_1b7148616b_n.jpg",
    "id_album": "869545341",
    "description": "Astronaut_904526",
    "title": "Astronaut_904526",
    "link_img": "https://live.staticflickr.com/65535/50039639442_953b61a210_o.jpg",
    "id_image": "Astronaut_904526",
    "count_view": 0
  },
  {
    "link_thumb": "https://live.staticflickr.com/65535/50039607112_95b5a6d751_n.jpg",
    "id_album": "523598895",
    "description": "Artistic_857266",
    "title": "Artistic_857266",
    "link_img": "https://live.staticflickr.com/65535/50039607112_1b7fba34c7_o.jpg",
    "id_image": "Artistic_857266",
    "count_view": 0
  },
  {
    "link_thumb": "https://live.staticflickr.com/65535/50040362487_10fbc986bb_n.jpg",
    "id_album": "-1102314093",
    "description": "Planets_361693",
    "title": "Planets_361693",
    "link_img": "https://live.staticflickr.com/65535/50040362487_ab5bf7f8a8_o.jpg",
    "id_image": "Planets_361693",
    "count_view": 0
  },
  {
    "link_thumb": "https://live.staticflickr.com/65535/50041754642_3e91db6a1f_n.jpg",
    "id_album": "-1261420436",
    "description": "Warrior_885743",
    "title": "Warrior_885743",
    "link_img": "https://live.staticflickr.com/65535/50041754642_71b55c8998_o.jpg",
    "id_image": "Warrior_885743",
    "count_view": 0
  },
  {
    "link_thumb": "https://live.staticflickr.com/65535/50039976428_d5643f899c_n.jpg",
    "id_album": "1613540653",
    "description": "Space_694472",
    "title": "Space_694472",
    "link_img": "https://live.staticflickr.com/65535/50039976428_6f020a2710_o.jpg",
    "id_image": "Space_694472",
    "count_view": 0
  },
  {
    "link_thumb": "https://live.staticflickr.com/65535/50039937467_5d6c5e7808_n.jpg",
    "id_album": "1402713104",
    "description": "Landscape_309993",
    "title": "Landscape_309993",
    "link_img": "https://live.staticflickr.com/65535/50039937467_e28dc996e1_o.jpg",
    "id_image": "Landscape_309993",
    "count_view": 0
  },
  {
    "link_thumb": "https://live.staticflickr.com/65535/50039438521_f0a21fe11c_n.jpg",
    "id_album": "-1964113117",
    "description": "City_166153",
    "title": "City_166153",
    "link_img": "https://live.staticflickr.com/65535/50039438521_bd7e9d9f14_o.jpg",
    "id_image": "City_166153",
    "count_view": 0
  },
  {
    "link_thumb": "https://live.staticflickr.com/65535/50040443576_19e624b084_n.jpg",
    "id_album": "779690680",
    "description": "Robot_949821",
    "title": "Robot_949821",
    "link_img": "https://live.staticflickr.com/65535/50040443576_d9f974ef17_o.jpg",
    "id_image": "Robot_949821",
    "count_view": 0
  },
  {
    "link_thumb": "https://live.staticflickr.com/65535/50039347916_c0bb4fbf1a_n.jpg",
    "id_album": "869545341",
    "description": "Astronaut_1000996",
    "title": "Astronaut_1000996",
    "link_img": "https://live.staticflickr.com/65535/50039347916_466b1ce84e_o.jpg",
    "id_image": "Astronaut_1000996",
    "count_view": 0
  },
  {
    "link_thumb": "https://live.staticflickr.com/65535/50039308383_9453ddbb75_n.jpg",
    "id_album": "-1610342324",
    "description": "Nebula_957881",
    "title": "Nebula_957881",
    "link_img": "https://live.staticflickr.com/65535/50039308383_6cba99f4e0_o.jpg",
    "id_image": "Nebula_957881",
    "count_view": 0
  },
  {
    "link_thumb": "https://live.staticflickr.com/65535/50039996831_e0c44e867e_n.jpg",
    "id_album": "1443611160",
    "description": "PlanetRise_156344",
    "title": "PlanetRise_156344",
    "link_img": "https://live.staticflickr.com/65535/50039996831_7301281897_o.jpg",
    "id_image": "PlanetRise_156344",
    "count_view": 0
  },
  {
    "link_thumb": "https://live.staticflickr.com/65535/50040058142_eef760f430_n.jpg",
    "id_album": "-1610342324",
    "description": "Nebula_418579",
    "title": "Nebula_418579",
    "link_img": "https://live.staticflickr.com/65535/50040058142_1b611c0cf2_o.jpg",
    "id_image": "Nebula_418579",
    "count_view": 0
  },
  {
    "link_thumb": "https://live.staticflickr.com/65535/50039933833_8613fb854d_n.jpg",
    "id_album": "1613540653",
    "description": "Space_287064",
    "title": "Space_287064",
    "link_img": "https://live.staticflickr.com/65535/50039933833_1c052dd55c_o.jpg",
    "id_image": "Space_287064",
    "count_view": 0
  },
  {
    "link_thumb": "https://live.staticflickr.com/65535/50039959752_05af802ce6_n.jpg",
    "id_album": "1402713104",
    "description": "Landscape_6391",
    "title": "Landscape_6391",
    "link_img": "https://live.staticflickr.com/65535/50039959752_f7daae072a_o.jpg",
    "id_image": "Landscape_6391",
    "count_view": 0
  },
  {
    "link_thumb": "https://live.staticflickr.com/65535/50041160981_8a6231ef3e_n.jpg",
    "id_album": "-1863373220",
    "description": "StarWars_296342",
    "title": "StarWars_296342",
    "link_img": "https://live.staticflickr.com/65535/50041160981_657db3e705_o.jpg",
    "id_image": "StarWars_296342",
    "count_view": 0
  },
  {
    "link_thumb": "https://live.staticflickr.com/65535/50039352256_cfb8ff0a04_n.jpg",
    "id_album": "869545341",
    "description": "Astronaut_247116",
    "title": "Astronaut_247116",
    "link_img": "https://live.staticflickr.com/65535/50039352256_261f21f70f_o.jpg",
    "id_image": "Astronaut_247116",
    "count_view": 0
  },
  {
    "link_thumb": "https://live.staticflickr.com/65535/50039804946_69e6185bc0_n.jpg",
    "id_album": "-1610342324",
    "description": "Nebula_533763",
    "title": "Nebula_533763",
    "link_img": "https://live.staticflickr.com/65535/50039804946_b6aceb2513_o.jpg",
    "id_image": "Nebula_533763",
    "count_view": 0
  },
  {
    "link_thumb": "https://live.staticflickr.com/65535/50040128387_e629986e63_n.jpg",
    "id_album": "-1862561193",
    "description": "Other_209413",
    "title": "Other_209413",
    "link_img": "https://live.staticflickr.com/65535/50040128387_e6104a0e3d_o.jpg",
    "id_image": "Other_209413",
    "count_view": 0
  },
  {
    "link_thumb": "https://live.staticflickr.com/65535/50039219878_bed946ffee_n.jpg",
    "id_album": "-1610342324",
    "description": "Nebula_206199",
    "title": "Nebula_206199",
    "link_img": "https://live.staticflickr.com/65535/50039219878_8e85aea120_o.jpg",
    "id_image": "Nebula_206199",
    "count_view": 0
  },
  {
    "link_thumb": "https://live.staticflickr.com/65535/50039911567_9e217af0b7_n.jpg",
    "id_album": "1204249541",
    "description": "Galaxy_606743",
    "title": "Galaxy_606743",
    "link_img": "https://live.staticflickr.com/65535/50039911567_2798878b23_o.jpg",
    "id_image": "Galaxy_606743",
    "count_view": 0
  },
  {
    "link_thumb": "https://live.staticflickr.com/65535/50039755401_2fe71325d4_n.jpg",
    "id_album": "416351698",
    "description": "Moon_296096",
    "title": "Moon_296096",
    "link_img": "https://live.staticflickr.com/65535/50039755401_9e84e46c10_o.jpg",
    "id_image": "Moon_296096",
    "count_view": 0
  },
  {
    "link_thumb": "https://live.staticflickr.com/65535/50039106558_84b5a464ec_n.jpg",
    "id_album": "1204249541",
    "description": "Galaxy_905628",
    "title": "Galaxy_905628",
    "link_img": "https://live.staticflickr.com/65535/50039106558_e8b65c48ef_o.jpg",
    "id_image": "Galaxy_905628",
    "count_view": 0
  },
  {
    "link_thumb": "https://live.staticflickr.com/65535/50039558572_001c6c0ab1_n.jpg",
    "id_album": "523598895",
    "description": "Artistic_151695",
    "title": "Artistic_151695",
    "link_img": "https://live.staticflickr.com/65535/50039558572_6bee2933de_o.jpg",
    "id_image": "Artistic_151695",
    "count_view": 0
  },
  {
    "link_thumb": "https://live.staticflickr.com/65535/50039588347_0a57672ca4_n.jpg",
    "id_album": "523598895",
    "description": "Artistic_276421",
    "title": "Artistic_276421",
    "link_img": "https://live.staticflickr.com/65535/50039588347_4d4503c9ff_o.jpg",
    "id_image": "Artistic_276421",
    "count_view": 0
  },
  {
    "link_thumb": "https://live.staticflickr.com/65535/50039597633_6324214c0f_n.jpg",
    "id_album": "-1102314093",
    "description": "Planets_957377",
    "title": "Planets_957377",
    "link_img": "https://live.staticflickr.com/65535/50039597633_2493201f0e_o.jpg",
    "id_image": "Planets_957377",
    "count_view": 0
  },
  {
    "link_thumb": "https://live.staticflickr.com/65535/50040518912_a5c280a258_n.jpg",
    "id_album": "779690680",
    "description": "Robot_133819",
    "title": "Robot_133819",
    "link_img": "https://live.staticflickr.com/65535/50040518912_8ca229d6d7_o.jpg",
    "id_image": "Robot_133819",
    "count_view": 0
  },
  {
    "link_thumb": "https://live.staticflickr.com/65535/50039138933_4d365b2c28_n.jpg",
    "id_album": "1402713104",
    "description": "Landscape_422155",
    "title": "Landscape_422155",
    "link_img": "https://live.staticflickr.com/65535/50039138933_34a05b791c_o.jpg",
    "id_image": "Landscape_422155",
    "count_view": 0
  },
  {
    "link_thumb": "https://live.staticflickr.com/65535/50040814188_07b1399204_n.jpg",
    "id_album": "-1177476763",
    "description": "Sunrise_674912",
    "title": "Sunrise_674912",
    "link_img": "https://live.staticflickr.com/65535/50040814188_552d0a2dbb_o.jpg",
    "id_image": "Sunrise_674912",
    "count_view": 0
  },
  {
    "link_thumb": "https://live.staticflickr.com/65535/50039288728_5b3e526fcc_n.jpg",
    "id_album": "-1610342324",
    "description": "Nebula_792977",
    "title": "Nebula_792977",
    "link_img": "https://live.staticflickr.com/65535/50039288728_bc52857de5_o.jpg",
    "id_image": "Nebula_792977",
    "count_view": 0
  },
  {
    "link_thumb": "https://live.staticflickr.com/65535/50038930628_18a352b553_n.jpg",
    "id_album": "-1964113117",
    "description": "City_567071",
    "title": "City_567071",
    "link_img": "https://live.staticflickr.com/65535/50038930628_4dbc05c10d_o.jpg",
    "id_image": "City_567071",
    "count_view": 0
  },
  {
    "link_thumb": "https://live.staticflickr.com/65535/50039296991_6307596bb0_n.jpg",
    "id_album": "523598895",
    "description": "Artistic_151704",
    "title": "Artistic_151704",
    "link_img": "https://live.staticflickr.com/65535/50039296991_2fa726915d_o.jpg",
    "id_image": "Artistic_151704",
    "count_view": 0
  },
  {
    "link_thumb": "https://live.staticflickr.com/65535/50041843017_89dbc1c09d_n.jpg",
    "id_album": "-1675918237",
    "description": "WomenWarrior_584726",
    "title": "WomenWarrior_584726",
    "link_img": "https://live.staticflickr.com/65535/50041843017_d9fdbe7036_o.jpg",
    "id_image": "WomenWarrior_584726",
    "count_view": 0
  },
  {
    "link_thumb": "https://live.staticflickr.com/65535/50039003743_660da69a7f_n.jpg",
    "id_album": "-437872736",
    "description": "Creature_323930",
    "title": "Creature_323930",
    "link_img": "https://live.staticflickr.com/65535/50039003743_0cb2b207d3_o.jpg",
    "id_image": "Creature_323930",
    "count_view": 0
  },
  {
    "link_thumb": "https://live.staticflickr.com/65535/50041297751_95e5ffc1fd_n.jpg",
    "id_album": "1267121215",
    "description": "Steampunk_190593",
    "title": "Steampunk_190593",
    "link_img": "https://live.staticflickr.com/65535/50041297751_a700c86c2a_o.jpg",
    "id_image": "Steampunk_190593",
    "count_view": 0
  },
  {
    "link_thumb": "https://live.staticflickr.com/65535/50039391326_bff431a4f3_n.jpg",
    "id_album": "869545341",
    "description": "Astronaut_991831",
    "title": "Astronaut_991831",
    "link_img": "https://live.staticflickr.com/65535/50039391326_4dab34f8e5_o.jpg",
    "id_image": "Astronaut_991831",
    "count_view": 0
  },
  {
    "link_thumb": "https://live.staticflickr.com/65535/50040652052_ffdf349d86_n.jpg",
    "id_album": "779690680",
    "description": "Robot_877462",
    "title": "Robot_877462",
    "link_img": "https://live.staticflickr.com/65535/50040652052_35f24d94f9_o.jpg",
    "id_image": "Robot_877462",
    "count_view": 0
  },
  {
    "link_thumb": "https://live.staticflickr.com/65535/50039299641_a11c6b6e40_n.jpg",
    "id_album": "523598895",
    "description": "Artistic_162949",
    "title": "Artistic_162949",
    "link_img": "https://live.staticflickr.com/65535/50039299641_265e6ce5b5_o.jpg",
    "id_image": "Artistic_162949",
    "count_view": 0
  },
  {
    "link_thumb": "https://live.staticflickr.com/65535/50039506092_c7b914b2fb_n.jpg",
    "id_album": "849020728",
    "description": "Alien_108487",
    "title": "Alien_108487",
    "link_img": "https://live.staticflickr.com/65535/50039506092_f775b6838e_o.jpg",
    "id_image": "Alien_108487",
    "count_view": 0
  },
  {
    "link_thumb": "https://live.staticflickr.com/65535/50039992632_90c4441156_n.jpg",
    "id_album": "1402713104",
    "description": "Landscape_979174",
    "title": "Landscape_979174",
    "link_img": "https://live.staticflickr.com/65535/50039992632_a47e47ba91_o.jpg",
    "id_image": "Landscape_979174",
    "count_view": 0
  },
  {
    "link_thumb": "https://live.staticflickr.com/65535/50040444821_5ee65e75a5_n.jpg",
    "id_album": "779690680",
    "description": "Robot_955773",
    "title": "Robot_955773",
    "link_img": "https://live.staticflickr.com/65535/50040444821_31f31fa5b9_o.jpg",
    "id_image": "Robot_955773",
    "count_view": 0
  },
  {
    "link_thumb": "https://live.staticflickr.com/65535/50039797427_37f9a98f20_n.jpg",
    "id_album": "894679094",
    "description": "Collision_121048",
    "title": "Collision_121048",
    "link_img": "https://live.staticflickr.com/65535/50039797427_6a4655f70b_o.jpg",
    "id_image": "Collision_121048",
    "count_view": 0
  },
  {
    "link_thumb": "https://live.staticflickr.com/65535/50039004508_ea7821afd2_n.jpg",
    "id_album": "-437872736",
    "description": "Creature_333367",
    "title": "Creature_333367",
    "link_img": "https://live.staticflickr.com/65535/50039004508_4210796a9f_o.jpg",
    "id_image": "Creature_333367",
    "count_view": 0
  },
  {
    "link_thumb": "https://live.staticflickr.com/65535/50041555042_4f9792f3b7_n.jpg",
    "id_album": "1267121215",
    "description": "Steampunk_190375",
    "title": "Steampunk_190375",
    "link_img": "https://live.staticflickr.com/65535/50041555042_10216c7a9b_o.jpg",
    "id_image": "Steampunk_190375",
    "count_view": 0
  },
  {
    "link_thumb": "https://live.staticflickr.com/65535/50039522738_f970330f92_n.jpg",
    "id_album": "-1102314093",
    "description": "Planets_280203",
    "title": "Planets_280203",
    "link_img": "https://live.staticflickr.com/65535/50039522738_0730d3563d_o.jpg",
    "id_image": "Planets_280203",
    "count_view": 0
  },
  {
    "link_thumb": "https://live.staticflickr.com/65535/50040671682_5b585e9d32_n.jpg",
    "id_album": "779690680",
    "description": "Robot_910946",
    "title": "Robot_910946",
    "link_img": "https://live.staticflickr.com/65535/50040671682_b6b2c807fd_o.jpg",
    "id_image": "Robot_910946",
    "count_view": 0
  },
  {
    "link_thumb": "https://live.staticflickr.com/65535/50038865963_515c8bd23c_n.jpg",
    "id_album": "-1780971522",
    "description": "Biohazard_458261",
    "title": "Biohazard_458261",
    "link_img": "https://live.staticflickr.com/65535/50038865963_d6d01657e7_o.jpg",
    "id_image": "Biohazard_458261",
    "count_view": 0
  },
  {
    "link_thumb": "https://live.staticflickr.com/65535/50041495557_f9ccb46070_n.jpg",
    "id_album": "-1863373220",
    "description": "StarWars_884414",
    "title": "StarWars_884414",
    "link_img": "https://live.staticflickr.com/65535/50041495557_7a2c9f29a3_o.jpg",
    "id_image": "StarWars_884414",
    "count_view": 0
  },
  {
    "link_thumb": "https://live.staticflickr.com/65535/50039919783_b56c278657_n.jpg",
    "id_album": "1613540653",
    "description": "Space_180954",
    "title": "Space_180954",
    "link_img": "https://live.staticflickr.com/65535/50039919783_813e4f88c9_o.jpg",
    "id_image": "Space_180954",
    "count_view": 0
  },
  {
    "link_thumb": "https://live.staticflickr.com/65535/50039299451_659e024d73_n.jpg",
    "id_album": "523598895",
    "description": "Artistic_162665",
    "title": "Artistic_162665",
    "link_img": "https://live.staticflickr.com/65535/50039299451_2abc96f0fd_o.jpg",
    "id_image": "Artistic_162665",
    "count_view": 0
  },
  {
    "link_thumb": "https://live.staticflickr.com/65535/50041359041_db098e2756_n.jpg",
    "id_album": "-1177476763",
    "description": "Sunrise_217987",
    "title": "Sunrise_217987",
    "link_img": "https://live.staticflickr.com/65535/50041359041_42032a7c67_o.jpg",
    "id_image": "Sunrise_217987",
    "count_view": 0
  },
  {
    "link_thumb": "https://live.staticflickr.com/65535/50040019251_39253e23f2_n.jpg",
    "id_album": "814701616",
    "description": "PlanetaryRing_178286",
    "title": "PlanetaryRing_178286",
    "link_img": "https://live.staticflickr.com/65535/50040019251_3849c0538b_o.jpg",
    "id_image": "PlanetaryRing_178286",
    "count_view": 0
  },
  {
    "link_thumb": "https://live.staticflickr.com/65535/50039996866_66fcc9034b_n.jpg",
    "id_album": "1443611160",
    "description": "PlanetRise_159971",
    "title": "PlanetRise_159971",
    "link_img": "https://live.staticflickr.com/65535/50039996866_c98198d41b_o.jpg",
    "id_image": "PlanetRise_159971",
    "count_view": 0
  },
  {
    "link_thumb": "https://live.staticflickr.com/65535/50039424631_fc0d595b55_n.jpg",
    "id_album": "406431601",
    "description": "Building_871317",
    "title": "Building_871317",
    "link_img": "https://live.staticflickr.com/65535/50039424631_38b2d55113_o.jpg",
    "id_image": "Building_871317",
    "count_view": 0
  },
  {
    "link_thumb": "https://live.staticflickr.com/65535/50040144782_fe867d058e_n.jpg",
    "id_album": "-1862561193",
    "description": "Other_266919",
    "title": "Other_266919",
    "link_img": "https://live.staticflickr.com/65535/50040144782_d726009e3d_o.jpg",
    "id_image": "Other_266919",
    "count_view": 0
  },
  {
    "link_thumb": "https://live.staticflickr.com/65535/50039796997_a47cba9667_n.jpg",
    "id_album": "-1964113117",
    "description": "City_999564",
    "title": "City_999564",
    "link_img": "https://live.staticflickr.com/65535/50039796997_a3b6e3d71b_o.jpg",
    "id_image": "City_999564",
    "count_view": 0
  },
  {
    "link_thumb": "https://live.staticflickr.com/65535/50039754668_8bc198f22c_n.jpg",
    "id_album": "779690680",
    "description": "Robot_437510",
    "title": "Robot_437510",
    "link_img": "https://live.staticflickr.com/65535/50039754668_067c03e7f4_o.jpg",
    "id_image": "Robot_437510",
    "count_view": 0
  },
  {
    "link_thumb": "https://live.staticflickr.com/65535/50039149598_f139013642_n.jpg",
    "id_album": "1402713104",
    "description": "Landscape_674916",
    "title": "Landscape_674916",
    "link_img": "https://live.staticflickr.com/65535/50039149598_118d728efa_o.jpg",
    "id_image": "Landscape_674916",
    "count_view": 0
  },
  {
    "link_thumb": "https://live.staticflickr.com/65535/50039797981_cfd80e02d4_n.jpg",
    "id_album": "-1610342324",
    "description": "Nebula_441275",
    "title": "Nebula_441275",
    "link_img": "https://live.staticflickr.com/65535/50039797981_84ea951e26_o.jpg",
    "id_image": "Nebula_441275",
    "count_view": 0
  },
  {
    "link_thumb": "https://live.staticflickr.com/65535/50040522102_f0e12d1788_n.jpg",
    "id_album": "779690680",
    "description": "Robot_171435",
    "title": "Robot_171435",
    "link_img": "https://live.staticflickr.com/65535/50040522102_8369554555_o.jpg",
    "id_image": "Robot_171435",
    "count_view": 0
  },
  {
    "link_thumb": "https://live.staticflickr.com/65535/50038987633_432da20b57_n.jpg",
    "id_album": "894679094",
    "description": "Collision_134860",
    "title": "Collision_134860",
    "link_img": "https://live.staticflickr.com/65535/50038987633_a39eb220a7_o.jpg",
    "id_image": "Collision_134860",
    "count_view": 0
  },
  {
    "link_thumb": "https://live.staticflickr.com/65535/50040747286_809f8a21d3_n.jpg",
    "id_album": "2130067313",
    "description": "Spaceship_744667",
    "title": "Spaceship_744667",
    "link_img": "https://live.staticflickr.com/65535/50040747286_314db17b98_o.jpg",
    "id_image": "Spaceship_744667",
    "count_view": 0
  },
  {
    "link_thumb": "https://live.staticflickr.com/65535/50038996693_2132cb67a1_n.jpg",
    "id_album": "894679094",
    "description": "Collision_956722",
    "title": "Collision_956722",
    "link_img": "https://live.staticflickr.com/65535/50038996693_bc0e78b175_o.jpg",
    "id_image": "Collision_956722",
    "count_view": 0
  },
  {
    "link_thumb": "https://live.staticflickr.com/65535/50039833308_861efdaf61_n.jpg",
    "id_album": "779690680",
    "description": "Robot_875301",
    "title": "Robot_875301",
    "link_img": "https://live.staticflickr.com/65535/50039833308_31565138ce_o.jpg",
    "id_image": "Robot_875301",
    "count_view": 0
  },
  {
    "link_thumb": "https://live.staticflickr.com/65535/50039432101_a0c98daed4_n.jpg",
    "id_album": "-1964113117",
    "description": "City_106212",
    "title": "City_106212",
    "link_img": "https://live.staticflickr.com/65535/50039432101_1aceaf61d7_o.jpg",
    "id_image": "City_106212",
    "count_view": 0
  },
  {
    "link_thumb": "https://live.staticflickr.com/65535/50040995088_a64fb3aefb_n.jpg",
    "id_album": "-1126835654",
    "description": "Women_865727",
    "title": "Women_865727",
    "link_img": "https://live.staticflickr.com/65535/50040995088_552687054a_o.jpg",
    "id_image": "Women_865727",
    "count_view": 0
  },
  {
    "link_thumb": "https://live.staticflickr.com/65535/50040116397_222b3d60c2_n.jpg",
    "id_album": "-1610342324",
    "description": "Nebula_922577",
    "title": "Nebula_922577",
    "link_img": "https://live.staticflickr.com/65535/50040116397_6b6feaed4e_o.jpg",
    "id_image": "Nebula_922577",
    "count_view": 0
  },
  {
    "link_thumb": "https://live.staticflickr.com/65535/50039352791_b6d621b590_n.jpg",
    "id_album": "869545341",
    "description": "Astronaut_278676",
    "title": "Astronaut_278676",
    "link_img": "https://live.staticflickr.com/65535/50039352791_86919c97e5_o.jpg",
    "id_image": "Astronaut_278676",
    "count_view": 0
  },
  {
    "link_thumb": "https://live.staticflickr.com/65535/50040696983_9b9af3fb93_n.jpg",
    "id_album": "-1863373220",
    "description": "StarWars_981654",
    "title": "StarWars_981654",
    "link_img": "https://live.staticflickr.com/65535/50040696983_d0dd48e93b_o.jpg",
    "id_image": "StarWars_981654",
    "count_view": 0
  },
  {
    "link_thumb": "https://live.staticflickr.com/65535/50040093803_10c88dd68e_n.jpg",
    "id_album": "2130067313",
    "description": "Spaceship_317008",
    "title": "Spaceship_317008",
    "link_img": "https://live.staticflickr.com/65535/50040093803_3aea09940a_o.jpg",
    "id_image": "Spaceship_317008",
    "count_view": 0
  },
  {
    "link_thumb": "https://live.staticflickr.com/65535/50040910687_16c1774493_n.jpg",
    "id_album": "2130067313",
    "description": "Spaceship_319083",
    "title": "Spaceship_319083",
    "link_img": "https://live.staticflickr.com/65535/50040910687_519cd2572c_o.jpg",
    "id_image": "Spaceship_319083",
    "count_view": 0
  },
  {
    "link_thumb": "https://live.staticflickr.com/65535/50039647112_c6935b2fd9_n.jpg",
    "id_album": "869545341",
    "description": "Astronaut_957389",
    "title": "Astronaut_957389",
    "link_img": "https://live.staticflickr.com/65535/50039647112_fdcec548e5_o.jpg",
    "id_image": "Astronaut_957389",
    "count_view": 0
  },
  {
    "link_thumb": "https://live.staticflickr.com/65535/50038843763_4165e50028_n.jpg",
    "id_album": "869545341",
    "description": "Astronaut_992597",
    "title": "Astronaut_992597",
    "link_img": "https://live.staticflickr.com/65535/50038843763_45723f6874_o.jpg",
    "id_image": "Astronaut_992597",
    "count_view": 0
  },
  {
    "link_thumb": "https://live.staticflickr.com/65535/50041485151_ac84a4dd49_n.jpg",
    "id_album": "-1261420436",
    "description": "Warrior_712806",
    "title": "Warrior_712806",
    "link_img": "https://live.staticflickr.com/65535/50041485151_6bda33f0c0_o.jpg",
    "id_image": "Warrior_712806",
    "count_view": 0
  },
  {
    "link_thumb": "https://live.staticflickr.com/65535/50039590263_bd87b9fa37_n.jpg",
    "id_album": "-1102314093",
    "description": "Planets_83612",
    "title": "Planets_83612",
    "link_img": "https://live.staticflickr.com/65535/50039590263_e3d64edcac_o.jpg",
    "id_image": "Planets_83612",
    "count_view": 0
  },
  {
    "link_thumb": "https://live.staticflickr.com/65535/50040670662_da771b806d_n.jpg",
    "id_album": "779690680",
    "description": "Robot_909553",
    "title": "Robot_909553",
    "link_img": "https://live.staticflickr.com/65535/50040670662_35524160aa_o.jpg",
    "id_image": "Robot_909553",
    "count_view": 0
  },
  {
    "link_thumb": "https://live.staticflickr.com/65535/50041536076_ff0abb3a83_n.jpg",
    "id_album": "-1126835654",
    "description": "Women_563056",
    "title": "Women_563056",
    "link_img": "https://live.staticflickr.com/65535/50041536076_d5d69c4a31_o.jpg",
    "id_image": "Women_563056",
    "count_view": 0
  },
  {
    "link_thumb": "https://live.staticflickr.com/65535/50040843876_4d72f8d0d2_n.jpg",
    "id_album": "-1449720967",
    "description": "StarTrek_333721",
    "title": "StarTrek_333721",
    "link_img": "https://live.staticflickr.com/65535/50040843876_9278b1db7d_o.jpg",
    "id_image": "StarTrek_333721",
    "count_view": 0
  },
  {
    "link_thumb": "https://live.staticflickr.com/65535/50039850791_4dc5fe251e_n.jpg",
    "id_album": "-1610342324",
    "description": "Nebula_899656",
    "title": "Nebula_899656",
    "link_img": "https://live.staticflickr.com/65535/50039850791_4cb9ea2e3d_o.jpg",
    "id_image": "Nebula_899656",
    "count_view": 0
  },
  {
    "link_thumb": "https://live.staticflickr.com/65535/50041282851_33c2dae988_n.jpg",
    "id_album": "-1587696329",
    "description": "Stars_80996",
    "title": "Stars_80996",
    "link_img": "https://live.staticflickr.com/65535/50041282851_c449ce5833_o.jpg",
    "id_image": "Stars_80996",
    "count_view": 0
  },
  {
    "link_thumb": "https://live.staticflickr.com/65535/50039448238_bf3146976a_n.jpg",
    "id_album": "1443611160",
    "description": "PlanetRise_248335",
    "title": "PlanetRise_248335",
    "link_img": "https://live.staticflickr.com/65535/50039448238_da95e744c4_o.jpg",
    "id_image": "PlanetRise_248335",
    "count_view": 0
  },
  {
    "link_thumb": "https://live.staticflickr.com/65535/50039639051_47a4c4e0e7_n.jpg",
    "id_album": "1204249541",
    "description": "Galaxy_523674",
    "title": "Galaxy_523674",
    "link_img": "https://live.staticflickr.com/65535/50039639051_0bec7529f8_o.jpg",
    "id_image": "Galaxy_523674",
    "count_view": 0
  },
  {
    "link_thumb": "https://live.staticflickr.com/65535/50039614182_ecbb5986d6_n.jpg",
    "id_album": "869545341",
    "description": "Astronaut_238542",
    "title": "Astronaut_238542",
    "link_img": "https://live.staticflickr.com/65535/50039614182_5f480e4b5a_o.jpg",
    "id_image": "Astronaut_238542",
    "count_view": 0
  },
  {
    "link_thumb": "https://live.staticflickr.com/65535/50039859623_c71ba9529f_n.jpg",
    "id_album": "779690680",
    "description": "Robot_915577",
    "title": "Robot_915577",
    "link_img": "https://live.staticflickr.com/65535/50039859623_f04a57bfec_o.jpg",
    "id_image": "Robot_915577",
    "count_view": 0
  },
  {
    "link_thumb": "https://live.staticflickr.com/65535/50040377632_b6b2c45f16_n.jpg",
    "id_album": "-1102314093",
    "description": "Planets_425734",
    "title": "Planets_425734",
    "link_img": "https://live.staticflickr.com/65535/50040377632_01c2fff44e_o.jpg",
    "id_image": "Planets_425734",
    "count_view": 0
  },
  {
    "link_thumb": "https://live.staticflickr.com/65535/50040685842_10878fcac6_n.jpg",
    "id_album": "779690680",
    "description": "Robot_928550",
    "title": "Robot_928550",
    "link_img": "https://live.staticflickr.com/65535/50040685842_558bc1b795_o.jpg",
    "id_image": "Robot_928550",
    "count_view": 0
  },
  {
    "link_thumb": "https://live.staticflickr.com/65535/50040275861_2e677bc3a0_n.jpg",
    "id_album": "779690680",
    "description": "Robot_261149",
    "title": "Robot_261149",
    "link_img": "https://live.staticflickr.com/65535/50040275861_7438aecd48_o.jpg",
    "id_image": "Robot_261149",
    "count_view": 0
  },
  {
    "link_thumb": "https://live.staticflickr.com/65535/50041450807_85d70ee999_n.jpg",
    "id_album": "-1863373220",
    "description": "StarWars_497639",
    "title": "StarWars_497639",
    "link_img": "https://live.staticflickr.com/65535/50041450807_53b0d23841_o.jpg",
    "id_image": "StarWars_497639",
    "count_view": 0
  },
  {
    "link_thumb": "https://live.staticflickr.com/65535/50040065972_f682277b1f_n.jpg",
    "id_album": "-1610342324",
    "description": "Nebula_502979",
    "title": "Nebula_502979",
    "link_img": "https://live.staticflickr.com/65535/50040065972_78cc57015f_o.jpg",
    "id_image": "Nebula_502979",
    "count_view": 0
  },
  {
    "link_thumb": "https://live.staticflickr.com/65535/50040802088_db00d8f7a3_n.jpg",
    "id_album": "-1177476763",
    "description": "Sunrise_104848",
    "title": "Sunrise_104848",
    "link_img": "https://live.staticflickr.com/65535/50040802088_d140b337f7_o.jpg",
    "id_image": "Sunrise_104848",
    "count_view": 0
  },
  {
    "link_thumb": "https://live.staticflickr.com/65535/50039666897_eedc816c93_n.jpg",
    "id_album": "1187037014",
    "description": "Battle_602694",
    "title": "Battle_602694",
    "link_img": "https://live.staticflickr.com/65535/50039666897_c334d918ae_o.jpg",
    "id_image": "Battle_602694",
    "count_view": 0
  },
  {
    "link_thumb": "https://live.staticflickr.com/65535/50039182418_6784a2a8e4_n.jpg",
    "id_album": "-1388385651",
    "description": "MilkyWay_482715",
    "title": "MilkyWay_482715",
    "link_img": "https://live.staticflickr.com/65535/50039182418_43b6a3103f_o.jpg",
    "id_image": "MilkyWay_482715",
    "count_view": 0
  },
  {
    "link_thumb": "https://live.staticflickr.com/65535/50040556702_dd6532ea65_n.jpg",
    "id_album": "779690680",
    "description": "Robot_335121",
    "title": "Robot_335121",
    "link_img": "https://live.staticflickr.com/65535/50040556702_e6d8c8bf36_o.jpg",
    "id_image": "Robot_335121",
    "count_view": 0
  },
  {
    "link_thumb": "https://live.staticflickr.com/65535/50039688508_ca697ff529_n.jpg",
    "id_album": "-839602625",
    "description": "Predator_342964",
    "title": "Predator_342964",
    "link_img": "https://live.staticflickr.com/65535/50039688508_eb247d74cd_o.jpg",
    "id_image": "Predator_342964",
    "count_view": 0
  },
  {
    "link_thumb": "https://live.staticflickr.com/65535/50039537377_bc746d7b48_n.jpg",
    "id_album": "849020728",
    "description": "Alien_868749",
    "title": "Alien_868749",
    "link_img": "https://live.staticflickr.com/65535/50039537377_ccc2f24a95_o.jpg",
    "id_image": "Alien_868749",
    "count_view": 0
  },
  {
    "link_thumb": "https://live.staticflickr.com/65535/50041008188_ab34ee4e23_n.jpg",
    "id_album": "-1675918237",
    "description": "WomenWarrior_243739",
    "title": "WomenWarrior_243739",
    "link_img": "https://live.staticflickr.com/65535/50041008188_4928a1188a_o.jpg",
    "id_image": "WomenWarrior_243739",
    "count_view": 0
  },
  {
    "link_thumb": "https://live.staticflickr.com/65535/50039929942_98b16fd58c_n.jpg",
    "id_album": "1402713104",
    "description": "Landscape_239777",
    "title": "Landscape_239777",
    "link_img": "https://live.staticflickr.com/65535/50039929942_141b297993_o.jpg",
    "id_image": "Landscape_239777",
    "count_view": 0
  },
  {
    "link_thumb": "https://live.staticflickr.com/65535/50038900478_17de58b3dd_n.jpg",
    "id_album": "-1964113117",
    "description": "City_220572",
    "title": "City_220572",
    "link_img": "https://live.staticflickr.com/65535/50038900478_c510b96934_o.jpg",
    "id_image": "City_220572",
    "count_view": 0
  },
  {
    "link_thumb": "https://live.staticflickr.com/65535/50039519993_8dea8db689_n.jpg",
    "id_album": "-1102314093",
    "description": "Planets_272488",
    "title": "Planets_272488",
    "link_img": "https://live.staticflickr.com/65535/50039519993_8ae47f511b_o.jpg",
    "id_image": "Planets_272488",
    "count_view": 0
  },
  {
    "link_thumb": "https://live.staticflickr.com/65535/50040745673_4dd989279f_n.jpg",
    "id_album": "1267121215",
    "description": "Steampunk_209609",
    "title": "Steampunk_209609",
    "link_img": "https://live.staticflickr.com/65535/50040745673_522e84913b_o.jpg",
    "id_image": "Steampunk_209609",
    "count_view": 0
  },
  {
    "link_thumb": "https://live.staticflickr.com/65535/50039498482_e033259357_n.jpg",
    "id_album": "-406145265",
    "description": "Aircraft_269915",
    "title": "Aircraft_269915",
    "link_img": "https://live.staticflickr.com/65535/50039498482_7695ea4691_o.jpg",
    "id_image": "Aircraft_269915",
    "count_view": 0
  },
  {
    "link_thumb": "https://live.staticflickr.com/65535/50039538293_aca9ca6a3d_n.jpg",
    "id_album": "-1102314093",
    "description": "Planets_344254",
    "title": "Planets_344254",
    "link_img": "https://live.staticflickr.com/65535/50039538293_094dd77ae5_o.jpg",
    "id_image": "Planets_344254",
    "count_view": 0
  },
  {
    "link_thumb": "https://live.staticflickr.com/65535/50038864813_c4f0b210a7_n.jpg",
    "id_album": "-1780971522",
    "description": "Biohazard_333718",
    "title": "Biohazard_333718",
    "link_img": "https://live.staticflickr.com/65535/50038864813_1dc0694ce0_o.jpg",
    "id_image": "Biohazard_333718",
    "count_view": 0
  },
  {
    "link_thumb": "https://live.staticflickr.com/65535/50039724921_71c48ed24f_n.jpg",
    "id_album": "1402713104",
    "description": "Landscape_930907",
    "title": "Landscape_930907",
    "link_img": "https://live.staticflickr.com/65535/50039724921_9babfbfb7c_o.jpg",
    "id_image": "Landscape_930907",
    "count_view": 0
  },
  {
    "link_thumb": "https://live.staticflickr.com/65535/50040521667_6dd3eb221b_n.jpg",
    "id_album": "779690680",
    "description": "Robot_167503",
    "title": "Robot_167503",
    "link_img": "https://live.staticflickr.com/65535/50040521667_1ddbbdcde6_o.jpg",
    "id_image": "Robot_167503",
    "count_view": 0
  },
  {
    "link_thumb": "https://live.staticflickr.com/65535/50041039827_a2e5e79f76_n.jpg",
    "id_album": "2130067313",
    "description": "Spaceship_972123",
    "title": "Spaceship_972123",
    "link_img": "https://live.staticflickr.com/65535/50041039827_6a08f6fe1b_o.jpg",
    "id_image": "Spaceship_972123",
    "count_view": 0
  },
  {
    "link_thumb": "https://live.staticflickr.com/65535/50039237708_1f54d94c5e_n.jpg",
    "id_album": "-1610342324",
    "description": "Nebula_330818",
    "title": "Nebula_330818",
    "link_img": "https://live.staticflickr.com/65535/50039237708_b57ef1f3d9_o.jpg",
    "id_image": "Nebula_330818",
    "count_view": 0
  },
  {
    "link_thumb": "https://live.staticflickr.com/65535/50039718837_c5665e74a4_n.jpg",
    "id_album": "-1964113117",
    "description": "City_269368",
    "title": "City_269368",
    "link_img": "https://live.staticflickr.com/65535/50039718837_b10c22b6fb_o.jpg",
    "id_image": "City_269368",
    "count_view": 0
  },
  {
    "link_thumb": "https://live.staticflickr.com/65535/50040485816_6b6fc2abe3_n.jpg",
    "id_album": "1613540653",
    "description": "Space_280026",
    "title": "Space_280026",
    "link_img": "https://live.staticflickr.com/65535/50040485816_8c4b667870_o.jpg",
    "id_image": "Space_280026",
    "count_view": 0
  },
  {
    "link_thumb": "https://live.staticflickr.com/65535/50040808182_d770ece8da_n.jpg",
    "id_album": "1613540653",
    "description": "Space_822469",
    "title": "Space_822469",
    "link_img": "https://live.staticflickr.com/65535/50040808182_84af645c86_o.jpg",
    "id_image": "Space_822469",
    "count_view": 0
  },
  {
    "link_thumb": "https://live.staticflickr.com/65535/50038975123_e146523da8_n.jpg",
    "id_album": "-1964113117",
    "description": "City_931875",
    "title": "City_931875",
    "link_img": "https://live.staticflickr.com/65535/50038975123_c40ea215a0_o.jpg",
    "id_image": "City_931875",
    "count_view": 0
  },
  {
    "link_thumb": "https://live.staticflickr.com/65535/50041725187_f704358b2a_n.jpg",
    "id_album": "-1261420436",
    "description": "Warrior_446492",
    "title": "Warrior_446492",
    "link_img": "https://live.staticflickr.com/65535/50041725187_25c6f5b00a_o.jpg",
    "id_image": "Warrior_446492",
    "count_view": 0
  },
  {
    "link_thumb": "https://live.staticflickr.com/65535/50040395652_040795f178_n.jpg",
    "id_album": "-1102314093",
    "description": "Planets_737709",
    "title": "Planets_737709",
    "link_img": "https://live.staticflickr.com/65535/50040395652_44f53c7234_o.jpg",
    "id_image": "Planets_737709",
    "count_view": 0
  },
  {
    "link_thumb": "https://live.staticflickr.com/65535/50039328951_a6f01f1616_n.jpg",
    "id_album": "523598895",
    "description": "Artistic_317312",
    "title": "Artistic_317312",
    "link_img": "https://live.staticflickr.com/65535/50039328951_8b75a191ea_o.jpg",
    "id_image": "Artistic_317312",
    "count_view": 0
  },
  {
    "link_thumb": "https://live.staticflickr.com/65535/50040734442_70c36b6815_n.jpg",
    "id_album": "1613540653",
    "description": "Space_152143",
    "title": "Space_152143",
    "link_img": "https://live.staticflickr.com/65535/50040734442_a25933a6e2_o.jpg",
    "id_image": "Space_152143",
    "count_view": 0
  },
  {
    "link_thumb": "https://live.staticflickr.com/65535/50039341081_dcfb74aea1_n.jpg",
    "id_album": "523598895",
    "description": "Artistic_653391",
    "title": "Artistic_653391",
    "link_img": "https://live.staticflickr.com/65535/50039341081_a1caa306a8_o.jpg",
    "id_image": "Artistic_653391",
    "count_view": 0
  },
  {
    "link_thumb": "https://live.staticflickr.com/65535/50039263683_c4254d0cd9_n.jpg",
    "id_album": "-1610342324",
    "description": "Nebula_585161",
    "title": "Nebula_585161",
    "link_img": "https://live.staticflickr.com/65535/50039263683_eed89b839b_o.jpg",
    "id_image": "Nebula_585161",
    "count_view": 0
  },
  {
    "link_thumb": "https://live.staticflickr.com/65535/50038849178_815c514946_n.jpg",
    "id_album": "1187037014",
    "description": "Battle_242345",
    "title": "Battle_242345",
    "link_img": "https://live.staticflickr.com/65535/50038849178_76918dbdfe_o.jpg",
    "id_image": "Battle_242345",
    "count_view": 0
  },
  {
    "link_thumb": "https://live.staticflickr.com/65535/50039734511_d7821ff78d_n.jpg",
    "id_album": "-1388385651",
    "description": "MilkyWay_590421",
    "title": "MilkyWay_590421",
    "link_img": "https://live.staticflickr.com/65535/50039734511_ebf0b91b82_o.jpg",
    "id_image": "MilkyWay_590421",
    "count_view": 0
  },
  {
    "link_thumb": "https://live.staticflickr.com/65535/50039223973_ff682b100f_n.jpg",
    "id_album": "-1610342324",
    "description": "Nebula_226013",
    "title": "Nebula_226013",
    "link_img": "https://live.staticflickr.com/65535/50039223973_9e6fe1866a_o.jpg",
    "id_image": "Nebula_226013",
    "count_view": 0
  },
  {
    "link_thumb": "https://live.staticflickr.com/65535/50038741313_0cb0603c67_n.jpg",
    "id_album": "-419633230",
    "description": "Apocalyptic_957419",
    "title": "Apocalyptic_957419",
    "link_img": "https://live.staticflickr.com/65535/50038741313_98897a6315_o.jpg",
    "id_image": "Apocalyptic_957419",
    "count_view": 0
  },
  {
    "link_thumb": "https://live.staticflickr.com/65535/50038699558_3841090b75_n.jpg",
    "id_album": "849020728",
    "description": "Alien_155208",
    "title": "Alien_155208",
    "link_img": "https://live.staticflickr.com/65535/50038699558_ebd22c481f_o.jpg",
    "id_image": "Alien_155208",
    "count_view": 0
  },
  {
    "link_thumb": "https://live.staticflickr.com/65535/50039626637_39ca6981a0_n.jpg",
    "id_album": "869545341",
    "description": "Astronaut_702076",
    "title": "Astronaut_702076",
    "link_img": "https://live.staticflickr.com/65535/50039626637_7a79a37ce9_o.jpg",
    "id_image": "Astronaut_702076",
    "count_view": 0
  },
  {
    "link_thumb": "https://live.staticflickr.com/65535/50040115386_f63a693e41_n.jpg",
    "id_album": "-1102314093",
    "description": "Planets_436890",
    "title": "Planets_436890",
    "link_img": "https://live.staticflickr.com/65535/50040115386_bb2d8554ea_o.jpg",
    "id_image": "Planets_436890",
    "count_view": 0
  },
  {
    "link_thumb": "https://live.staticflickr.com/65535/50040372547_93e902a3a6_n.jpg",
    "id_album": "-1102314093",
    "description": "Planets_408838",
    "title": "Planets_408838",
    "link_img": "https://live.staticflickr.com/65535/50040372547_ef7d3427ba_o.jpg",
    "id_image": "Planets_408838",
    "count_view": 0
  },
  {
    "link_thumb": "https://live.staticflickr.com/65535/50040157486_8cacb7ed7e_n.jpg",
    "id_album": "376235057",
    "description": "Planetscape_287063",
    "title": "Planetscape_287063",
    "link_img": "https://live.staticflickr.com/65535/50040157486_f935f3b1e9_o.jpg",
    "id_image": "Planetscape_287063",
    "count_view": 0
  },
  {
    "link_thumb": "https://live.staticflickr.com/65535/50039296371_9b89032ea1_n.jpg",
    "id_album": "523598895",
    "description": "Artistic_150991",
    "title": "Artistic_150991",
    "link_img": "https://live.staticflickr.com/65535/50039296371_f8bca3decd_o.jpg",
    "id_image": "Artistic_150991",
    "count_view": 0
  },
  {
    "link_thumb": "https://live.staticflickr.com/65535/50039993297_168571f571_n.jpg",
    "id_album": "1402713104",
    "description": "Landscape_994479",
    "title": "Landscape_994479",
    "link_img": "https://live.staticflickr.com/65535/50039993297_d0e7f87a38_o.jpg",
    "id_image": "Landscape_994479",
    "count_view": 0
  },
  {
    "link_thumb": "https://live.staticflickr.com/65535/50039227576_6f2f6a6d46_n.jpg",
    "id_album": "280884763",
    "description": "Abstract_213828",
    "title": "Abstract_213828",
    "link_img": "https://live.staticflickr.com/65535/50039227576_8d2e8aa4af_o.jpg",
    "id_image": "Abstract_213828",
    "count_view": 0
  },
  {
    "link_thumb": "https://live.staticflickr.com/65535/50039210858_19aaa46e1a_n.jpg",
    "id_album": "-1610342324",
    "description": "Nebula_1011264",
    "title": "Nebula_1011264",
    "link_img": "https://live.staticflickr.com/65535/50039210858_49b0744780_o.jpg",
    "id_image": "Nebula_1011264",
    "count_view": 0
  },
  {
    "link_thumb": "https://live.staticflickr.com/65535/50039291666_87294afc20_n.jpg",
    "id_album": "523598895",
    "description": "Artistic_105298",
    "title": "Artistic_105298",
    "link_img": "https://live.staticflickr.com/65535/50039291666_158cfe1b56_o.jpg",
    "id_image": "Artistic_105298",
    "count_view": 0
  },
  {
    "link_thumb": "https://live.staticflickr.com/65535/50039763967_a3f17f2859_n.jpg",
    "id_album": "-1964113117",
    "description": "City_856858",
    "title": "City_856858",
    "link_img": "https://live.staticflickr.com/65535/50039763967_1bcb7146a6_o.jpg",
    "id_image": "City_856858",
    "count_view": 0
  },
  {
    "link_thumb": "https://live.staticflickr.com/65535/50040363257_0bc2d39a7b_n.jpg",
    "id_album": "-1102314093",
    "description": "Planets_363096",
    "title": "Planets_363096",
    "link_img": "https://live.staticflickr.com/65535/50040363257_3665368aaf_o.jpg",
    "id_image": "Planets_363096",
    "count_view": 0
  },
  {
    "link_thumb": "https://live.staticflickr.com/65535/50039552432_b9f08e0a74_n.jpg",
    "id_album": "-419633230",
    "description": "Apocalyptic_997968",
    "title": "Apocalyptic_997968",
    "link_img": "https://live.staticflickr.com/65535/50039552432_4002d7efe0_o.jpg",
    "id_image": "Apocalyptic_997968",
    "count_view": 0
  },
  {
    "link_thumb": "https://live.staticflickr.com/65535/50040094737_04abf96663_n.jpg",
    "id_album": "-1610342324",
    "description": "Nebula_754658",
    "title": "Nebula_754658",
    "link_img": "https://live.staticflickr.com/65535/50040094737_bc8f85c8de_o.jpg",
    "id_image": "Nebula_754658",
    "count_view": 0
  },
  {
    "link_thumb": "https://live.staticflickr.com/65535/50038833083_7075b24b1b_n.jpg",
    "id_album": "869545341",
    "description": "Astronaut_924286",
    "title": "Astronaut_924286",
    "link_img": "https://live.staticflickr.com/65535/50038833083_ff52a1ba88_o.jpg",
    "id_image": "Astronaut_924286",
    "count_view": 0
  },
  {
    "link_thumb": "https://live.staticflickr.com/65535/50040864628_84d8ec7429_n.jpg",
    "id_album": "2020068132",
    "description": "Vehicle_896230",
    "title": "Vehicle_896230",
    "link_img": "https://live.staticflickr.com/65535/50040864628_c39788b060_o.jpg",
    "id_image": "Vehicle_896230",
    "count_view": 0
  },
  {
    "link_thumb": "https://live.staticflickr.com/65535/50039689167_53645053d3_n.jpg",
    "id_album": "406431601",
    "description": "Building_912993",
    "title": "Building_912993",
    "link_img": "https://live.staticflickr.com/65535/50039689167_81c882ab1c_o.jpg",
    "id_image": "Building_912993",
    "count_view": 0
  },
  {
    "link_thumb": "https://live.staticflickr.com/65535/50039274921_da0c310953_n.jpg",
    "id_album": "849020728",
    "description": "Alien_852647",
    "title": "Alien_852647",
    "link_img": "https://live.staticflickr.com/65535/50039274921_3260221177_o.jpg",
    "id_image": "Alien_852647",
    "count_view": 0
  },
  {
    "link_thumb": "https://live.staticflickr.com/65535/50038810753_4fd44f4910_n.jpg",
    "id_album": "869545341",
    "description": "Astronaut_587343",
    "title": "Astronaut_587343",
    "link_img": "https://live.staticflickr.com/65535/50038810753_ac4bb1828b_o.jpg",
    "id_image": "Astronaut_587343",
    "count_view": 0
  },
  {
    "link_thumb": "https://live.staticflickr.com/65535/50040901073_523786290e_n.jpg",
    "id_album": "-1261420436",
    "description": "Warrior_386012",
    "title": "Warrior_386012",
    "link_img": "https://live.staticflickr.com/65535/50040901073_8deffe721a_o.jpg",
    "id_image": "Warrior_386012",
    "count_view": 0
  },
  {
    "link_thumb": "https://live.staticflickr.com/65535/50041442826_5c9ced1e32_n.jpg",
    "id_album": "-1261420436",
    "description": "Warrior_283438",
    "title": "Warrior_283438",
    "link_img": "https://live.staticflickr.com/65535/50041442826_850222ceda_o.jpg",
    "id_image": "Warrior_283438",
    "count_view": 0
  },
  {
    "link_thumb": "https://live.staticflickr.com/65535/50039438831_64ab853387_n.jpg",
    "id_album": "-1964113117",
    "description": "City_167027",
    "title": "City_167027",
    "link_img": "https://live.staticflickr.com/65535/50039438831_6aed274eb4_o.jpg",
    "id_image": "City_167027",
    "count_view": 0
  },
  {
    "link_thumb": "https://live.staticflickr.com/65535/50039781262_ab243fa03b_n.jpg",
    "id_album": "-1964113117",
    "description": "City_910936",
    "title": "City_910936",
    "link_img": "https://live.staticflickr.com/65535/50039781262_2d62bda94d_o.jpg",
    "id_image": "City_910936",
    "count_view": 0
  },
  {
    "link_thumb": "https://live.staticflickr.com/65535/50039773782_16684e4535_n.jpg",
    "id_album": "-1964113117",
    "description": "City_881696",
    "title": "City_881696",
    "link_img": "https://live.staticflickr.com/65535/50039773782_f27cd6ea94_o.jpg",
    "id_image": "City_881696",
    "count_view": 0
  },
  {
    "link_thumb": "https://live.staticflickr.com/65535/50039590623_a5397f89db_n.jpg",
    "id_album": "-1102314093",
    "description": "Planets_83658",
    "title": "Planets_83658",
    "link_img": "https://live.staticflickr.com/65535/50039590623_8d154ef6de_o.jpg",
    "id_image": "Planets_83658",
    "count_view": 0
  },
  {
    "link_thumb": "https://live.staticflickr.com/65535/50040908828_cd1e67c9c6_n.jpg",
    "id_album": "-1261420436",
    "description": "Warrior_476174",
    "title": "Warrior_476174",
    "link_img": "https://live.staticflickr.com/65535/50040908828_5016715080_o.jpg",
    "id_image": "Warrior_476174",
    "count_view": 0
  },
  {
    "link_thumb": "https://live.staticflickr.com/65535/50039224548_278f4b912c_n.jpg",
    "id_album": "-1610342324",
    "description": "Nebula_2353",
    "title": "Nebula_2353",
    "link_img": "https://live.staticflickr.com/65535/50039224548_d275388e63_o.jpg",
    "id_image": "Nebula_2353",
    "count_view": 0
  },
  {
    "link_thumb": "https://live.staticflickr.com/65535/50040720691_509776d421_n.jpg",
    "id_album": "2130067313",
    "description": "Spaceship_598169",
    "title": "Spaceship_598169",
    "link_img": "https://live.staticflickr.com/65535/50040720691_be1920aa26_o.jpg",
    "id_image": "Spaceship_598169",
    "count_view": 0
  },
  {
    "link_thumb": "https://live.staticflickr.com/65535/50039744402_c005e08fce_n.jpg",
    "id_album": "-1964113117",
    "description": "City_616606",
    "title": "City_616606",
    "link_img": "https://live.staticflickr.com/65535/50039744402_dfae4d8c72_o.jpg",
    "id_image": "City_616606",
    "count_view": 0
  },
  {
    "link_thumb": "https://live.staticflickr.com/65535/50040717947_984bcaf4df_n.jpg",
    "id_album": "779690680",
    "description": "Robot_987589",
    "title": "Robot_987589",
    "link_img": "https://live.staticflickr.com/65535/50040717947_504b691a7f_o.jpg",
    "id_image": "Robot_987589",
    "count_view": 0
  },
  {
    "link_thumb": "https://live.staticflickr.com/65535/50039865218_01a2723b64_n.jpg",
    "id_album": "779690680",
    "description": "Robot_922859",
    "title": "Robot_922859",
    "link_img": "https://live.staticflickr.com/65535/50039865218_22effb90dc_o.jpg",
    "id_image": "Robot_922859",
    "count_view": 0
  },
  {
    "link_thumb": "https://live.staticflickr.com/65535/50041467746_b81b9d16cf_n.jpg",
    "id_album": "-1261420436",
    "description": "Warrior_540054",
    "title": "Warrior_540054",
    "link_img": "https://live.staticflickr.com/65535/50041467746_2a1d929b13_o.jpg",
    "id_image": "Warrior_540054",
    "count_view": 0
  },
  {
    "link_thumb": "https://live.staticflickr.com/65535/50039236163_e868ef5301_n.jpg",
    "id_album": "-1610342324",
    "description": "Nebula_309974",
    "title": "Nebula_309974",
    "link_img": "https://live.staticflickr.com/65535/50039236163_7088d3cede_o.jpg",
    "id_image": "Nebula_309974",
    "count_view": 0
  },
  {
    "link_thumb": "https://live.staticflickr.com/65535/50041594807_2b44957d30_n.jpg",
    "id_album": "1267121215",
    "description": "Steampunk_867813",
    "title": "Steampunk_867813",
    "link_img": "https://live.staticflickr.com/65535/50041594807_7b3e253895_o.jpg",
    "id_image": "Steampunk_867813",
    "count_view": 0
  },
  {
    "link_thumb": "https://live.staticflickr.com/65535/50040376246_1da39238a5_n.jpg",
    "id_album": "779690680",
    "description": "Robot_857302",
    "title": "Robot_857302",
    "link_img": "https://live.staticflickr.com/65535/50040376246_0d06366074_o.jpg",
    "id_image": "Robot_857302",
    "count_view": 0
  },
  {
    "link_thumb": "https://live.staticflickr.com/65535/50040488276_5f6c1f168c_n.jpg",
    "id_album": "1613540653",
    "description": "Space_286987",
    "title": "Space_286987",
    "link_img": "https://live.staticflickr.com/65535/50040488276_408725da30_o.jpg",
    "id_image": "Space_286987",
    "count_view": 0
  },
  {
    "link_thumb": "https://live.staticflickr.com/65535/50039255243_f208754cf2_n.jpg",
    "id_album": "-1610342324",
    "description": "Nebula_533653",
    "title": "Nebula_533653",
    "link_img": "https://live.staticflickr.com/65535/50039255243_319c0d9a3f_o.jpg",
    "id_image": "Nebula_533653",
    "count_view": 0
  },
  {
    "link_thumb": "https://live.staticflickr.com/65535/50039303811_cdac9eb026_n.jpg",
    "id_album": "523598895",
    "description": "Artistic_174223",
    "title": "Artistic_174223",
    "link_img": "https://live.staticflickr.com/65535/50039303811_294df40208_o.jpg",
    "id_image": "Artistic_174223",
    "count_view": 0
  },
  {
    "link_thumb": "https://live.staticflickr.com/65535/50038998438_eaa5126f41_n.jpg",
    "id_album": "-437872736",
    "description": "Creature_196161",
    "title": "Creature_196161",
    "link_img": "https://live.staticflickr.com/65535/50038998438_e100a370e1_o.jpg",
    "id_image": "Creature_196161",
    "count_view": 0
  },
  {
    "link_thumb": "https://live.staticflickr.com/65535/50039515686_b9261d340d_n.jpg",
    "id_album": "-1964113117",
    "description": "City_898623",
    "title": "City_898623",
    "link_img": "https://live.staticflickr.com/65535/50039515686_dbfaaef92b_o.jpg",
    "id_image": "City_898623",
    "count_view": 0
  },
  {
    "link_thumb": "https://live.staticflickr.com/65535/50039288848_83c4740851_n.jpg",
    "id_album": "-1610342324",
    "description": "Nebula_793712",
    "title": "Nebula_793712",
    "link_img": "https://live.staticflickr.com/65535/50039288848_a042f4d022_o.jpg",
    "id_image": "Nebula_793712",
    "count_view": 0
  },
  {
    "link_thumb": "https://live.staticflickr.com/65535/50038738103_2cf552aa28_n.jpg",
    "id_album": "-419633230",
    "description": "Apocalyptic_678101",
    "title": "Apocalyptic_678101",
    "link_img": "https://live.staticflickr.com/65535/50038738103_94aa5ba697_o.jpg",
    "id_image": "Apocalyptic_678101",
    "count_view": 0
  },
  {
    "link_thumb": "https://live.staticflickr.com/65535/50041266726_cfde9545c2_n.jpg",
    "id_album": "-1587696329",
    "description": "Stars_421925",
    "title": "Stars_421925",
    "link_img": "https://live.staticflickr.com/65535/50041266726_975d56eb4f_o.jpg",
    "id_image": "Stars_421925",
    "count_view": 0
  },
  {
    "link_thumb": "https://live.staticflickr.com/65535/50040753187_906bb131bf_n.jpg",
    "id_album": "1613540653",
    "description": "Space_287067",
    "title": "Space_287067",
    "link_img": "https://live.staticflickr.com/65535/50040753187_7ebbd6e1b3_o.jpg",
    "id_image": "Space_287067",
    "count_view": 0
  },
  {
    "link_thumb": "https://live.staticflickr.com/65535/50039510617_2b7d7ae0b2_n.jpg",
    "id_album": "849020728",
    "description": "Alien_17726",
    "title": "Alien_17726",
    "link_img": "https://live.staticflickr.com/65535/50039510617_a76271585d_o.jpg",
    "id_image": "Alien_17726",
    "count_view": 0
  },
  {
    "link_thumb": "https://live.staticflickr.com/65535/50039171473_1b7a2f843e_n.jpg",
    "id_album": "1402713104",
    "description": "Landscape_906137",
    "title": "Landscape_906137",
    "link_img": "https://live.staticflickr.com/65535/50039171473_795d1a99e0_o.jpg",
    "id_image": "Landscape_906137",
    "count_view": 0
  },
  {
    "link_thumb": "https://live.staticflickr.com/65535/50039996046_e56066bfdb_n.jpg",
    "id_album": "1443611160",
    "description": "PlanetRise_121801",
    "title": "PlanetRise_121801",
    "link_img": "https://live.staticflickr.com/65535/50039996046_a46456ab6e_o.jpg",
    "id_image": "PlanetRise_121801",
    "count_view": 0
  },
  {
    "link_thumb": "https://live.staticflickr.com/65535/50039428126_dca4d8d37e_n.jpg",
    "id_album": "406431601",
    "description": "Building_955748",
    "title": "Building_955748",
    "link_img": "https://live.staticflickr.com/65535/50039428126_37fc53c439_o.jpg",
    "id_image": "Building_955748",
    "count_view": 0
  },
  {
    "link_thumb": "https://live.staticflickr.com/65535/50040553947_5db6de7077_n.jpg",
    "id_album": "779690680",
    "description": "Robot_325642",
    "title": "Robot_325642",
    "link_img": "https://live.staticflickr.com/65535/50040553947_1058e8661a_o.jpg",
    "id_image": "Robot_325642",
    "count_view": 0
  },
  {
    "link_thumb": "https://live.staticflickr.com/65535/50039826861_f954a09eb6_n.jpg",
    "id_album": "-1610342324",
    "description": "Nebula_728536",
    "title": "Nebula_728536",
    "link_img": "https://live.staticflickr.com/65535/50039826861_b205b03db3_o.jpg",
    "id_image": "Nebula_728536",
    "count_view": 0
  },
  {
    "link_thumb": "https://live.staticflickr.com/65535/50039006903_d12e58519c_n.jpg",
    "id_album": "-437872736",
    "description": "Creature_387851",
    "title": "Creature_387851",
    "link_img": "https://live.staticflickr.com/65535/50039006903_1e00b5046a_o.jpg",
    "id_image": "Creature_387851",
    "count_view": 0
  },
  {
    "link_thumb": "https://live.staticflickr.com/65535/50039891742_53aa0fa11a_n.jpg",
    "id_album": "1204249541",
    "description": "Galaxy_280753",
    "title": "Galaxy_280753",
    "link_img": "https://live.staticflickr.com/65535/50039891742_e4b2b3727d_o.jpg",
    "id_image": "Galaxy_280753",
    "count_view": 0
  },
  {
    "link_thumb": "https://live.staticflickr.com/65535/50040698028_65ee0f9767_n.jpg",
    "id_album": "-1863373220",
    "description": "StarWars_985650",
    "title": "StarWars_985650",
    "link_img": "https://live.staticflickr.com/65535/50040698028_ddf5ceb1f7_o.jpg",
    "id_image": "StarWars_985650",
    "count_view": 0
  },
  {
    "link_thumb": "https://live.staticflickr.com/65535/50039877152_65c59498c5_n.jpg",
    "id_album": "2104507156",
    "description": "Fantasy_151862",
    "title": "Fantasy_151862",
    "link_img": "https://live.staticflickr.com/65535/50039877152_af567ab83c_o.jpg",
    "id_image": "Fantasy_151862",
    "count_view": 0
  },
  {
    "link_thumb": "https://live.staticflickr.com/65535/50039654486_9553e15a02_n.jpg",
    "id_album": "1204249541",
    "description": "Galaxy_864929",
    "title": "Galaxy_864929",
    "link_img": "https://live.staticflickr.com/65535/50039654486_718c30c31f_o.jpg",
    "id_image": "Galaxy_864929",
    "count_view": 0
  },
  {
    "link_thumb": "https://live.staticflickr.com/65535/50039869332_e869156669_n.jpg",
    "id_album": "651930207",
    "description": "Explosion_1007239",
    "title": "Explosion_1007239",
    "link_img": "https://live.staticflickr.com/65535/50039869332_2ae133ecf9_o.jpg",
    "id_image": "Explosion_1007239",
    "count_view": 0
  },
  {
    "link_thumb": "https://live.staticflickr.com/65535/50039580002_7c32119009_n.jpg",
    "id_album": "523598895",
    "description": "Artistic_222317",
    "title": "Artistic_222317",
    "link_img": "https://live.staticflickr.com/65535/50039580002_bcc4d6a7b9_o.jpg",
    "id_image": "Artistic_222317",
    "count_view": 0
  },
  {
    "link_thumb": "https://live.staticflickr.com/65535/50040002151_4a15fd6d51_n.jpg",
    "id_album": "1443611160",
    "description": "PlanetRise_337274",
    "title": "PlanetRise_337274",
    "link_img": "https://live.staticflickr.com/65535/50040002151_792d5328b3_o.jpg",
    "id_image": "PlanetRise_337274",
    "count_view": 0
  },
  {
    "link_thumb": "https://live.staticflickr.com/65535/50038697088_ca2e1faf7e_n.jpg",
    "id_album": "849020728",
    "description": "Alien_112136",
    "title": "Alien_112136",
    "link_img": "https://live.staticflickr.com/65535/50038697088_8c706f416a_o.jpg",
    "id_image": "Alien_112136",
    "count_view": 0
  },
  {
    "link_thumb": "https://live.staticflickr.com/65535/50039833623_e38a696774_n.jpg",
    "id_album": "779690680",
    "description": "Robot_876300",
    "title": "Robot_876300",
    "link_img": "https://live.staticflickr.com/65535/50039833623_424333139f_o.jpg",
    "id_image": "Robot_876300",
    "count_view": 0
  },
  {
    "link_thumb": "https://live.staticflickr.com/65535/50040300197_b011887ca2_n.jpg",
    "id_album": "814701616",
    "description": "PlanetaryRing_529645",
    "title": "PlanetaryRing_529645",
    "link_img": "https://live.staticflickr.com/65535/50040300197_3db4ec3d50_o.jpg",
    "id_image": "PlanetaryRing_529645",
    "count_view": 0
  },
  {
    "link_thumb": "https://live.staticflickr.com/65535/50040037952_745fa71ea1_n.jpg",
    "id_album": "-1610342324",
    "description": "Nebula_241043",
    "title": "Nebula_241043",
    "link_img": "https://live.staticflickr.com/65535/50040037952_1f3c7b1c07_o.jpg",
    "id_image": "Nebula_241043",
    "count_view": 0
  },
  {
    "link_thumb": "https://live.staticflickr.com/65535/50039742837_bc2949a4cc_n.jpg",
    "id_album": "-1964113117",
    "description": "City_599394",
    "title": "City_599394",
    "link_img": "https://live.staticflickr.com/65535/50039742837_032e33ba0a_o.jpg",
    "id_image": "City_599394",
    "count_view": 0
  },
  {
    "link_thumb": "https://live.staticflickr.com/65535/50039652166_3a416defcf_n.jpg",
    "id_album": "1204249541",
    "description": "Galaxy_738626",
    "title": "Galaxy_738626",
    "link_img": "https://live.staticflickr.com/65535/50039652166_59cdcb0607_o.jpg",
    "id_image": "Galaxy_738626",
    "count_view": 0
  },
  {
    "link_thumb": "https://live.staticflickr.com/65535/50038840983_36dd88061e_n.jpg",
    "id_album": "869545341",
    "description": "Astronaut_979106",
    "title": "Astronaut_979106",
    "link_img": "https://live.staticflickr.com/65535/50038840983_5ff9f98903_o.jpg",
    "id_image": "Astronaut_979106",
    "count_view": 0
  },
  {
    "link_thumb": "https://live.staticflickr.com/65535/50039904512_13fd750bc0_n.jpg",
    "id_album": "1204249541",
    "description": "Galaxy_548006",
    "title": "Galaxy_548006",
    "link_img": "https://live.staticflickr.com/65535/50039904512_947481e8c7_o.jpg",
    "id_image": "Galaxy_548006",
    "count_view": 0
  },
  {
    "link_thumb": "https://live.staticflickr.com/65535/50040289811_3e033a6f52_n.jpg",
    "id_album": "779690680",
    "description": "Robot_325652",
    "title": "Robot_325652",
    "link_img": "https://live.staticflickr.com/65535/50040289811_5b522cb06b_o.jpg",
    "id_image": "Robot_325652",
    "count_view": 0
  },
  {
    "link_thumb": "https://live.staticflickr.com/65535/50039290251_e2fecbde54_n.jpg",
    "id_album": "-419633230",
    "description": "Apocalyptic_959087",
    "title": "Apocalyptic_959087",
    "link_img": "https://live.staticflickr.com/65535/50039290251_71fffb9a87_o.jpg",
    "id_image": "Apocalyptic_959087",
    "count_view": 0
  },
  {
    "link_thumb": "https://live.staticflickr.com/65535/50040428806_66a8ded474_n.jpg",
    "id_album": "779690680",
    "description": "Robot_931799",
    "title": "Robot_931799",
    "link_img": "https://live.staticflickr.com/65535/50040428806_5e600eb5e0_o.jpg",
    "id_image": "Robot_931799",
    "count_view": 0
  },
  {
    "link_thumb": "https://live.staticflickr.com/65535/50041447716_d5df0f6461_n.jpg",
    "id_album": "-1261420436",
    "description": "Warrior_326039",
    "title": "Warrior_326039",
    "link_img": "https://live.staticflickr.com/65535/50041447716_d87650ac38_o.jpg",
    "id_image": "Warrior_326039",
    "count_view": 0
  },
  {
    "link_thumb": "https://live.staticflickr.com/65535/50038967573_0c04283e28_n.jpg",
    "id_album": "-1964113117",
    "description": "City_902605",
    "title": "City_902605",
    "link_img": "https://live.staticflickr.com/65535/50038967573_208d72b5fa_o.jpg",
    "id_image": "City_902605",
    "count_view": 0
  },
  {
    "link_thumb": "https://live.staticflickr.com/65535/50039075483_f7ef8d773b_n.jpg",
    "id_album": "1204249541",
    "description": "Galaxy_155639",
    "title": "Galaxy_155639",
    "link_img": "https://live.staticflickr.com/65535/50039075483_1199cc5d07_o.jpg",
    "id_image": "Galaxy_155639",
    "count_view": 0
  },
  {
    "link_thumb": "https://live.staticflickr.com/65535/50040848632_57937af14f_n.jpg",
    "id_album": "2130067313",
    "description": "Spaceship_169701",
    "title": "Spaceship_169701",
    "link_img": "https://live.staticflickr.com/65535/50040848632_ab79790e0f_o.jpg",
    "id_image": "Spaceship_169701",
    "count_view": 0
  },
  {
    "link_thumb": "https://live.staticflickr.com/65535/50040201657_346430a541_n.jpg",
    "id_album": "395161030",
    "description": "Planet_363682",
    "title": "Planet_363682",
    "link_img": "https://live.staticflickr.com/65535/50040201657_b2ccbe537b_o.jpg",
    "id_image": "Planet_363682",
    "count_view": 0
  },
  {
    "link_thumb": "https://live.staticflickr.com/65535/50041845847_0ef8cd8134_n.jpg",
    "id_album": "-1675918237",
    "description": "WomenWarrior_603751",
    "title": "WomenWarrior_603751",
    "link_img": "https://live.staticflickr.com/65535/50041845847_461beb6118_o.jpg",
    "id_image": "WomenWarrior_603751",
    "count_view": 0
  },
  {
    "link_thumb": "https://live.staticflickr.com/65535/50041385686_2574c6d56f_n.jpg",
    "id_album": "2020068132",
    "description": "Vehicle_304664",
    "title": "Vehicle_304664",
    "link_img": "https://live.staticflickr.com/65535/50041385686_54edee4cc4_o.jpg",
    "id_image": "Vehicle_304664",
    "count_view": 0
  },
  {
    "link_thumb": "https://live.staticflickr.com/65535/50040086737_3c84f22486_n.jpg",
    "id_album": "-1610342324",
    "description": "Nebula_699332",
    "title": "Nebula_699332",
    "link_img": "https://live.staticflickr.com/65535/50040086737_1725800d53_o.jpg",
    "id_image": "Nebula_699332",
    "count_view": 0
  },
  {
    "link_thumb": "https://live.staticflickr.com/65535/50039009548_ce2f9bbabc_n.jpg",
    "id_album": "-437872736",
    "description": "Creature_526743",
    "title": "Creature_526743",
    "link_img": "https://live.staticflickr.com/65535/50039009548_6f30aa5cf0_o.jpg",
    "id_image": "Creature_526743",
    "count_view": 0
  },
  {
    "link_thumb": "https://live.staticflickr.com/65535/50039540046_3e8a3123ac_n.jpg",
    "id_album": "894679094",
    "description": "Collision_353147",
    "title": "Collision_353147",
    "link_img": "https://live.staticflickr.com/65535/50039540046_dbc4804e44_o.jpg",
    "id_image": "Collision_353147",
    "count_view": 0
  },
  {
    "link_thumb": "https://live.staticflickr.com/65535/50041325101_ac8d31aedb_n.jpg",
    "id_album": "1267121215",
    "description": "Steampunk_655447",
    "title": "Steampunk_655447",
    "link_img": "https://live.staticflickr.com/65535/50041325101_fbe50a6bb3_o.jpg",
    "id_image": "Steampunk_655447",
    "count_view": 0
  },
  {
    "link_thumb": "https://live.staticflickr.com/65535/50040652212_0d8182071e_n.jpg",
    "id_album": "779690680",
    "description": "Robot_877464",
    "title": "Robot_877464",
    "link_img": "https://live.staticflickr.com/65535/50040652212_dd1dd37024_o.jpg",
    "id_image": "Robot_877464",
    "count_view": 0
  },
  {
    "link_thumb": "https://live.staticflickr.com/65535/50039145673_dc4740ec82_n.jpg",
    "id_album": "1402713104",
    "description": "Landscape_559165",
    "title": "Landscape_559165",
    "link_img": "https://live.staticflickr.com/65535/50039145673_e65b3cb4fb_o.jpg",
    "id_image": "Landscape_559165",
    "count_view": 0
  },
  {
    "link_thumb": "https://live.staticflickr.com/65535/50041265006_8ac801e027_n.jpg",
    "id_album": "-1587696329",
    "description": "Stars_3979",
    "title": "Stars_3979",
    "link_img": "https://live.staticflickr.com/65535/50041265006_a69ab06147_o.jpg",
    "id_image": "Stars_3979",
    "count_view": 0
  },
  {
    "link_thumb": "https://live.staticflickr.com/65535/50041442072_e3393faabe_n.jpg",
    "id_album": "-1863373220",
    "description": "StarWars_420414",
    "title": "StarWars_420414",
    "link_img": "https://live.staticflickr.com/65535/50041442072_bd5fde368a_o.jpg",
    "id_image": "StarWars_420414",
    "count_view": 0
  },
  {
    "link_thumb": "https://live.staticflickr.com/65535/50041557526_42c13be91d_n.jpg",
    "id_album": "-1675918237",
    "description": "WomenWarrior_186067",
    "title": "WomenWarrior_186067",
    "link_img": "https://live.staticflickr.com/65535/50041557526_7777f0c5f4_o.jpg",
    "id_image": "WomenWarrior_186067",
    "count_view": 0
  },
  {
    "link_thumb": "https://live.staticflickr.com/65535/50041495786_1bb1786ed0_n.jpg",
    "id_album": "-1261420436",
    "description": "Warrior_955774",
    "title": "Warrior_955774",
    "link_img": "https://live.staticflickr.com/65535/50041495786_6229111aca_o.jpg",
    "id_image": "Warrior_955774",
    "count_view": 0
  },
  {
    "link_thumb": "https://live.staticflickr.com/65535/50040571567_37c3b9d85e_n.jpg",
    "id_album": "779690680",
    "description": "Robot_423178",
    "title": "Robot_423178",
    "link_img": "https://live.staticflickr.com/65535/50040571567_4714004f1c_o.jpg",
    "id_image": "Robot_423178",
    "count_view": 0
  },
  {
    "link_thumb": "https://live.staticflickr.com/65535/50039301128_8d7fa3a512_n.jpg",
    "id_album": "-1610342324",
    "description": "Nebula_899657",
    "title": "Nebula_899657",
    "link_img": "https://live.staticflickr.com/65535/50039301128_e499c2fb23_o.jpg",
    "id_image": "Nebula_899657",
    "count_view": 0
  },
  {
    "link_thumb": "https://live.staticflickr.com/65535/50040496476_018e06bbe5_n.jpg",
    "id_album": "1613540653",
    "description": "Space_335520",
    "title": "Space_335520",
    "link_img": "https://live.staticflickr.com/65535/50040496476_267a13fe41_o.jpg",
    "id_image": "Space_335520",
    "count_view": 0
  },
  {
    "link_thumb": "https://live.staticflickr.com/65535/50038725658_434f282407_n.jpg",
    "id_album": "849020728",
    "description": "Alien_709717",
    "title": "Alien_709717",
    "link_img": "https://live.staticflickr.com/65535/50038725658_beea5bb32c_o.jpg",
    "id_image": "Alien_709717",
    "count_view": 0
  },
  {
    "link_thumb": "https://live.staticflickr.com/65535/50039785886_191e13f867_n.jpg",
    "id_album": "-1610342324",
    "description": "Nebula_312860",
    "title": "Nebula_312860",
    "link_img": "https://live.staticflickr.com/65535/50039785886_cee83abbb0_o.jpg",
    "id_image": "Nebula_312860",
    "count_view": 0
  },
  {
    "link_thumb": "https://live.staticflickr.com/65535/50039589892_381af01845_n.jpg",
    "id_album": "523598895",
    "description": "Artistic_312013",
    "title": "Artistic_312013",
    "link_img": "https://live.staticflickr.com/65535/50039589892_3686a310d3_o.jpg",
    "id_image": "Artistic_312013",
    "count_view": 0
  },
  {
    "link_thumb": "https://live.staticflickr.com/65535/50038784683_695071f981_n.jpg",
    "id_album": "523598895",
    "description": "Artistic_388044",
    "title": "Artistic_388044",
    "link_img": "https://live.staticflickr.com/65535/50038784683_1d8175e7f4_o.jpg",
    "id_image": "Artistic_388044",
    "count_view": 0
  },
  {
    "link_thumb": "https://live.staticflickr.com/65535/50041684232_9e2343ce16_n.jpg",
    "id_album": "2020068132",
    "description": "Vehicle_944731",
    "title": "Vehicle_944731",
    "link_img": "https://live.staticflickr.com/65535/50041684232_56b2c0ca91_o.jpg",
    "id_image": "Vehicle_944731",
    "count_view": 0
  },
  {
    "link_thumb": "https://live.staticflickr.com/65535/50039487013_30b421a501_n.jpg",
    "id_album": "814701616",
    "description": "PlanetaryRing_533959",
    "title": "PlanetaryRing_533959",
    "link_img": "https://live.staticflickr.com/65535/50039487013_64b42a06fe_o.jpg",
    "id_image": "PlanetaryRing_533959",
    "count_view": 0
  },
  {
    "link_thumb": "https://live.staticflickr.com/65535/50040325577_b3cd823c64_n.jpg",
    "id_album": "-1102314093",
    "description": "Planets_230082",
    "title": "Planets_230082",
    "link_img": "https://live.staticflickr.com/65535/50040325577_09d41c5938_o.jpg",
    "id_image": "Planets_230082",
    "count_view": 0
  },
  {
    "link_thumb": "https://live.staticflickr.com/65535/50040039368_50c7315103_n.jpg",
    "id_album": "2130067313",
    "description": "Spaceship_191663",
    "title": "Spaceship_191663",
    "link_img": "https://live.staticflickr.com/65535/50040039368_39f76fae06_o.jpg",
    "id_image": "Spaceship_191663",
    "count_view": 0
  },
  {
    "link_thumb": "https://live.staticflickr.com/65535/50039839628_42f9381d6b_n.jpg",
    "id_album": "779690680",
    "description": "Robot_884808",
    "title": "Robot_884808",
    "link_img": "https://live.staticflickr.com/65535/50039839628_ecac9bda29_o.jpg",
    "id_image": "Robot_884808",
    "count_view": 0
  },
  {
    "link_thumb": "https://live.staticflickr.com/65535/50041273821_2326b25e60_n.jpg",
    "id_album": "-1587696329",
    "description": "Stars_547703",
    "title": "Stars_547703",
    "link_img": "https://live.staticflickr.com/65535/50041273821_bca88e8b62_o.jpg",
    "id_image": "Stars_547703",
    "count_view": 0
  },
  {
    "link_thumb": "https://live.staticflickr.com/65535/50040004552_88aea9aa9e_n.jpg",
    "id_album": "-1388385651",
    "description": "MilkyWay_706097",
    "title": "MilkyWay_706097",
    "link_img": "https://live.staticflickr.com/65535/50040004552_cd84934463_o.jpg",
    "id_image": "MilkyWay_706097",
    "count_view": 0
  },
  {
    "link_thumb": "https://live.staticflickr.com/65535/50039426136_9253535105_n.jpg",
    "id_album": "406431601",
    "description": "Building_906354",
    "title": "Building_906354",
    "link_img": "https://live.staticflickr.com/65535/50039426136_03102dd818_o.jpg",
    "id_image": "Building_906354",
    "count_view": 0
  },
  {
    "link_thumb": "https://live.staticflickr.com/65535/50038812548_0bc4ea5655_n.jpg",
    "id_album": "869545341",
    "description": "Astronaut_602157",
    "title": "Astronaut_602157",
    "link_img": "https://live.staticflickr.com/65535/50038812548_e353cb0c45_o.jpg",
    "id_image": "Astronaut_602157",
    "count_view": 0
  },
  {
    "link_thumb": "https://live.staticflickr.com/65535/50040049032_c075c1a043_n.jpg",
    "id_album": "-1610342324",
    "description": "Nebula_306914",
    "title": "Nebula_306914",
    "link_img": "https://live.staticflickr.com/65535/50040049032_77da83052d_o.jpg",
    "id_image": "Nebula_306914",
    "count_view": 0
  },
  {
    "link_thumb": "https://live.staticflickr.com/65535/50040409786_1014698c6f_n.jpg",
    "id_album": "779690680",
    "description": "Robot_913016",
    "title": "Robot_913016",
    "link_img": "https://live.staticflickr.com/65535/50040409786_052a050818_o.jpg",
    "id_image": "Robot_913016",
    "count_view": 0
  },
  {
    "link_thumb": "https://live.staticflickr.com/65535/50040121297_b8da111f68_n.jpg",
    "id_album": "-1610342324",
    "description": "Nebula_944013",
    "title": "Nebula_944013",
    "link_img": "https://live.staticflickr.com/65535/50040121297_04d7c5fa2c_o.jpg",
    "id_image": "Nebula_944013",
    "count_view": 0
  },
  {
    "link_thumb": "https://live.staticflickr.com/65535/50039607266_0b28ca3ebe_n.jpg",
    "id_album": "651930207",
    "description": "Explosion_127961",
    "title": "Explosion_127961",
    "link_img": "https://live.staticflickr.com/65535/50039607266_1b25afd6d5_o.jpg",
    "id_image": "Explosion_127961",
    "count_view": 0
  },
  {
    "link_thumb": "https://live.staticflickr.com/65535/50039788876_2dafc3c8c4_n.jpg",
    "id_album": "-1610342324",
    "description": "Nebula_375092",
    "title": "Nebula_375092",
    "link_img": "https://live.staticflickr.com/65535/50039788876_4fdaf184d7_o.jpg",
    "id_image": "Nebula_375092",
    "count_view": 0
  },
  {
    "link_thumb": "https://live.staticflickr.com/65535/50038773843_d7423edf4f_n.jpg",
    "id_album": "523598895",
    "description": "Artistic_236641",
    "title": "Artistic_236641",
    "link_img": "https://live.staticflickr.com/65535/50038773843_51793fe1fd_o.jpg",
    "id_image": "Artistic_236641",
    "count_view": 0
  },
  {
    "link_thumb": "https://live.staticflickr.com/65535/50039902732_a29157ac93_n.jpg",
    "id_album": "1204249541",
    "description": "Galaxy_529455",
    "title": "Galaxy_529455",
    "link_img": "https://live.staticflickr.com/65535/50039902732_21b73e2afe_o.jpg",
    "id_image": "Galaxy_529455",
    "count_view": 0
  },
  {
    "link_thumb": "https://live.staticflickr.com/65535/50039893707_27a10ce67b_n.jpg",
    "id_album": "1204249541",
    "description": "Galaxy_324687",
    "title": "Galaxy_324687",
    "link_img": "https://live.staticflickr.com/65535/50039893707_d8bc3a3072_o.jpg",
    "id_image": "Galaxy_324687",
    "count_view": 0
  },
  {
    "link_thumb": "https://live.staticflickr.com/65535/50039078763_28f0f61bd5_n.jpg",
    "id_album": "1204249541",
    "description": "Galaxy_24849",
    "title": "Galaxy_24849",
    "link_img": "https://live.staticflickr.com/65535/50039078763_59a26f2904_o.jpg",
    "id_image": "Galaxy_24849",
    "count_view": 0
  },
  {
    "link_thumb": "https://live.staticflickr.com/65535/50040509132_bfdc31c2d0_n.jpg",
    "id_album": "-839602625",
    "description": "Predator_494190",
    "title": "Predator_494190",
    "link_img": "https://live.staticflickr.com/65535/50040509132_ed21eed3db_o.jpg",
    "id_image": "Predator_494190",
    "count_view": 0
  },
  {
    "link_thumb": "https://live.staticflickr.com/65535/50040725792_13c1fcff0a_n.jpg",
    "id_album": "1613540653",
    "description": "Space_1008435",
    "title": "Space_1008435",
    "link_img": "https://live.staticflickr.com/65535/50040725792_a499983ce5_o.jpg",
    "id_image": "Space_1008435",
    "count_view": 0
  },
  {
    "link_thumb": "https://live.staticflickr.com/65535/50041492311_157fd56107_n.jpg",
    "id_album": "-1261420436",
    "description": "Warrior_893431",
    "title": "Warrior_893431",
    "link_img": "https://live.staticflickr.com/65535/50041492311_e305695e79_o.jpg",
    "id_image": "Warrior_893431",
    "count_view": 0
  },
  {
    "link_thumb": "https://live.staticflickr.com/65535/50040609553_9f17c910d3_n.jpg",
    "id_album": "-1863373220",
    "description": "StarWars_306427",
    "title": "StarWars_306427",
    "link_img": "https://live.staticflickr.com/65535/50040609553_f96767415b_o.jpg",
    "id_image": "StarWars_306427",
    "count_view": 0
  },
  {
    "link_thumb": "https://live.staticflickr.com/65535/50039764576_fc9951e53d_n.jpg",
    "id_album": "-1610342324",
    "description": "Nebula_175208",
    "title": "Nebula_175208",
    "link_img": "https://live.staticflickr.com/65535/50039764576_da55c34015_o.jpg",
    "id_image": "Nebula_175208",
    "count_view": 0
  },
  {
    "link_thumb": "https://live.staticflickr.com/65535/50039646867_fd5082eae5_n.jpg",
    "id_album": "869545341",
    "description": "Astronaut_957347",
    "title": "Astronaut_957347",
    "link_img": "https://live.staticflickr.com/65535/50039646867_27999c2455_o.jpg",
    "id_image": "Astronaut_957347",
    "count_view": 0
  },
  {
    "link_thumb": "https://live.staticflickr.com/65535/50041461362_4c5c4d24d4_n.jpg",
    "id_album": "-1863373220",
    "description": "StarWars_589969",
    "title": "StarWars_589969",
    "link_img": "https://live.staticflickr.com/65535/50041461362_2f00aa03d9_o.jpg",
    "id_image": "StarWars_589969",
    "count_view": 0
  },
  {
    "link_thumb": "https://live.staticflickr.com/65535/50040063007_8b5414d57d_n.jpg",
    "id_album": "-1610342324",
    "description": "Nebula_459200",
    "title": "Nebula_459200",
    "link_img": "https://live.staticflickr.com/65535/50040063007_45af30bbfd_o.jpg",
    "id_image": "Nebula_459200",
    "count_view": 0
  },
  {
    "link_thumb": "https://live.staticflickr.com/65535/50039934901_aabe100fff_n.jpg",
    "id_album": "395161030",
    "description": "Planet_359430",
    "title": "Planet_359430",
    "link_img": "https://live.staticflickr.com/65535/50039934901_5c8b89e73e_o.jpg",
    "id_image": "Planet_359430",
    "count_view": 0
  },
  {
    "link_thumb": "https://live.staticflickr.com/65535/50040105851_112b620dd5_n.jpg",
    "id_album": "-1102314093",
    "description": "Planets_393960",
    "title": "Planets_393960",
    "link_img": "https://live.staticflickr.com/65535/50040105851_ba4bf4dd32_o.jpg",
    "id_image": "Planets_393960",
    "count_view": 0
  },
  {
    "link_thumb": "https://live.staticflickr.com/65535/50040325762_3801f352c0_n.jpg",
    "id_album": "-1102314093",
    "description": "Planets_232246",
    "title": "Planets_232246",
    "link_img": "https://live.staticflickr.com/65535/50040325762_0549766cf6_o.jpg",
    "id_image": "Planets_232246",
    "count_view": 0
  },
  {
    "link_thumb": "https://live.staticflickr.com/65535/50039885988_64343aa07e_n.jpg",
    "id_album": "779690680",
    "description": "Robot_949786",
    "title": "Robot_949786",
    "link_img": "https://live.staticflickr.com/65535/50039885988_76b6ddaa08_o.jpg",
    "id_image": "Robot_949786",
    "count_view": 0
  },
  {
    "link_thumb": "https://live.staticflickr.com/65535/50039869468_714a4c991d_n.jpg",
    "id_album": "779690680",
    "description": "Robot_928581",
    "title": "Robot_928581",
    "link_img": "https://live.staticflickr.com/65535/50039869468_351aaf21a9_o.jpg",
    "id_image": "Robot_928581",
    "count_view": 0
  },
  {
    "link_thumb": "https://live.staticflickr.com/65535/50041534947_fe70e54667_n.jpg",
    "id_album": "-1587696329",
    "description": "Stars_477456",
    "title": "Stars_477456",
    "link_img": "https://live.staticflickr.com/65535/50041534947_9b29b35ecd_o.jpg",
    "id_image": "Stars_477456",
    "count_view": 0
  },
  {
    "link_thumb": "https://live.staticflickr.com/65535/50039769011_015201195a_n.jpg",
    "id_album": "-1610342324",
    "description": "Nebula_205884",
    "title": "Nebula_205884",
    "link_img": "https://live.staticflickr.com/65535/50039769011_fce77faeaf_o.jpg",
    "id_image": "Nebula_205884",
    "count_view": 0
  },
  {
    "link_thumb": "https://live.staticflickr.com/65535/50040027082_2b1cf932b9_n.jpg",
    "id_album": "-1610342324",
    "description": "Nebula_15778",
    "title": "Nebula_15778",
    "link_img": "https://live.staticflickr.com/65535/50040027082_4a33495875_o.jpg",
    "id_image": "Nebula_15778",
    "count_view": 0
  },
  {
    "link_thumb": "https://live.staticflickr.com/65535/50039679113_ef8179783b_n.jpg",
    "id_album": "-482547208",
    "description": "PostApocalyptic_931808",
    "title": "PostApocalyptic_931808",
    "link_img": "https://live.staticflickr.com/65535/50039679113_fa291e2157_o.jpg",
    "id_image": "PostApocalyptic_931808",
    "count_view": 0
  },
  {
    "link_thumb": "https://live.staticflickr.com/65535/50039781271_a6a87ebd94_n.jpg",
    "id_album": "-1610342324",
    "description": "Nebula_284522",
    "title": "Nebula_284522",
    "link_img": "https://live.staticflickr.com/65535/50039781271_dfc7131b43_o.jpg",
    "id_image": "Nebula_284522",
    "count_view": 0
  },
  {
    "link_thumb": "https://live.staticflickr.com/65535/50040072037_8b9d7d5048_n.jpg",
    "id_album": "-1610342324",
    "description": "Nebula_555187",
    "title": "Nebula_555187",
    "link_img": "https://live.staticflickr.com/65535/50040072037_04ff30503a_o.jpg",
    "id_image": "Nebula_555187",
    "count_view": 0
  },
  {
    "link_thumb": "https://live.staticflickr.com/65535/50039025743_a40a0c7867_n.jpg",
    "id_album": "829169633",
    "description": "Cyborg_1010375",
    "title": "Cyborg_1010375",
    "link_img": "https://live.staticflickr.com/65535/50039025743_4e62b62ab8_o.jpg",
    "id_image": "Cyborg_1010375",
    "count_view": 0
  },
  {
    "link_thumb": "https://live.staticflickr.com/65535/50040513677_3d95247660_n.jpg",
    "id_album": "779690680",
    "description": "Robot_1010868",
    "title": "Robot_1010868",
    "link_img": "https://live.staticflickr.com/65535/50040513677_0984748e1a_o.jpg",
    "id_image": "Robot_1010868",
    "count_view": 0
  },
  {
    "link_thumb": "https://live.staticflickr.com/65535/50039302713_dba6991e92_n.jpg",
    "id_album": "-1610342324",
    "description": "Nebula_921276",
    "title": "Nebula_921276",
    "link_img": "https://live.staticflickr.com/65535/50039302713_ec05403177_o.jpg",
    "id_image": "Nebula_921276",
    "count_view": 0
  },
  {
    "link_thumb": "https://live.staticflickr.com/65535/50039777586_4e05c6b627_n.jpg",
    "id_album": "-1610342324",
    "description": "Nebula_2542",
    "title": "Nebula_2542",
    "link_img": "https://live.staticflickr.com/65535/50039777586_b88aa863dd_o.jpg",
    "id_image": "Nebula_2542",
    "count_view": 0
  },
  {
    "link_thumb": "https://live.staticflickr.com/65535/50040684423_0010400ef2_n.jpg",
    "id_album": "-1863373220",
    "description": "StarWars_900345",
    "title": "StarWars_900345",
    "link_img": "https://live.staticflickr.com/65535/50040684423_401dd2e3fa_o.jpg",
    "id_image": "StarWars_900345",
    "count_view": 0
  },
  {
    "link_thumb": "https://live.staticflickr.com/65535/50039273071_f3b244598e_n.jpg",
    "id_album": "849020728",
    "description": "Alien_666704",
    "title": "Alien_666704",
    "link_img": "https://live.staticflickr.com/65535/50039273071_3e2f750b5e_o.jpg",
    "id_image": "Alien_666704",
    "count_view": 0
  },
  {
    "link_thumb": "https://live.staticflickr.com/65535/50040171481_6e7637862e_n.jpg",
    "id_album": "376235057",
    "description": "Planetscape_390160",
    "title": "Planetscape_390160",
    "link_img": "https://live.staticflickr.com/65535/50040171481_b2f2dfdbd8_o.jpg",
    "id_image": "Planetscape_390160",
    "count_view": 0
  },
  {
    "link_thumb": "https://live.staticflickr.com/65535/50040085946_e2e157dc7c_n.jpg",
    "id_album": "-1102314093",
    "description": "Planets_333001",
    "title": "Planets_333001",
    "link_img": "https://live.staticflickr.com/65535/50040085946_e61175d46f_o.jpg",
    "id_image": "Planets_333001",
    "count_view": 0
  },
  {
    "link_thumb": "https://live.staticflickr.com/65535/50039643638_1b2e3c7d12_n.jpg",
    "id_album": "-482547208",
    "description": "PostApocalyptic_210815",
    "title": "PostApocalyptic_210815",
    "link_img": "https://live.staticflickr.com/65535/50039643638_481e6a5c6e_o.jpg",
    "id_image": "PostApocalyptic_210815",
    "count_view": 0
  },
  {
    "link_thumb": "https://live.staticflickr.com/65535/50040398111_4fd9fa165f_n.jpg",
    "id_album": "779690680",
    "description": "Robot_898627",
    "title": "Robot_898627",
    "link_img": "https://live.staticflickr.com/65535/50040398111_844e13fc84_o.jpg",
    "id_image": "Robot_898627",
    "count_view": 0
  }
]