[
  {
    "link_thumb": "https://live.staticflickr.com/65535/50039446901_e7eb2d6aff_n.jpg",
    "id_album": "-1964113117",
    "description": "City_213528",
    "title": "City_213528",
    "link_img": "https://live.staticflickr.com/65535/50039446901_d38abc3060_o.jpg",
    "id_image": "City_213528",
    "count_view": 0
  },
  {
    "link_thumb": "https://live.staticflickr.com/65535/50041844932_fab888606c_n.jpg",
    "id_album": "-1675918237",
    "description": "WomenWarrior_600019",
    "title": "WomenWarrior_600019",
    "link_img": "https://live.staticflickr.com/65535/50041844932_40d5eefa69_o.jpg",
    "id_image": "WomenWarrior_600019",
    "count_view": 0
  },
  {
    "link_thumb": "https://live.staticflickr.com/65535/50040214857_a7d3409e4b_n.jpg",
    "id_album": "395161030",
    "description": "Planet_450504",
    "title": "Planet_450504",
    "link_img": "https://live.staticflickr.com/65535/50040214857_0089e54cd0_o.jpg",
    "id_image": "Planet_450504",
    "count_view": 0
  },
  {
    "link_thumb": "https://live.staticflickr.com/65535/50040164536_d778df13d8_n.jpg",
    "id_album": "376235057",
    "description": "Planetscape_355911",
    "title": "Planetscape_355911",
    "link_img": "https://live.staticflickr.com/65535/50040164536_374aa2ec4d_o.jpg",
    "id_image": "Planetscape_355911",
    "count_view": 0
  },
  {
    "link_thumb": "https://live.staticflickr.com/65535/50039869468_714a4c991d_n.jpg",
    "id_album": "779690680",
    "description": "Robot_928581",
    "title": "Robot_928581",
    "link_img": "https://live.staticflickr.com/65535/50039869468_351aaf21a9_o.jpg",
    "id_image": "Robot_928581",
    "count_view": 0
  },
  {
    "link_thumb": "https://live.staticflickr.com/65535/50040105371_f38edf25d6_n.jpg",
    "id_album": "-1102314093",
    "description": "Planets_393895",
    "title": "Planets_393895",
    "link_img": "https://live.staticflickr.com/65535/50040105371_c922fa9262_o.jpg",
    "id_image": "Planets_393895",
    "count_view": 0
  },
  {
    "link_thumb": "https://live.staticflickr.com/65535/50038972038_1ae4180a64_n.jpg",
    "id_album": "-1964113117",
    "description": "City_915616",
    "title": "City_915616",
    "link_img": "https://live.staticflickr.com/65535/50038972038_f63fa86209_o.jpg",
    "id_image": "City_915616",
    "count_view": 0
  },
  {
    "link_thumb": "https://live.staticflickr.com/65535/50040435282_d7ddb374cf_n.jpg",
    "id_album": "376235057",
    "description": "Planetscape_383294",
    "title": "Planetscape_383294",
    "link_img": "https://live.staticflickr.com/65535/50040435282_617a5e9243_o.jpg",
    "id_image": "Planetscape_383294",
    "count_view": 0
  },
  {
    "link_thumb": "https://live.staticflickr.com/65535/50040572883_058dc861a4_n.jpg",
    "id_album": "-1863373220",
    "description": "StarWars_199542",
    "title": "StarWars_199542",
    "link_img": "https://live.staticflickr.com/65535/50040572883_55a5bbd7d1_o.jpg",
    "id_image": "StarWars_199542",
    "count_view": 0
  },
  {
    "link_thumb": "https://live.staticflickr.com/65535/50040812583_902348c3d1_n.jpg",
    "id_album": "-1177476763",
    "description": "Sunrise_464557",
    "title": "Sunrise_464557",
    "link_img": "https://live.staticflickr.com/65535/50040812583_dca425bf30_o.jpg",
    "id_image": "Sunrise_464557",
    "count_view": 0
  },
  {
    "link_thumb": "https://live.staticflickr.com/65535/50038731393_b04646cea1_n.jpg",
    "id_album": "-419633230",
    "description": "Apocalyptic_158914",
    "title": "Apocalyptic_158914",
    "link_img": "https://live.staticflickr.com/65535/50038731393_67ea498edd_o.jpg",
    "id_image": "Apocalyptic_158914",
    "count_view": 0
  },
  {
    "link_thumb": "https://live.staticflickr.com/65535/50041585921_c9bc3acef7_n.jpg",
    "id_album": "-1675918237",
    "description": "WomenWarrior_631691",
    "title": "WomenWarrior_631691",
    "link_img": "https://live.staticflickr.com/65535/50041585921_ffb6a81ecc_o.jpg",
    "id_image": "WomenWarrior_631691",
    "count_view": 0
  },
  {
    "link_thumb": "https://live.staticflickr.com/65535/50041461362_4c5c4d24d4_n.jpg",
    "id_album": "-1863373220",
    "description": "StarWars_589969",
    "title": "StarWars_589969",
    "link_img": "https://live.staticflickr.com/65535/50041461362_2f00aa03d9_o.jpg",
    "id_image": "StarWars_589969",
    "count_view": 0
  },
  {
    "link_thumb": "https://live.staticflickr.com/65535/50039887288_18e3f741b1_n.jpg",
    "id_album": "779690680",
    "description": "Robot_949796",
    "title": "Robot_949796",
    "link_img": "https://live.staticflickr.com/65535/50039887288_9ceee63af9_o.jpg",
    "id_image": "Robot_949796",
    "count_view": 0
  },
  {
    "link_thumb": "https://live.staticflickr.com/65535/50040530471_e0d531acaa_n.jpg",
    "id_album": "1613540653",
    "description": "Space_694467",
    "title": "Space_694467",
    "link_img": "https://live.staticflickr.com/65535/50040530471_4a1440dbea_o.jpg",
    "id_image": "Space_694467",
    "count_view": 0
  },
  {
    "link_thumb": "https://live.staticflickr.com/65535/50039286723_f99b3a9bbc_n.jpg",
    "id_album": "-1610342324",
    "description": "Nebula_783901",
    "title": "Nebula_783901",
    "link_img": "https://live.staticflickr.com/65535/50039286723_7846b9c3d1_o.jpg",
    "id_image": "Nebula_783901",
    "count_view": 0
  },
  {
    "link_thumb": "https://live.staticflickr.com/65535/50038809993_9516569c0d_n.jpg",
    "id_album": "869545341",
    "description": "Astronaut_565696",
    "title": "Astronaut_565696",
    "link_img": "https://live.staticflickr.com/65535/50038809993_4e6ab6d073_o.jpg",
    "id_image": "Astronaut_565696",
    "count_view": 0
  },
  {
    "link_thumb": "https://live.staticflickr.com/65535/50039789162_349724e90c_n.jpg",
    "id_album": "-1964113117",
    "description": "City_957074",
    "title": "City_957074",
    "link_img": "https://live.staticflickr.com/65535/50039789162_19a98d2e62_o.jpg",
    "id_image": "City_957074",
    "count_view": 0
  },
  {
    "link_thumb": "https://live.staticflickr.com/65535/50039970022_51f08f1ac5_n.jpg",
    "id_album": "1402713104",
    "description": "Landscape_782626",
    "title": "Landscape_782626",
    "link_img": "https://live.staticflickr.com/65535/50039970022_ee5b71364e_o.jpg",
    "id_image": "Landscape_782626",
    "count_view": 0
  },
  {
    "link_thumb": "https://live.staticflickr.com/65535/50039410941_27e0b117b3_n.jpg",
    "id_album": "-1780971522",
    "description": "Biohazard_189834",
    "title": "Biohazard_189834",
    "link_img": "https://live.staticflickr.com/65535/50039410941_11d852306e_o.jpg",
    "id_image": "Biohazard_189834",
    "count_view": 0
  },
  {
    "link_thumb": "https://live.staticflickr.com/65535/50039460048_48de866866_n.jpg",
    "id_album": "1443611160",
    "description": "PlanetRise_685295",
    "title": "PlanetRise_685295",
    "link_img": "https://live.staticflickr.com/65535/50039460048_c42c4c93be_o.jpg",
    "id_image": "PlanetRise_685295",
    "count_view": 0
  },
  {
    "link_thumb": "https://live.staticflickr.com/65535/50039614182_ecbb5986d6_n.jpg",
    "id_album": "869545341",
    "description": "Astronaut_238542",
    "title": "Astronaut_238542",
    "link_img": "https://live.staticflickr.com/65535/50039614182_5f480e4b5a_o.jpg",
    "id_image": "Astronaut_238542",
    "count_view": 0
  },
  {
    "link_thumb": "https://live.staticflickr.com/65535/50039818881_f3a8c3d09e_n.jpg",
    "id_album": "-1610342324",
    "description": "Nebula_635944",
    "title": "Nebula_635944",
    "link_img": "https://live.staticflickr.com/65535/50039818881_b6aa025bce_o.jpg",
    "id_image": "Nebula_635944",
    "count_view": 0
  },
  {
    "link_thumb": "https://live.staticflickr.com/65535/50039774087_6f2d66117d_n.jpg",
    "id_album": "-1964113117",
    "description": "City_883152",
    "title": "City_883152",
    "link_img": "https://live.staticflickr.com/65535/50039774087_7c905d4156_o.jpg",
    "id_image": "City_883152",
    "count_view": 0
  },
  {
    "link_thumb": "https://live.staticflickr.com/65535/50041389372_d98a541f5a_n.jpg",
    "id_album": "-1863373220",
    "description": "StarWars_201769",
    "title": "StarWars_201769",
    "link_img": "https://live.staticflickr.com/65535/50041389372_c463534a8d_o.jpg",
    "id_image": "StarWars_201769",
    "count_view": 0
  },
  {
    "link_thumb": "https://live.staticflickr.com/65535/50041357191_9a4ab5fc53_n.jpg",
    "id_album": "-1177476763",
    "description": "Sunrise_121799",
    "title": "Sunrise_121799",
    "link_img": "https://live.staticflickr.com/65535/50041357191_e198a55752_o.jpg",
    "id_image": "Sunrise_121799",
    "count_view": 0
  },
  {
    "link_thumb": "https://live.staticflickr.com/65535/50039413876_1cfa99f95c_n.jpg",
    "id_album": "-1780971522",
    "description": "Biohazard_371301",
    "title": "Biohazard_371301",
    "link_img": "https://live.staticflickr.com/65535/50039413876_976b6d1b34_o.jpg",
    "id_image": "Biohazard_371301",
    "count_view": 0
  },
  {
    "link_thumb": "https://live.staticflickr.com/65535/50039538791_6a159c32a5_n.jpg",
    "id_album": "894679094",
    "description": "Collision_287029",
    "title": "Collision_287029",
    "link_img": "https://live.staticflickr.com/65535/50039538791_57d047cbcf_o.jpg",
    "id_image": "Collision_287029",
    "count_view": 0
  },
  {
    "link_thumb": "https://live.staticflickr.com/65535/50039508957_f96da37753_n.jpg",
    "id_album": "849020728",
    "description": "Alien_153648",
    "title": "Alien_153648",
    "link_img": "https://live.staticflickr.com/65535/50039508957_7bf360812b_o.jpg",
    "id_image": "Alien_153648",
    "count_view": 0
  },
  {
    "link_thumb": "https://live.staticflickr.com/65535/50040061942_7a99618352_n.jpg",
    "id_album": "-1610342324",
    "description": "Nebula_441070",
    "title": "Nebula_441070",
    "link_img": "https://live.staticflickr.com/65535/50040061942_da0e8b8cfa_o.jpg",
    "id_image": "Nebula_441070",
    "count_view": 0
  },
  {
    "link_thumb": "https://live.staticflickr.com/65535/50039013688_12decfa0eb_n.jpg",
    "id_album": "-1372247677",
    "description": "Cyberpunk_779618",
    "title": "Cyberpunk_779618",
    "link_img": "https://live.staticflickr.com/65535/50039013688_570a4568ab_o.jpg",
    "id_image": "Cyberpunk_779618",
    "count_view": 0
  },
  {
    "link_thumb": "https://live.staticflickr.com/65535/50039775206_95665748ea_n.jpg",
    "id_album": "-1610342324",
    "description": "Nebula_243346",
    "title": "Nebula_243346",
    "link_img": "https://live.staticflickr.com/65535/50039775206_0ae0d0f322_o.jpg",
    "id_image": "Nebula_243346",
    "count_view": 0
  },
  {
    "link_thumb": "https://live.staticflickr.com/65535/50039988003_0f02bf36e9_n.jpg",
    "id_album": "1613540653",
    "description": "Space_822448",
    "title": "Space_822448",
    "link_img": "https://live.staticflickr.com/65535/50039988003_9e4eb5d915_o.jpg",
    "id_image": "Space_822448",
    "count_view": 0
  },
  {
    "link_thumb": "https://live.staticflickr.com/65535/50040571567_37c3b9d85e_n.jpg",
    "id_album": "779690680",
    "description": "Robot_423178",
    "title": "Robot_423178",
    "link_img": "https://live.staticflickr.com/65535/50040571567_4714004f1c_o.jpg",
    "id_image": "Robot_423178",
    "count_view": 0
  },
  {
    "link_thumb": "https://live.staticflickr.com/65535/50039963052_0a8de4e667_n.jpg",
    "id_album": "1402713104",
    "description": "Landscape_681630",
    "title": "Landscape_681630",
    "link_img": "https://live.staticflickr.com/65535/50039963052_b80c4e5eea_o.jpg",
    "id_image": "Landscape_681630",
    "count_view": 0
  },
  {
    "link_thumb": "https://live.staticflickr.com/65535/50041378411_dd03b3f40b_n.jpg",
    "id_album": "2020068132",
    "description": "Vehicle_222318",
    "title": "Vehicle_222318",
    "link_img": "https://live.staticflickr.com/65535/50041378411_b7d9f10faa_o.jpg",
    "id_image": "Vehicle_222318",
    "count_view": 0
  },
  {
    "link_thumb": "https://live.staticflickr.com/65535/50040972882_cf1a89ab2b_n.jpg",
    "id_album": "2130067313",
    "description": "Spaceship_530267",
    "title": "Spaceship_530267",
    "link_img": "https://live.staticflickr.com/65535/50040972882_7e61524343_o.jpg",
    "id_image": "Spaceship_530267",
    "count_view": 0
  },
  {
    "link_thumb": "https://live.staticflickr.com/65535/50039123408_4ea5a1a8e2_n.jpg",
    "id_album": "1402713104",
    "description": "Landscape_290156",
    "title": "Landscape_290156",
    "link_img": "https://live.staticflickr.com/65535/50039123408_0da2b11afc_o.jpg",
    "id_image": "Landscape_290156",
    "count_view": 0
  },
  {
    "link_thumb": "https://live.staticflickr.com/65535/50039687722_bf96a1ddfb_n.jpg",
    "id_album": "406431601",
    "description": "Building_877121",
    "title": "Building_877121",
    "link_img": "https://live.staticflickr.com/65535/50039687722_ebe9e3bcf8_o.jpg",
    "id_image": "Building_877121",
    "count_view": 0
  },
  {
    "link_thumb": "https://live.staticflickr.com/65535/50041047902_090005729d_n.jpg",
    "id_album": "2130067313",
    "description": "Spaceship_992543",
    "title": "Spaceship_992543",
    "link_img": "https://live.staticflickr.com/65535/50041047902_0f27dee4b9_o.jpg",
    "id_image": "Spaceship_992543",
    "count_view": 0
  },
  {
    "link_thumb": "https://live.staticflickr.com/65535/50041482851_e604e9b6f4_n.jpg",
    "id_album": "-1261420436",
    "description": "Warrior_677695",
    "title": "Warrior_677695",
    "link_img": "https://live.staticflickr.com/65535/50041482851_b46af6f7ee_o.jpg",
    "id_image": "Warrior_677695",
    "count_view": 0
  },
  {
    "link_thumb": "https://live.staticflickr.com/65535/50041846102_20887a0bfe_n.jpg",
    "id_album": "-1675918237",
    "description": "WomenWarrior_609092",
    "title": "WomenWarrior_609092",
    "link_img": "https://live.staticflickr.com/65535/50041846102_e971b55caa_o.jpg",
    "id_image": "WomenWarrior_609092",
    "count_view": 0
  },
  {
    "link_thumb": "https://live.staticflickr.com/65535/50040397841_f38afaf39c_n.jpg",
    "id_album": "779690680",
    "description": "Robot_898622",
    "title": "Robot_898622",
    "link_img": "https://live.staticflickr.com/65535/50040397841_5446778fc4_o.jpg",
    "id_image": "Robot_898622",
    "count_view": 0
  },
  {
    "link_thumb": "https://live.staticflickr.com/65535/50039347916_c0bb4fbf1a_n.jpg",
    "id_album": "869545341",
    "description": "Astronaut_1000996",
    "title": "Astronaut_1000996",
    "link_img": "https://live.staticflickr.com/65535/50039347916_466b1ce84e_o.jpg",
    "id_image": "Astronaut_1000996",
    "count_view": 0
  },
  {
    "link_thumb": "https://live.staticflickr.com/65535/50040283381_e96303a9c9_n.jpg",
    "id_album": "779690680",
    "description": "Robot_294201",
    "title": "Robot_294201",
    "link_img": "https://live.staticflickr.com/65535/50040283381_9880d2ed4d_o.jpg",
    "id_image": "Robot_294201",
    "count_view": 0
  },
  {
    "link_thumb": "https://live.staticflickr.com/65535/50040458721_707137c235_n.jpg",
    "id_album": "779690680",
    "description": "Robot_995952",
    "title": "Robot_995952",
    "link_img": "https://live.staticflickr.com/65535/50040458721_f4f7413ab5_o.jpg",
    "id_image": "Robot_995952",
    "count_view": 0
  },
  {
    "link_thumb": "https://live.staticflickr.com/65535/50040656713_5684f6c2a1_n.jpg",
    "id_album": "-1863373220",
    "description": "StarWars_669723",
    "title": "StarWars_669723",
    "link_img": "https://live.staticflickr.com/65535/50040656713_184a25fe52_o.jpg",
    "id_image": "StarWars_669723",
    "count_view": 0
  },
  {
    "link_thumb": "https://live.staticflickr.com/65535/50038866418_ea82d2e570_n.jpg",
    "id_album": "-1780971522",
    "description": "Biohazard_494276",
    "title": "Biohazard_494276",
    "link_img": "https://live.staticflickr.com/65535/50038866418_19708d22f8_o.jpg",
    "id_image": "Biohazard_494276",
    "count_view": 0
  },
  {
    "link_thumb": "https://live.staticflickr.com/65535/50040112576_e4a02f7b84_n.jpg",
    "id_album": "-1102314093",
    "description": "Planets_419641",
    "title": "Planets_419641",
    "link_img": "https://live.staticflickr.com/65535/50040112576_87ee461c2f_o.jpg",
    "id_image": "Planets_419641",
    "count_view": 0
  },
  {
    "link_thumb": "https://live.staticflickr.com/65535/50039699848_2ca234fcd0_n.jpg",
    "id_album": "779690680",
    "description": "Robot_114142",
    "title": "Robot_114142",
    "link_img": "https://live.staticflickr.com/65535/50039699848_ca654009a2_o.jpg",
    "id_image": "Robot_114142",
    "count_view": 0
  },
  {
    "link_thumb": "https://live.staticflickr.com/65535/50040496476_018e06bbe5_n.jpg",
    "id_album": "1613540653",
    "description": "Space_335520",
    "title": "Space_335520",
    "link_img": "https://live.staticflickr.com/65535/50040496476_267a13fe41_o.jpg",
    "id_image": "Space_335520",
    "count_view": 0
  },
  {
    "link_thumb": "https://live.staticflickr.com/65535/50039788888_a6990485d1_n.jpg",
    "id_album": "779690680",
    "description": "Robot_599649",
    "title": "Robot_599649",
    "link_img": "https://live.staticflickr.com/65535/50039788888_4bb2b71bf9_o.jpg",
    "id_image": "Robot_599649",
    "count_view": 0
  },
  {
    "link_thumb": "https://live.staticflickr.com/65535/50041036663_f15d42a281_n.jpg",
    "id_album": "-1675918237",
    "description": "WomenWarrior_912306",
    "title": "WomenWarrior_912306",
    "link_img": "https://live.staticflickr.com/65535/50041036663_4e85bed13e_o.jpg",
    "id_image": "WomenWarrior_912306",
    "count_view": 0
  },
  {
    "link_thumb": "https://live.staticflickr.com/65535/50040872918_f78d0f58b2_n.jpg",
    "id_album": "2020068132",
    "description": "Vehicle_972129",
    "title": "Vehicle_972129",
    "link_img": "https://live.staticflickr.com/65535/50040872918_077d190938_o.jpg",
    "id_image": "Vehicle_972129",
    "count_view": 0
  },
  {
    "link_thumb": "https://live.staticflickr.com/65535/50039375571_dc324bf557_n.jpg",
    "id_album": "869545341",
    "description": "Astronaut_884352",
    "title": "Astronaut_884352",
    "link_img": "https://live.staticflickr.com/65535/50039375571_247f626198_o.jpg",
    "id_image": "Astronaut_884352",
    "count_view": 0
  },
  {
    "link_thumb": "https://live.staticflickr.com/65535/50039842741_82f1d09d07_n.jpg",
    "id_album": "-1610342324",
    "description": "Nebula_837101",
    "title": "Nebula_837101",
    "link_img": "https://live.staticflickr.com/65535/50039842741_1552989e6c_o.jpg",
    "id_image": "Nebula_837101",
    "count_view": 0
  },
  {
    "link_thumb": "https://live.staticflickr.com/65535/50041269821_07d29ffde5_n.jpg",
    "id_album": "-1587696329",
    "description": "Stars_458289",
    "title": "Stars_458289",
    "link_img": "https://live.staticflickr.com/65535/50041269821_45323dc392_o.jpg",
    "id_image": "Stars_458289",
    "count_view": 0
  },
  {
    "link_thumb": "https://live.staticflickr.com/65535/50039878733_d999599070_n.jpg",
    "id_album": "779690680",
    "description": "Robot_936224",
    "title": "Robot_936224",
    "link_img": "https://live.staticflickr.com/65535/50039878733_bb5d3cb10f_o.jpg",
    "id_image": "Robot_936224",
    "count_view": 0
  },
  {
    "link_thumb": "https://live.staticflickr.com/65535/50039483771_938f9e4382_n.jpg",
    "id_album": "-1964113117",
    "description": "City_649215",
    "title": "City_649215",
    "link_img": "https://live.staticflickr.com/65535/50039483771_6b8f7280d0_o.jpg",
    "id_image": "City_649215",
    "count_view": 0
  },
  {
    "link_thumb": "https://live.staticflickr.com/65535/50040018107_6ddb0d227b_n.jpg",
    "id_album": "416351698",
    "description": "Moon_251092",
    "title": "Moon_251092",
    "link_img": "https://live.staticflickr.com/65535/50040018107_9048de0b56_o.jpg",
    "id_image": "Moon_251092",
    "count_view": 0
  },
  {
    "link_thumb": "https://live.staticflickr.com/65535/50039873348_ea484df39f_n.jpg",
    "id_album": "779690680",
    "description": "Robot_930301",
    "title": "Robot_930301",
    "link_img": "https://live.staticflickr.com/65535/50039873348_f3d2bc3b86_o.jpg",
    "id_image": "Robot_930301",
    "count_view": 0
  },
  {
    "link_thumb": "https://live.staticflickr.com/65535/50040652052_ffdf349d86_n.jpg",
    "id_album": "779690680",
    "description": "Robot_877462",
    "title": "Robot_877462",
    "link_img": "https://live.staticflickr.com/65535/50040652052_35f24d94f9_o.jpg",
    "id_image": "Robot_877462",
    "count_view": 0
  },
  {
    "link_thumb": "https://live.staticflickr.com/65535/50039834971_9b290757ef_n.jpg",
    "id_album": "-1610342324",
    "description": "Nebula_77308",
    "title": "Nebula_77308",
    "link_img": "https://live.staticflickr.com/65535/50039834971_e2501c9372_o.jpg",
    "id_image": "Nebula_77308",
    "count_view": 0
  },
  {
    "link_thumb": "https://live.staticflickr.com/65535/50039755923_36c5f3e412_n.jpg",
    "id_album": "779690680",
    "description": "Robot_445890",
    "title": "Robot_445890",
    "link_img": "https://live.staticflickr.com/65535/50039755923_af9be5aea0_o.jpg",
    "id_image": "Robot_445890",
    "count_view": 0
  },
  {
    "link_thumb": "https://live.staticflickr.com/65535/50041486361_0f5c32f121_n.jpg",
    "id_album": "-1261420436",
    "description": "Warrior_778589",
    "title": "Warrior_778589",
    "link_img": "https://live.staticflickr.com/65535/50041486361_04c0a9b187_o.jpg",
    "id_image": "Warrior_778589",
    "count_view": 0
  },
  {
    "link_thumb": "https://live.staticflickr.com/65535/50039890047_52bb2e8956_n.jpg",
    "id_album": "1204249541",
    "description": "Galaxy_225607",
    "title": "Galaxy_225607",
    "link_img": "https://live.staticflickr.com/65535/50039890047_d2ceaf3cf9_o.jpg",
    "id_image": "Galaxy_225607",
    "count_view": 0
  },
  {
    "link_thumb": "https://live.staticflickr.com/65535/50039791052_31ec193fa3_n.jpg",
    "id_album": "-1964113117",
    "description": "City_971391",
    "title": "City_971391",
    "link_img": "https://live.staticflickr.com/65535/50039791052_e096ba6e8e_o.jpg",
    "id_image": "City_971391",
    "count_view": 0
  },
  {
    "link_thumb": "https://live.staticflickr.com/65535/50039122123_e661813880_n.jpg",
    "id_album": "1402713104",
    "description": "Landscape_285845",
    "title": "Landscape_285845",
    "link_img": "https://live.staticflickr.com/65535/50039122123_10f62b998e_o.jpg",
    "id_image": "Landscape_285845",
    "count_view": 0
  },
  {
    "link_thumb": "https://live.staticflickr.com/65535/50040445181_de04459a4c_n.jpg",
    "id_album": "779690680",
    "description": "Robot_957105",
    "title": "Robot_957105",
    "link_img": "https://live.staticflickr.com/65535/50040445181_fb3c38d535_o.jpg",
    "id_image": "Robot_957105",
    "count_view": 0
  },
  {
    "link_thumb": "https://live.staticflickr.com/65535/50039302993_15aa956093_n.jpg",
    "id_album": "-1610342324",
    "description": "Nebula_922578",
    "title": "Nebula_922578",
    "link_img": "https://live.staticflickr.com/65535/50039302993_f4f69a73ee_o.jpg",
    "id_image": "Nebula_922578",
    "count_view": 0
  },
  {
    "link_thumb": "https://live.staticflickr.com/65535/50039255148_8511669564_n.jpg",
    "id_album": "-1610342324",
    "description": "Nebula_531446",
    "title": "Nebula_531446",
    "link_img": "https://live.staticflickr.com/65535/50039255148_a69c39827e_o.jpg",
    "id_image": "Nebula_531446",
    "count_view": 0
  },
  {
    "link_thumb": "https://live.staticflickr.com/65535/50041788117_605ac920b8_n.jpg",
    "id_album": "-1126835654",
    "description": "Women_350154",
    "title": "Women_350154",
    "link_img": "https://live.staticflickr.com/65535/50041788117_617b52c05a_o.jpg",
    "id_image": "Women_350154",
    "count_view": 0
  },
  {
    "link_thumb": "https://live.staticflickr.com/65535/50040658913_e50dc31a69_n.jpg",
    "id_album": "-1863373220",
    "description": "StarWars_670125",
    "title": "StarWars_670125",
    "link_img": "https://live.staticflickr.com/65535/50040658913_f3a72b9cf4_o.jpg",
    "id_image": "StarWars_670125",
    "count_view": 0
  },
  {
    "link_thumb": "https://live.staticflickr.com/65535/50040298001_7cf81c54e2_n.jpg",
    "id_album": "779690680",
    "description": "Robot_375790",
    "title": "Robot_375790",
    "link_img": "https://live.staticflickr.com/65535/50040298001_6f69a2eb31_o.jpg",
    "id_image": "Robot_375790",
    "count_view": 0
  },
  {
    "link_thumb": "https://live.staticflickr.com/65535/50039230808_22655d0fee_n.jpg",
    "id_album": "-1610342324",
    "description": "Nebula_277936",
    "title": "Nebula_277936",
    "link_img": "https://live.staticflickr.com/65535/50039230808_96b98844b0_o.jpg",
    "id_image": "Nebula_277936",
    "count_view": 0
  },
  {
    "link_thumb": "https://live.staticflickr.com/65535/50039791156_d96350b474_n.jpg",
    "id_album": "-1610342324",
    "description": "Nebula_396533",
    "title": "Nebula_396533",
    "link_img": "https://live.staticflickr.com/65535/50039791156_7742a3d843_o.jpg",
    "id_image": "Nebula_396533",
    "count_view": 0
  },
  {
    "link_thumb": "https://live.staticflickr.com/65535/50040157486_8cacb7ed7e_n.jpg",
    "id_album": "376235057",
    "description": "Planetscape_287063",
    "title": "Planetscape_287063",
    "link_img": "https://live.staticflickr.com/65535/50040157486_f935f3b1e9_o.jpg",
    "id_image": "Planetscape_287063",
    "count_view": 0
  },
  {
    "link_thumb": "https://live.staticflickr.com/65535/50039847583_f7ff5d60eb_n.jpg",
    "id_album": "779690680",
    "description": "Robot_902757",
    "title": "Robot_902757",
    "link_img": "https://live.staticflickr.com/65535/50039847583_3812b850fe_o.jpg",
    "id_image": "Robot_902757",
    "count_view": 0
  },
  {
    "link_thumb": "https://live.staticflickr.com/65535/50039005868_3f7113c53e_n.jpg",
    "id_album": "-437872736",
    "description": "Creature_372781",
    "title": "Creature_372781",
    "link_img": "https://live.staticflickr.com/65535/50039005868_3d30f29d99_o.jpg",
    "id_image": "Creature_372781",
    "count_view": 0
  },
  {
    "link_thumb": "https://live.staticflickr.com/65535/50039229671_d90c60133b_n.jpg",
    "id_album": "280884763",
    "description": "Abstract_324581",
    "title": "Abstract_324581",
    "link_img": "https://live.staticflickr.com/65535/50039229671_720e128555_o.jpg",
    "id_image": "Abstract_324581",
    "count_view": 0
  },
  {
    "link_thumb": "https://live.staticflickr.com/65535/50040409786_1014698c6f_n.jpg",
    "id_album": "779690680",
    "description": "Robot_913016",
    "title": "Robot_913016",
    "link_img": "https://live.staticflickr.com/65535/50040409786_052a050818_o.jpg",
    "id_image": "Robot_913016",
    "count_view": 0
  },
  {
    "link_thumb": "https://live.staticflickr.com/65535/50039203123_e788899a99_n.jpg",
    "id_album": "-1388385651",
    "description": "MilkyWay_890775",
    "title": "MilkyWay_890775",
    "link_img": "https://live.staticflickr.com/65535/50039203123_1943894ef0_o.jpg",
    "id_image": "MilkyWay_890775",
    "count_view": 0
  },
  {
    "link_thumb": "https://live.staticflickr.com/65535/50039633543_dc94140a5b_n.jpg",
    "id_album": "376235057",
    "description": "Planetscape_957403",
    "title": "Planetscape_957403",
    "link_img": "https://live.staticflickr.com/65535/50039633543_b4b988f204_o.jpg",
    "id_image": "Planetscape_957403",
    "count_view": 0
  },
  {
    "link_thumb": "https://live.staticflickr.com/65535/50040795703_be4e35f69e_n.jpg",
    "id_album": "-221671103",
    "description": "Sun_531423",
    "title": "Sun_531423",
    "link_img": "https://live.staticflickr.com/65535/50040795703_d848052a16_o.jpg",
    "id_image": "Sun_531423",
    "count_view": 0
  },
  {
    "link_thumb": "https://live.staticflickr.com/65535/50040164682_9dca1140b1_n.jpg",
    "id_album": "395161030",
    "description": "Planet_1004882",
    "title": "Planet_1004882",
    "link_img": "https://live.staticflickr.com/65535/50040164682_ec080948b9_o.jpg",
    "id_image": "Planet_1004882",
    "count_view": 0
  },
  {
    "link_thumb": "https://live.staticflickr.com/65535/50039616693_ba804308e4_n.jpg",
    "id_album": "376235057",
    "description": "Planetscape_372285",
    "title": "Planetscape_372285",
    "link_img": "https://live.staticflickr.com/65535/50039616693_d8b865fa47_o.jpg",
    "id_image": "Planetscape_372285",
    "count_view": 0
  },
  {
    "link_thumb": "https://live.staticflickr.com/65535/50038989393_2e76e003f9_n.jpg",
    "id_album": "894679094",
    "description": "Collision_229334",
    "title": "Collision_229334",
    "link_img": "https://live.staticflickr.com/65535/50038989393_65ba25ccc1_o.jpg",
    "id_image": "Collision_229334",
    "count_view": 0
  },
  {
    "link_thumb": "https://live.staticflickr.com/65535/50039256783_c8c6359705_n.jpg",
    "id_album": "-1610342324",
    "description": "Nebula_546024",
    "title": "Nebula_546024",
    "link_img": "https://live.staticflickr.com/65535/50039256783_e8b91ce5e8_o.jpg",
    "id_image": "Nebula_546024",
    "count_view": 0
  },
  {
    "link_thumb": "https://live.staticflickr.com/65535/50039956927_62e2ed043f_n.jpg",
    "id_album": "1402713104",
    "description": "Landscape_552105",
    "title": "Landscape_552105",
    "link_img": "https://live.staticflickr.com/65535/50039956927_07905ffb02_o.jpg",
    "id_image": "Landscape_552105",
    "count_view": 0
  },
  {
    "link_thumb": "https://live.staticflickr.com/65535/50039876428_0c496b365a_n.jpg",
    "id_album": "779690680",
    "description": "Robot_933180",
    "title": "Robot_933180",
    "link_img": "https://live.staticflickr.com/65535/50039876428_b6f321ebd7_o.jpg",
    "id_image": "Robot_933180",
    "count_view": 0
  },
  {
    "link_thumb": "https://live.staticflickr.com/65535/50039342901_59f3d55cfd_n.jpg",
    "id_album": "523598895",
    "description": "Artistic_712822",
    "title": "Artistic_712822",
    "link_img": "https://live.staticflickr.com/65535/50039342901_1b87507f30_o.jpg",
    "id_image": "Artistic_712822",
    "count_view": 0
  },
  {
    "link_thumb": "https://live.staticflickr.com/65535/50039658226_eaa2bf4b8d_n.jpg",
    "id_album": "1402713104",
    "description": "Landscape_1004828",
    "title": "Landscape_1004828",
    "link_img": "https://live.staticflickr.com/65535/50039658226_668d1072d5_o.jpg",
    "id_image": "Landscape_1004828",
    "count_view": 0
  },
  {
    "link_thumb": "https://live.staticflickr.com/65535/50041538841_1c77f4a142_n.jpg",
    "id_album": "-1126835654",
    "description": "Women_585191",
    "title": "Women_585191",
    "link_img": "https://live.staticflickr.com/65535/50041538841_d00491546c_o.jpg",
    "id_image": "Women_585191",
    "count_view": 0
  },
  {
    "link_thumb": "https://live.staticflickr.com/65535/50039789806_9a0d8f1e9b_n.jpg",
    "id_album": "-1610342324",
    "description": "Nebula_393914",
    "title": "Nebula_393914",
    "link_img": "https://live.staticflickr.com/65535/50039789806_c1201f3e95_o.jpg",
    "id_image": "Nebula_393914",
    "count_view": 0
  },
  {
    "link_thumb": "https://live.staticflickr.com/65535/50039273491_e07c08f6c8_n.jpg",
    "id_album": "849020728",
    "description": "Alien_715367",
    "title": "Alien_715367",
    "link_img": "https://live.staticflickr.com/65535/50039273491_ac93b10f34_o.jpg",
    "id_image": "Alien_715367",
    "count_view": 0
  },
  {
    "link_thumb": "https://live.staticflickr.com/65535/50039683917_bd3a02ee5d_n.jpg",
    "id_album": "406431601",
    "description": "Building_344266",
    "title": "Building_344266",
    "link_img": "https://live.staticflickr.com/65535/50039683917_9bb148289b_o.jpg",
    "id_image": "Building_344266",
    "count_view": 0
  },
  {
    "link_thumb": "https://live.staticflickr.com/65535/50039008908_b0d2ba6259_n.jpg",
    "id_album": "-437872736",
    "description": "Creature_456146",
    "title": "Creature_456146",
    "link_img": "https://live.staticflickr.com/65535/50039008908_21f84e6bd5_o.jpg",
    "id_image": "Creature_456146",
    "count_view": 0
  },
  {
    "link_thumb": "https://live.staticflickr.com/65535/50039318521_7a127f93c4_n.jpg",
    "id_album": "523598895",
    "description": "Artistic_222544",
    "title": "Artistic_222544",
    "link_img": "https://live.staticflickr.com/65535/50039318521_61cf585c72_o.jpg",
    "id_image": "Artistic_222544",
    "count_view": 0
  },
  {
    "link_thumb": "https://live.staticflickr.com/65535/50041761407_980e0aa441_n.jpg",
    "id_album": "-1261420436",
    "description": "Warrior_991672",
    "title": "Warrior_991672",
    "link_img": "https://live.staticflickr.com/65535/50041761407_af9f4e356b_o.jpg",
    "id_image": "Warrior_991672",
    "count_view": 0
  },
  {
    "link_thumb": "https://live.staticflickr.com/65535/50040027247_2c2ee81a35_n.jpg",
    "id_album": "-1610342324",
    "description": "Nebula_168433",
    "title": "Nebula_168433",
    "link_img": "https://live.staticflickr.com/65535/50040027247_aa831f97c6_o.jpg",
    "id_image": "Nebula_168433",
    "count_view": 0
  },
  {
    "link_thumb": "https://live.staticflickr.com/65535/50040432197_b774f42a3c_n.jpg",
    "id_album": "376235057",
    "description": "Planetscape_370827",
    "title": "Planetscape_370827",
    "link_img": "https://live.staticflickr.com/65535/50040432197_769590a38c_o.jpg",
    "id_image": "Planetscape_370827",
    "count_view": 0
  },
  {
    "link_thumb": "https://live.staticflickr.com/65535/50039257418_02d86f17fc_n.jpg",
    "id_album": "-1610342324",
    "description": "Nebula_548119",
    "title": "Nebula_548119",
    "link_img": "https://live.staticflickr.com/65535/50039257418_6113ac2e32_o.jpg",
    "id_image": "Nebula_548119",
    "count_view": 0
  },
  {
    "link_thumb": "https://live.staticflickr.com/65535/50038965818_ecee26d3b2_n.jpg",
    "id_album": "-1964113117",
    "description": "City_891959",
    "title": "City_891959",
    "link_img": "https://live.staticflickr.com/65535/50038965818_a7e4988b41_o.jpg",
    "id_image": "City_891959",
    "count_view": 0
  },
  {
    "link_thumb": "https://live.staticflickr.com/65535/50040473941_c26b56b958_n.jpg",
    "id_album": "1613540653",
    "description": "Space_179731",
    "title": "Space_179731",
    "link_img": "https://live.staticflickr.com/65535/50040473941_6dc8a43059_o.jpg",
    "id_image": "Space_179731",
    "count_view": 0
  },
  {
    "link_thumb": "https://live.staticflickr.com/65535/50039799902_abcc939dea_n.jpg",
    "id_album": "894679094",
    "description": "Collision_2867",
    "title": "Collision_2867",
    "link_img": "https://live.staticflickr.com/65535/50039799902_cff2464fa9_o.jpg",
    "id_image": "Collision_2867",
    "count_view": 0
  },
  {
    "link_thumb": "https://live.staticflickr.com/65535/50040372547_93e902a3a6_n.jpg",
    "id_album": "-1102314093",
    "description": "Planets_408838",
    "title": "Planets_408838",
    "link_img": "https://live.staticflickr.com/65535/50040372547_ef7d3427ba_o.jpg",
    "id_image": "Planets_408838",
    "count_view": 0
  },
  {
    "link_thumb": "https://live.staticflickr.com/65535/50039553937_014fe9c47c_n.jpg",
    "id_album": "523598895",
    "description": "Artistic_106052",
    "title": "Artistic_106052",
    "link_img": "https://live.staticflickr.com/65535/50039553937_d699180bd4_o.jpg",
    "id_image": "Artistic_106052",
    "count_view": 0
  },
  {
    "link_thumb": "https://live.staticflickr.com/65535/50039618502_9be41d7aa6_n.jpg",
    "id_album": "869545341",
    "description": "Astronaut_523610",
    "title": "Astronaut_523610",
    "link_img": "https://live.staticflickr.com/65535/50039618502_ea2f62a4c7_o.jpg",
    "id_image": "Astronaut_523610",
    "count_view": 0
  },
  {
    "link_thumb": "https://live.staticflickr.com/65535/50039745277_c8c748f23e_n.jpg",
    "id_album": "-1964113117",
    "description": "City_649090",
    "title": "City_649090",
    "link_img": "https://live.staticflickr.com/65535/50039745277_9e5c27ce63_o.jpg",
    "id_image": "City_649090",
    "count_view": 0
  },
  {
    "link_thumb": "https://live.staticflickr.com/65535/50041148306_8e0d2c8a96_n.jpg",
    "id_album": "-1863373220",
    "description": "StarWars_234730",
    "title": "StarWars_234730",
    "link_img": "https://live.staticflickr.com/65535/50041148306_cb4b94929b_o.jpg",
    "id_image": "StarWars_234730",
    "count_view": 0
  },
  {
    "link_thumb": "https://live.staticflickr.com/65535/50038840983_36dd88061e_n.jpg",
    "id_album": "869545341",
    "description": "Astronaut_979106",
    "title": "Astronaut_979106",
    "link_img": "https://live.staticflickr.com/65535/50038840983_5ff9f98903_o.jpg",
    "id_image": "Astronaut_979106",
    "count_view": 0
  },
  {
    "link_thumb": "https://live.staticflickr.com/65535/50040169257_8efe9a23ef_n.jpg",
    "id_album": "395161030",
    "description": "Planet_148654",
    "title": "Planet_148654",
    "link_img": "https://live.staticflickr.com/65535/50040169257_8be145677d_o.jpg",
    "id_image": "Planet_148654",
    "count_view": 0
  },
  {
    "link_thumb": "https://live.staticflickr.com/65535/50038812548_0bc4ea5655_n.jpg",
    "id_album": "869545341",
    "description": "Astronaut_602157",
    "title": "Astronaut_602157",
    "link_img": "https://live.staticflickr.com/65535/50038812548_e353cb0c45_o.jpg",
    "id_image": "Astronaut_602157",
    "count_view": 0
  },
  {
    "link_thumb": "https://live.staticflickr.com/65535/50041585721_bee46edfde_n.jpg",
    "id_album": "-1675918237",
    "description": "WomenWarrior_629985",
    "title": "WomenWarrior_629985",
    "link_img": "https://live.staticflickr.com/65535/50041585721_425c449f0b_o.jpg",
    "id_image": "WomenWarrior_629985",
    "count_view": 0
  },
  {
    "link_thumb": "https://live.staticflickr.com/65535/50038786063_0d6727158c_n.jpg",
    "id_album": "523598895",
    "description": "Artistic_401760",
    "title": "Artistic_401760",
    "link_img": "https://live.staticflickr.com/65535/50038786063_905765e937_o.jpg",
    "id_image": "Artistic_401760",
    "count_view": 0
  },
  {
    "link_thumb": "https://live.staticflickr.com/65535/50040201902_205a574916_n.jpg",
    "id_album": "395161030",
    "description": "Planet_364701",
    "title": "Planet_364701",
    "link_img": "https://live.staticflickr.com/65535/50040201902_a40f178895_o.jpg",
    "id_image": "Planet_364701",
    "count_view": 0
  },
  {
    "link_thumb": "https://live.staticflickr.com/65535/50040256916_3a46aaa201_n.jpg",
    "id_album": "779690680",
    "description": "Robot_167502",
    "title": "Robot_167502",
    "link_img": "https://live.staticflickr.com/65535/50040256916_7a29216f24_o.jpg",
    "id_image": "Robot_167502",
    "count_view": 0
  },
  {
    "link_thumb": "https://live.staticflickr.com/65535/50039730278_74eda11a41_n.jpg",
    "id_album": "779690680",
    "description": "Robot_291956",
    "title": "Robot_291956",
    "link_img": "https://live.staticflickr.com/65535/50039730278_4f854ed7fa_o.jpg",
    "id_image": "Robot_291956",
    "count_view": 0
  },
  {
    "link_thumb": "https://live.staticflickr.com/65535/50039746893_dcedcf3e20_n.jpg",
    "id_album": "779690680",
    "description": "Robot_389488",
    "title": "Robot_389488",
    "link_img": "https://live.staticflickr.com/65535/50039746893_62a923e9cf_o.jpg",
    "id_image": "Robot_389488",
    "count_view": 0
  },
  {
    "link_thumb": "https://live.staticflickr.com/65535/50039891897_82343e093a_n.jpg",
    "id_album": "1204249541",
    "description": "Galaxy_281520",
    "title": "Galaxy_281520",
    "link_img": "https://live.staticflickr.com/65535/50039891897_f5d566d499_o.jpg",
    "id_image": "Galaxy_281520",
    "count_view": 0
  },
  {
    "link_thumb": "https://live.staticflickr.com/65535/50040731063_5c8ccabdd5_n.jpg",
    "id_album": "1267121215",
    "description": "Steampunk_105717",
    "title": "Steampunk_105717",
    "link_img": "https://live.staticflickr.com/65535/50040731063_53bfb19b26_o.jpg",
    "id_image": "Steampunk_105717",
    "count_view": 0
  },
  {
    "link_thumb": "https://live.staticflickr.com/65535/50039341856_737d82c9a6_n.jpg",
    "id_album": "523598895",
    "description": "Artistic_669063",
    "title": "Artistic_669063",
    "link_img": "https://live.staticflickr.com/65535/50039341856_e08c7ab3b4_o.jpg",
    "id_image": "Artistic_669063",
    "count_view": 0
  },
  {
    "link_thumb": "https://live.staticflickr.com/65535/50040933818_f4eaf23484_n.jpg",
    "id_album": "-1261420436",
    "description": "Warrior_788776",
    "title": "Warrior_788776",
    "link_img": "https://live.staticflickr.com/65535/50040933818_e98073c311_o.jpg",
    "id_image": "Warrior_788776",
    "count_view": 0
  },
  {
    "link_thumb": "https://live.staticflickr.com/65535/50040054262_9a5098a8ab_n.jpg",
    "id_album": "-1610342324",
    "description": "Nebula_393982",
    "title": "Nebula_393982",
    "link_img": "https://live.staticflickr.com/65535/50040054262_c7e6552d98_o.jpg",
    "id_image": "Nebula_393982",
    "count_view": 0
  },
  {
    "link_thumb": "https://live.staticflickr.com/65535/50040442962_4ca930429e_n.jpg",
    "id_album": "376235057",
    "description": "Planetscape_614568",
    "title": "Planetscape_614568",
    "link_img": "https://live.staticflickr.com/65535/50040442962_27d9521b03_o.jpg",
    "id_image": "Planetscape_614568",
    "count_view": 0
  },
  {
    "link_thumb": "https://live.staticflickr.com/65535/50040734442_70c36b6815_n.jpg",
    "id_album": "1613540653",
    "description": "Space_152143",
    "title": "Space_152143",
    "link_img": "https://live.staticflickr.com/65535/50040734442_a25933a6e2_o.jpg",
    "id_image": "Space_152143",
    "count_view": 0
  },
  {
    "link_thumb": "https://live.staticflickr.com/65535/50039318701_92fe2ba90d_n.jpg",
    "id_album": "523598895",
    "description": "Artistic_222730",
    "title": "Artistic_222730",
    "link_img": "https://live.staticflickr.com/65535/50039318701_df9f7e0c4a_o.jpg",
    "id_image": "Artistic_222730",
    "count_view": 0
  },
  {
    "link_thumb": "https://live.staticflickr.com/65535/50038702233_da630c7db1_n.jpg",
    "id_album": "849020728",
    "description": "Alien_179102",
    "title": "Alien_179102",
    "link_img": "https://live.staticflickr.com/65535/50038702233_96f47b9dbd_o.jpg",
    "id_image": "Alien_179102",
    "count_view": 0
  },
  {
    "link_thumb": "https://live.staticflickr.com/65535/50040055857_6f6f7af5ee_n.jpg",
    "id_album": "-1610342324",
    "description": "Nebula_397551",
    "title": "Nebula_397551",
    "link_img": "https://live.staticflickr.com/65535/50040055857_c50f67c23f_o.jpg",
    "id_image": "Nebula_397551",
    "count_view": 0
  },
  {
    "link_thumb": "https://live.staticflickr.com/65535/50039125068_0ea5fe407e_n.jpg",
    "id_album": "1402713104",
    "description": "Landscape_310678",
    "title": "Landscape_310678",
    "link_img": "https://live.staticflickr.com/65535/50039125068_33b5f347a1_o.jpg",
    "id_image": "Landscape_310678",
    "count_view": 0
  },
  {
    "link_thumb": "https://live.staticflickr.com/65535/50039530871_6354d8ddaf_n.jpg",
    "id_album": "-1964113117",
    "description": "City_977581",
    "title": "City_977581",
    "link_img": "https://live.staticflickr.com/65535/50039530871_3cfa61ce23_o.jpg",
    "id_image": "City_977581",
    "count_view": 0
  },
  {
    "link_thumb": "https://live.staticflickr.com/65535/50039761576_fc145c7425_n.jpg",
    "id_album": "-1610342324",
    "description": "Nebula_110230",
    "title": "Nebula_110230",
    "link_img": "https://live.staticflickr.com/65535/50039761576_05b6d258d2_o.jpg",
    "id_image": "Nebula_110230",
    "count_view": 0
  },
  {
    "link_thumb": "https://live.staticflickr.com/65535/50041395786_061b968ffe_n.jpg",
    "id_album": "2020068132",
    "description": "Vehicle_391906",
    "title": "Vehicle_391906",
    "link_img": "https://live.staticflickr.com/65535/50041395786_45c1440ba9_o.jpg",
    "id_image": "Vehicle_391906",
    "count_view": 0
  },
  {
    "link_thumb": "https://live.staticflickr.com/65535/50039292011_edf6c5a396_n.jpg",
    "id_album": "523598895",
    "description": "Artistic_106016",
    "title": "Artistic_106016",
    "link_img": "https://live.staticflickr.com/65535/50039292011_947437645f_o.jpg",
    "id_image": "Artistic_106016",
    "count_view": 0
  },
  {
    "link_thumb": "https://live.staticflickr.com/65535/50039863403_ecaa05da8e_n.jpg",
    "id_album": "779690680",
    "description": "Robot_921707",
    "title": "Robot_921707",
    "link_img": "https://live.staticflickr.com/65535/50039863403_8607601308_o.jpg",
    "id_image": "Robot_921707",
    "count_view": 0
  },
  {
    "link_thumb": "https://live.staticflickr.com/65535/50039419291_ba2ab3e542_n.jpg",
    "id_album": "-1780971522",
    "description": "Biohazard_577359",
    "title": "Biohazard_577359",
    "link_img": "https://live.staticflickr.com/65535/50039419291_3b490d2490_o.jpg",
    "id_image": "Biohazard_577359",
    "count_view": 0
  },
  {
    "link_thumb": "https://live.staticflickr.com/65535/50039739787_fa1f4ca80c_n.jpg",
    "id_album": "-1964113117",
    "description": "City_550167",
    "title": "City_550167",
    "link_img": "https://live.staticflickr.com/65535/50039739787_9a084dc049_o.jpg",
    "id_image": "City_550167",
    "count_view": 0
  },
  {
    "link_thumb": "https://live.staticflickr.com/65535/50039667763_c3ba9fa86f_n.jpg",
    "id_album": "-482547208",
    "description": "PostApocalyptic_709113",
    "title": "PostApocalyptic_709113",
    "link_img": "https://live.staticflickr.com/65535/50039667763_0172c9c9e2_o.jpg",
    "id_image": "PostApocalyptic_709113",
    "count_view": 0
  },
  {
    "link_thumb": "https://live.staticflickr.com/65535/50041262581_f73b959fe3_n.jpg",
    "id_album": "-1587696329",
    "description": "Stars_317145",
    "title": "Stars_317145",
    "link_img": "https://live.staticflickr.com/65535/50041262581_008fb9be8d_o.jpg",
    "id_image": "Stars_317145",
    "count_view": 0
  },
  {
    "link_thumb": "https://live.staticflickr.com/65535/50041535416_a57c74ca5e_n.jpg",
    "id_album": "-1126835654",
    "description": "Women_551687",
    "title": "Women_551687",
    "link_img": "https://live.staticflickr.com/65535/50041535416_74b7463c84_o.jpg",
    "id_image": "Women_551687",
    "count_view": 0
  },
  {
    "link_thumb": "https://live.staticflickr.com/65535/50039840053_e204d5d839_n.jpg",
    "id_album": "779690680",
    "description": "Robot_884816",
    "title": "Robot_884816",
    "link_img": "https://live.staticflickr.com/65535/50039840053_2719b3d4b0_o.jpg",
    "id_image": "Robot_884816",
    "count_view": 0
  },
  {
    "link_thumb": "https://live.staticflickr.com/65535/50040037952_745fa71ea1_n.jpg",
    "id_album": "-1610342324",
    "description": "Nebula_241043",
    "title": "Nebula_241043",
    "link_img": "https://live.staticflickr.com/65535/50040037952_1f3c7b1c07_o.jpg",
    "id_image": "Nebula_241043",
    "count_view": 0
  },
  {
    "link_thumb": "https://live.staticflickr.com/65535/50039856278_1b0e5177c1_n.jpg",
    "id_album": "779690680",
    "description": "Robot_913017",
    "title": "Robot_913017",
    "link_img": "https://live.staticflickr.com/65535/50039856278_d43de2aa44_o.jpg",
    "id_image": "Robot_913017",
    "count_view": 0
  },
  {
    "link_thumb": "https://live.staticflickr.com/65535/50039278691_e0bc2692a1_n.jpg",
    "id_album": "-419633230",
    "description": "Apocalyptic_117055",
    "title": "Apocalyptic_117055",
    "link_img": "https://live.staticflickr.com/65535/50039278691_5bdf59e847_o.jpg",
    "id_image": "Apocalyptic_117055",
    "count_view": 0
  },
  {
    "link_thumb": "https://live.staticflickr.com/65535/50038924853_19ceb0b08a_n.jpg",
    "id_album": "-1964113117",
    "description": "City_498283",
    "title": "City_498283",
    "link_img": "https://live.staticflickr.com/65535/50038924853_b2c7b2e46f_o.jpg",
    "id_image": "City_498283",
    "count_view": 0
  },
  {
    "link_thumb": "https://live.staticflickr.com/65535/50039997752_3510230570_n.jpg",
    "id_album": "-1388385651",
    "description": "MilkyWay_560780",
    "title": "MilkyWay_560780",
    "link_img": "https://live.staticflickr.com/65535/50039997752_558646d62d_o.jpg",
    "id_image": "MilkyWay_560780",
    "count_view": 0
  },
  {
    "link_thumb": "https://live.staticflickr.com/65535/50039650221_35299d90a0_n.jpg",
    "id_album": "1204249541",
    "description": "Galaxy_676680",
    "title": "Galaxy_676680",
    "link_img": "https://live.staticflickr.com/65535/50039650221_6a283cbdce_o.jpg",
    "id_image": "Galaxy_676680",
    "count_view": 0
  },
  {
    "link_thumb": "https://live.staticflickr.com/65535/50038751178_ebf3327305_n.jpg",
    "id_album": "523598895",
    "description": "Artistic_157865",
    "title": "Artistic_157865",
    "link_img": "https://live.staticflickr.com/65535/50038751178_7e95787cc6_o.jpg",
    "id_image": "Artistic_157865",
    "count_view": 0
  },
  {
    "link_thumb": "https://live.staticflickr.com/65535/50039606661_db7fabc1ab_n.jpg",
    "id_album": "829169633",
    "description": "Cyborg_992042",
    "title": "Cyborg_992042",
    "link_img": "https://live.staticflickr.com/65535/50039606661_53968fc42f_o.jpg",
    "id_image": "Cyborg_992042",
    "count_view": 0
  },
  {
    "link_thumb": "https://live.staticflickr.com/65535/50039585026_c8aca55966_n.jpg",
    "id_album": "829169633",
    "description": "Cyborg_291088",
    "title": "Cyborg_291088",
    "link_img": "https://live.staticflickr.com/65535/50039585026_544b35289f_o.jpg",
    "id_image": "Cyborg_291088",
    "count_view": 0
  },
  {
    "link_thumb": "https://live.staticflickr.com/65535/50040402231_169df02474_n.jpg",
    "id_album": "779690680",
    "description": "Robot_906338",
    "title": "Robot_906338",
    "link_img": "https://live.staticflickr.com/65535/50040402231_56fb6af091_o.jpg",
    "id_image": "Robot_906338",
    "count_view": 0
  },
  {
    "link_thumb": "https://live.staticflickr.com/65535/50039921703_1874468f41_n.jpg",
    "id_album": "1613540653",
    "description": "Space_192886",
    "title": "Space_192886",
    "link_img": "https://live.staticflickr.com/65535/50039921703_d7aeb44c75_o.jpg",
    "id_image": "Space_192886",
    "count_view": 0
  },
  {
    "link_thumb": "https://live.staticflickr.com/65535/50039812007_bd3695a38c_n.jpg",
    "id_album": "-437872736",
    "description": "Creature_316159",
    "title": "Creature_316159",
    "link_img": "https://live.staticflickr.com/65535/50039812007_8b4987d8db_o.jpg",
    "id_image": "Creature_316159",
    "count_view": 0
  },
  {
    "link_thumb": "https://live.staticflickr.com/65535/50039592757_6354181898_n.jpg",
    "id_album": "523598895",
    "description": "Artistic_353782",
    "title": "Artistic_353782",
    "link_img": "https://live.staticflickr.com/65535/50039592757_c3e10ca174_o.jpg",
    "id_image": "Artistic_353782",
    "count_view": 0
  },
  {
    "link_thumb": "https://live.staticflickr.com/65535/50039527471_f224116674_n.jpg",
    "id_album": "-1964113117",
    "description": "City_956723",
    "title": "City_956723",
    "link_img": "https://live.staticflickr.com/65535/50039527471_6a40ce01f5_o.jpg",
    "id_image": "City_956723",
    "count_view": 0
  },
  {
    "link_thumb": "https://live.staticflickr.com/65535/50039775357_68a95167e6_n.jpg",
    "id_album": "-1964113117",
    "description": "City_889486",
    "title": "City_889486",
    "link_img": "https://live.staticflickr.com/65535/50039775357_88a6b9ca0a_o.jpg",
    "id_image": "City_889486",
    "count_view": 0
  },
  {
    "link_thumb": "https://live.staticflickr.com/65535/50039537377_bc746d7b48_n.jpg",
    "id_album": "849020728",
    "description": "Alien_868749",
    "title": "Alien_868749",
    "link_img": "https://live.staticflickr.com/65535/50039537377_ccc2f24a95_o.jpg",
    "id_image": "Alien_868749",
    "count_view": 0
  },
  {
    "link_thumb": "https://live.staticflickr.com/65535/50041590736_53dda177ab_n.jpg",
    "id_album": "-1675918237",
    "description": "WomenWarrior_921645",
    "title": "WomenWarrior_921645",
    "link_img": "https://live.staticflickr.com/65535/50041590736_bd3d8c0e1f_o.jpg",
    "id_image": "WomenWarrior_921645",
    "count_view": 0
  },
  {
    "link_thumb": "https://live.staticflickr.com/65535/50039922358_016f2ae0c6_n.jpg",
    "id_album": "1613540653",
    "description": "Space_192895",
    "title": "Space_192895",
    "link_img": "https://live.staticflickr.com/65535/50039922358_3107c8dc11_o.jpg",
    "id_image": "Space_192895",
    "count_view": 0
  },
  {
    "link_thumb": "https://live.staticflickr.com/65535/50040036017_6d04a93ded_n.jpg",
    "id_album": "-1610342324",
    "description": "Nebula_221478",
    "title": "Nebula_221478",
    "link_img": "https://live.staticflickr.com/65535/50040036017_61ea6fdc34_o.jpg",
    "id_image": "Nebula_221478",
    "count_view": 0
  },
  {
    "link_thumb": "https://live.staticflickr.com/65535/50040655592_2fb945b3cc_n.jpg",
    "id_album": "779690680",
    "description": "Robot_881767",
    "title": "Robot_881767",
    "link_img": "https://live.staticflickr.com/65535/50040655592_f0d63cb5f3_o.jpg",
    "id_image": "Robot_881767",
    "count_view": 0
  },
  {
    "link_thumb": "https://live.staticflickr.com/65535/50039838066_a6c399ae5a_n.jpg",
    "id_album": "-1610342324",
    "description": "Nebula_795901",
    "title": "Nebula_795901",
    "link_img": "https://live.staticflickr.com/65535/50039838066_9e21328a3e_o.jpg",
    "id_image": "Nebula_795901",
    "count_view": 0
  },
  {
    "link_thumb": "https://live.staticflickr.com/65535/50038745453_26c37e10f6_n.jpg",
    "id_album": "523598895",
    "description": "Artistic_112397",
    "title": "Artistic_112397",
    "link_img": "https://live.staticflickr.com/65535/50038745453_ccf7d1e445_o.jpg",
    "id_image": "Artistic_112397",
    "count_view": 0
  },
  {
    "link_thumb": "https://live.staticflickr.com/65535/50039414153_4ed3569a1e_n.jpg",
    "id_album": "395161030",
    "description": "Planet_559151",
    "title": "Planet_559151",
    "link_img": "https://live.staticflickr.com/65535/50039414153_94141061ff_o.jpg",
    "id_image": "Planet_559151",
    "count_view": 0
  },
  {
    "link_thumb": "https://live.staticflickr.com/65535/50039646813_0a42f50b96_n.jpg",
    "id_album": "-482547208",
    "description": "PostApocalyptic_237054",
    "title": "PostApocalyptic_237054",
    "link_img": "https://live.staticflickr.com/65535/50039646813_e28939975b_o.jpg",
    "id_image": "PostApocalyptic_237054",
    "count_view": 0
  },
  {
    "link_thumb": "https://live.staticflickr.com/65535/50041761577_ca177b60c0_n.jpg",
    "id_album": "-1261420436",
    "description": "Warrior_992224",
    "title": "Warrior_992224",
    "link_img": "https://live.staticflickr.com/65535/50041761577_45f141c5e9_o.jpg",
    "id_image": "Warrior_992224",
    "count_view": 0
  },
  {
    "link_thumb": "https://live.staticflickr.com/65535/50039094653_63ec40f413_n.jpg",
    "id_album": "1204249541",
    "description": "Galaxy_567288",
    "title": "Galaxy_567288",
    "link_img": "https://live.staticflickr.com/65535/50039094653_bc00c3208f_o.jpg",
    "id_image": "Galaxy_567288",
    "count_view": 0
  },
  {
    "link_thumb": "https://live.staticflickr.com/65535/50039895387_f2628db708_n.jpg",
    "id_album": "1204249541",
    "description": "Galaxy_400642",
    "title": "Galaxy_400642",
    "link_img": "https://live.staticflickr.com/65535/50039895387_352f9a9aa0_o.jpg",
    "id_image": "Galaxy_400642",
    "count_view": 0
  },
  {
    "link_thumb": "https://live.staticflickr.com/65535/50040195377_56dbcceb01_n.jpg",
    "id_album": "395161030",
    "description": "Planet_335814",
    "title": "Planet_335814",
    "link_img": "https://live.staticflickr.com/65535/50040195377_6b8c72a68b_o.jpg",
    "id_image": "Planet_335814",
    "count_view": 0
  },
  {
    "link_thumb": "https://live.staticflickr.com/65535/50040408766_c0af7dc1ea_n.jpg",
    "id_album": "779690680",
    "description": "Robot_911877",
    "title": "Robot_911877",
    "link_img": "https://live.staticflickr.com/65535/50040408766_082ba7ca50_o.jpg",
    "id_image": "Robot_911877",
    "count_view": 0
  },
  {
    "link_thumb": "https://live.staticflickr.com/65535/50041507847_77741b97ed_n.jpg",
    "id_album": "-1863373220",
    "description": "StarWars_949512",
    "title": "StarWars_949512",
    "link_img": "https://live.staticflickr.com/65535/50041507847_468e066bdc_o.jpg",
    "id_image": "StarWars_949512",
    "count_view": 0
  },
  {
    "link_thumb": "https://live.staticflickr.com/65535/50039015418_d5a7a41381_n.jpg",
    "id_album": "-1372247677",
    "description": "Cyberpunk_872307",
    "title": "Cyberpunk_872307",
    "link_img": "https://live.staticflickr.com/65535/50039015418_af7b16e04a_o.jpg",
    "id_image": "Cyberpunk_872307",
    "count_view": 0
  },
  {
    "link_thumb": "https://live.staticflickr.com/65535/50038926938_10337b0f24_n.jpg",
    "id_album": "-1964113117",
    "description": "City_527928",
    "title": "City_527928",
    "link_img": "https://live.staticflickr.com/65535/50038926938_1dca574598_o.jpg",
    "id_image": "City_527928",
    "count_view": 0
  },
  {
    "link_thumb": "https://live.staticflickr.com/65535/50039881563_aa2883750b_n.jpg",
    "id_album": "779690680",
    "description": "Robot_940960",
    "title": "Robot_940960",
    "link_img": "https://live.staticflickr.com/65535/50039881563_d459e83c78_o.jpg",
    "id_image": "Robot_940960",
    "count_view": 0
  },
  {
    "link_thumb": "https://live.staticflickr.com/65535/50040657162_3800ae30c4_n.jpg",
    "id_album": "779690680",
    "description": "Robot_884809",
    "title": "Robot_884809",
    "link_img": "https://live.staticflickr.com/65535/50040657162_79cb073feb_o.jpg",
    "id_image": "Robot_884809",
    "count_view": 0
  },
  {
    "link_thumb": "https://live.staticflickr.com/65535/50041491691_4e3ae1a524_n.jpg",
    "id_album": "-1261420436",
    "description": "Warrior_891761",
    "title": "Warrior_891761",
    "link_img": "https://live.staticflickr.com/65535/50041491691_ba578ed29d_o.jpg",
    "id_image": "Warrior_891761",
    "count_view": 0
  },
  {
    "link_thumb": "https://live.staticflickr.com/65535/50039884673_fe7041f763_n.jpg",
    "id_album": "779690680",
    "description": "Robot_944758",
    "title": "Robot_944758",
    "link_img": "https://live.staticflickr.com/65535/50039884673_4bda8aba29_o.jpg",
    "id_image": "Robot_944758",
    "count_view": 0
  },
  {
    "link_thumb": "https://live.staticflickr.com/65535/50041442826_5c9ced1e32_n.jpg",
    "id_album": "-1261420436",
    "description": "Warrior_283438",
    "title": "Warrior_283438",
    "link_img": "https://live.staticflickr.com/65535/50041442826_850222ceda_o.jpg",
    "id_image": "Warrior_283438",
    "count_view": 0
  },
  {
    "link_thumb": "https://live.staticflickr.com/65535/50039806627_06c8cc8050_n.jpg",
    "id_album": "894679094",
    "description": "Collision_934138",
    "title": "Collision_934138",
    "link_img": "https://live.staticflickr.com/65535/50039806627_61213fd6f1_o.jpg",
    "id_image": "Collision_934138",
    "count_view": 0
  },
  {
    "link_thumb": "https://live.staticflickr.com/65535/50039357121_076d3abe58_n.jpg",
    "id_album": "869545341",
    "description": "Astronaut_548678",
    "title": "Astronaut_548678",
    "link_img": "https://live.staticflickr.com/65535/50039357121_4335462e92_o.jpg",
    "id_image": "Astronaut_548678",
    "count_view": 0
  },
  {
    "link_thumb": "https://live.staticflickr.com/65535/50039102983_3cd1ecc87f_n.jpg",
    "id_album": "1204249541",
    "description": "Galaxy_744904",
    "title": "Galaxy_744904",
    "link_img": "https://live.staticflickr.com/65535/50039102983_6868b5ce55_o.jpg",
    "id_image": "Galaxy_744904",
    "count_view": 0
  },
  {
    "link_thumb": "https://live.staticflickr.com/65535/50040019386_9ebbca4c65_n.jpg",
    "id_album": "814701616",
    "description": "PlanetaryRing_185239",
    "title": "PlanetaryRing_185239",
    "link_img": "https://live.staticflickr.com/65535/50040019386_781311b815_o.jpg",
    "id_image": "PlanetaryRing_185239",
    "count_view": 0
  },
  {
    "link_thumb": "https://live.staticflickr.com/65535/50041574461_699d2d5bfd_n.jpg",
    "id_album": "-1675918237",
    "description": "WomenWarrior_410152",
    "title": "WomenWarrior_410152",
    "link_img": "https://live.staticflickr.com/65535/50041574461_e442702eb4_o.jpg",
    "id_image": "WomenWarrior_410152",
    "count_view": 0
  },
  {
    "link_thumb": "https://live.staticflickr.com/65535/50040452252_536de4fb6c_n.jpg",
    "id_album": "-482547208",
    "description": "PostApocalyptic_1010160",
    "title": "PostApocalyptic_1010160",
    "link_img": "https://live.staticflickr.com/65535/50040452252_70c0b13824_o.jpg",
    "id_image": "PostApocalyptic_1010160",
    "count_view": 0
  },
  {
    "link_thumb": "https://live.staticflickr.com/65535/50039951151_78fca4527a_n.jpg",
    "id_album": "395161030",
    "description": "Planet_464558",
    "title": "Planet_464558",
    "link_img": "https://live.staticflickr.com/65535/50039951151_2273781326_o.jpg",
    "id_image": "Planet_464558",
    "count_view": 0
  },
  {
    "link_thumb": "https://live.staticflickr.com/65535/50040991228_9ba1c65299_n.jpg",
    "id_album": "-1126835654",
    "description": "Women_688511",
    "title": "Women_688511",
    "link_img": "https://live.staticflickr.com/65535/50040991228_82aa9ed12f_o.jpg",
    "id_image": "Women_688511",
    "count_view": 0
  },
  {
    "link_thumb": "https://live.staticflickr.com/65535/50041231801_88e88ee419_n.jpg",
    "id_album": "-1863373220",
    "description": "StarWars_867726",
    "title": "StarWars_867726",
    "link_img": "https://live.staticflickr.com/65535/50041231801_3f4f7642ce_o.jpg",
    "id_image": "StarWars_867726",
    "count_view": 0
  },
  {
    "link_thumb": "https://live.staticflickr.com/65535/50040047826_166414075c_n.jpg",
    "id_album": "-1102314093",
    "description": "Planets_11371",
    "title": "Planets_11371",
    "link_img": "https://live.staticflickr.com/65535/50040047826_ce6815279a_o.jpg",
    "id_image": "Planets_11371",
    "count_view": 0
  },
  {
    "link_thumb": "https://live.staticflickr.com/65535/50040729782_8146617089_n.jpg",
    "id_album": "1613540653",
    "description": "Space_114228",
    "title": "Space_114228",
    "link_img": "https://live.staticflickr.com/65535/50040729782_55eb0d59dd_o.jpg",
    "id_image": "Space_114228",
    "count_view": 0
  },
  {
    "link_thumb": "https://live.staticflickr.com/65535/50039611016_a56b48f96b_n.jpg",
    "id_album": "651930207",
    "description": "Explosion_430157",
    "title": "Explosion_430157",
    "link_img": "https://live.staticflickr.com/65535/50039611016_a884ba8d14_o.jpg",
    "id_image": "Explosion_430157",
    "count_view": 0
  },
  {
    "link_thumb": "https://live.staticflickr.com/65535/50039403266_5096c64643_n.jpg",
    "id_album": "1187037014",
    "description": "Battle_564424",
    "title": "Battle_564424",
    "link_img": "https://live.staticflickr.com/65535/50039403266_c1dd95a89e_o.jpg",
    "id_image": "Battle_564424",
    "count_view": 0
  },
  {
    "link_thumb": "https://live.staticflickr.com/65535/50040803258_dc4de72c7d_n.jpg",
    "id_album": "-1177476763",
    "description": "Sunrise_209952",
    "title": "Sunrise_209952",
    "link_img": "https://live.staticflickr.com/65535/50040803258_032742de87_o.jpg",
    "id_image": "Sunrise_209952",
    "count_view": 0
  },
  {
    "link_thumb": "https://live.staticflickr.com/65535/50041636532_47ed2b6811_n.jpg",
    "id_album": "2020068132",
    "description": "Vehicle_171696",
    "title": "Vehicle_171696",
    "link_img": "https://live.staticflickr.com/65535/50041636532_abf96cca8b_o.jpg",
    "id_image": "Vehicle_171696",
    "count_view": 0
  },
  {
    "link_thumb": "https://live.staticflickr.com/65535/50039099828_a6346993b3_n.jpg",
    "id_album": "1204249541",
    "description": "Galaxy_606891",
    "title": "Galaxy_606891",
    "link_img": "https://live.staticflickr.com/65535/50039099828_96d566a2a1_o.jpg",
    "id_image": "Galaxy_606891",
    "count_view": 0
  },
  {
    "link_thumb": "https://live.staticflickr.com/65535/50040551891_34f478f43c_n.jpg",
    "id_album": "1613540653",
    "description": "Space_934840",
    "title": "Space_934840",
    "link_img": "https://live.staticflickr.com/65535/50040551891_670cf42ecf_o.jpg",
    "id_image": "Space_934840",
    "count_view": 0
  },
  {
    "link_thumb": "https://live.staticflickr.com/65535/50039244218_63a8bb607e_n.jpg",
    "id_album": "-1610342324",
    "description": "Nebula_413592",
    "title": "Nebula_413592",
    "link_img": "https://live.staticflickr.com/65535/50039244218_74dd00cc9b_o.jpg",
    "id_image": "Nebula_413592",
    "count_view": 0
  },
  {
    "link_thumb": "https://live.staticflickr.com/65535/50039701858_76760212f5_n.jpg",
    "id_album": "779690680",
    "description": "Robot_145924",
    "title": "Robot_145924",
    "link_img": "https://live.staticflickr.com/65535/50039701858_cbdbae8548_o.jpg",
    "id_image": "Robot_145924",
    "count_view": 0
  },
  {
    "link_thumb": "https://live.staticflickr.com/65535/50041526811_809eda8220_n.jpg",
    "id_album": "-1126835654",
    "description": "Women_374516",
    "title": "Women_374516",
    "link_img": "https://live.staticflickr.com/65535/50041526811_c95b78059e_o.jpg",
    "id_image": "Women_374516",
    "count_view": 0
  },
  {
    "link_thumb": "https://live.staticflickr.com/65535/50039665102_54501794ec_n.jpg",
    "id_album": "1187037014",
    "description": "Battle_503665",
    "title": "Battle_503665",
    "link_img": "https://live.staticflickr.com/65535/50039665102_251a060ccc_o.jpg",
    "id_image": "Battle_503665",
    "count_view": 0
  },
  {
    "link_thumb": "https://live.staticflickr.com/65535/50039571382_a18eed57d4_n.jpg",
    "id_album": "523598895",
    "description": "Artistic_191740",
    "title": "Artistic_191740",
    "link_img": "https://live.staticflickr.com/65535/50039571382_91ceba7069_o.jpg",
    "id_image": "Artistic_191740",
    "count_view": 0
  },
  {
    "link_thumb": "https://live.staticflickr.com/65535/50038726178_cf5b828280_n.jpg",
    "id_album": "849020728",
    "description": "Alien_725219",
    "title": "Alien_725219",
    "link_img": "https://live.staticflickr.com/65535/50038726178_de8be8a59c_o.jpg",
    "id_image": "Alien_725219",
    "count_view": 0
  },
  {
    "link_thumb": "https://live.staticflickr.com/65535/50039106558_84b5a464ec_n.jpg",
    "id_album": "1204249541",
    "description": "Galaxy_905628",
    "title": "Galaxy_905628",
    "link_img": "https://live.staticflickr.com/65535/50039106558_e8b65c48ef_o.jpg",
    "id_image": "Galaxy_905628",
    "count_view": 0
  },
  {
    "link_thumb": "https://live.staticflickr.com/65535/50039598272_0b4d29ea31_n.jpg",
    "id_album": "523598895",
    "description": "Artistic_447890",
    "title": "Artistic_447890",
    "link_img": "https://live.staticflickr.com/65535/50039598272_2569fd55ce_o.jpg",
    "id_image": "Artistic_447890",
    "count_view": 0
  },
  {
    "link_thumb": "https://live.staticflickr.com/65535/50039915807_3440870b0f_n.jpg",
    "id_album": "1204249541",
    "description": "Galaxy_746412",
    "title": "Galaxy_746412",
    "link_img": "https://live.staticflickr.com/65535/50039915807_055d3eec38_o.jpg",
    "id_image": "Galaxy_746412",
    "count_view": 0
  },
  {
    "link_thumb": "https://live.staticflickr.com/65535/50040787308_701b50564a_n.jpg",
    "id_album": "-221671103",
    "description": "Sun_223222",
    "title": "Sun_223222",
    "link_img": "https://live.staticflickr.com/65535/50040787308_8e93af61dd_o.jpg",
    "id_image": "Sun_223222",
    "count_view": 0
  },
  {
    "link_thumb": "https://live.staticflickr.com/65535/50040416286_c73537a555_n.jpg",
    "id_album": "779690680",
    "description": "Robot_918802",
    "title": "Robot_918802",
    "link_img": "https://live.staticflickr.com/65535/50040416286_8f0bc4aa8a_o.jpg",
    "id_image": "Robot_918802",
    "count_view": 0
  },
  {
    "link_thumb": "https://live.staticflickr.com/65535/50038776493_0d4722567a_n.jpg",
    "id_album": "523598895",
    "description": "Artistic_250290",
    "title": "Artistic_250290",
    "link_img": "https://live.staticflickr.com/65535/50038776493_c00ab2e99b_o.jpg",
    "id_image": "Artistic_250290",
    "count_view": 0
  },
  {
    "link_thumb": "https://live.staticflickr.com/65535/50039937717_3b451ec3af_n.jpg",
    "id_album": "1402713104",
    "description": "Landscape_311326",
    "title": "Landscape_311326",
    "link_img": "https://live.staticflickr.com/65535/50039937717_599547c66d_o.jpg",
    "id_image": "Landscape_311326",
    "count_view": 0
  },
  {
    "link_thumb": "https://live.staticflickr.com/65535/50040146652_23a5677411_n.jpg",
    "id_album": "-1862561193",
    "description": "Other_269888",
    "title": "Other_269888",
    "link_img": "https://live.staticflickr.com/65535/50040146652_4f2a7fc3a8_o.jpg",
    "id_image": "Other_269888",
    "count_view": 0
  },
  {
    "link_thumb": "https://live.staticflickr.com/65535/50041739942_25fd76083f_n.jpg",
    "id_album": "-1261420436",
    "description": "Warrior_599815",
    "title": "Warrior_599815",
    "link_img": "https://live.staticflickr.com/65535/50041739942_e4b3b1bfc0_o.jpg",
    "id_image": "Warrior_599815",
    "count_view": 0
  },
  {
    "link_thumb": "https://live.staticflickr.com/65535/50039124358_fba4a2be61_n.jpg",
    "id_album": "1402713104",
    "description": "Landscape_305754",
    "title": "Landscape_305754",
    "link_img": "https://live.staticflickr.com/65535/50039124358_10db202d4f_o.jpg",
    "id_image": "Landscape_305754",
    "count_view": 0
  },
  {
    "link_thumb": "https://live.staticflickr.com/65535/50039717938_9416c6cba5_n.jpg",
    "id_album": "779690680",
    "description": "Robot_249483",
    "title": "Robot_249483",
    "link_img": "https://live.staticflickr.com/65535/50039717938_d7b480b2d4_o.jpg",
    "id_image": "Robot_249483",
    "count_view": 0
  },
  {
    "link_thumb": "https://live.staticflickr.com/65535/50041337091_2a6f885b09_n.jpg",
    "id_album": "1267121215",
    "description": "Steampunk_992541",
    "title": "Steampunk_992541",
    "link_img": "https://live.staticflickr.com/65535/50041337091_645e07d002_o.jpg",
    "id_image": "Steampunk_992541",
    "count_view": 0
  },
  {
    "link_thumb": "https://live.staticflickr.com/65535/50038784683_695071f981_n.jpg",
    "id_album": "523598895",
    "description": "Artistic_388044",
    "title": "Artistic_388044",
    "link_img": "https://live.staticflickr.com/65535/50038784683_1d8175e7f4_o.jpg",
    "id_image": "Artistic_388044",
    "count_view": 0
  },
  {
    "link_thumb": "https://live.staticflickr.com/65535/50039999788_61551e103a_n.jpg",
    "id_album": "1613540653",
    "description": "Space_957428",
    "title": "Space_957428",
    "link_img": "https://live.staticflickr.com/65535/50039999788_0455526275_o.jpg",
    "id_image": "Space_957428",
    "count_view": 0
  },
  {
    "link_thumb": "https://live.staticflickr.com/65535/50040547082_e20ac97e99_n.jpg",
    "id_album": "779690680",
    "description": "Robot_291385",
    "title": "Robot_291385",
    "link_img": "https://live.staticflickr.com/65535/50040547082_913b9dc73d_o.jpg",
    "id_image": "Robot_291385",
    "count_view": 0
  },
  {
    "link_thumb": "https://live.staticflickr.com/65535/50038926378_9c8e9c282e_n.jpg",
    "id_album": "-1964113117",
    "description": "City_527907",
    "title": "City_527907",
    "link_img": "https://live.staticflickr.com/65535/50038926378_ba02af5fac_o.jpg",
    "id_image": "City_527907",
    "count_view": 0
  },
  {
    "link_thumb": "https://live.staticflickr.com/65535/50039789022_985ec29e20_n.jpg",
    "id_album": "-1964113117",
    "description": "City_956725",
    "title": "City_956725",
    "link_img": "https://live.staticflickr.com/65535/50039789022_dd6a5919e4_o.jpg",
    "id_image": "City_956725",
    "count_view": 0
  },
  {
    "link_thumb": "https://live.staticflickr.com/65535/50040198482_c4c67b6f6f_n.jpg",
    "id_album": "395161030",
    "description": "Planet_350098",
    "title": "Planet_350098",
    "link_img": "https://live.staticflickr.com/65535/50040198482_32dc173a6f_o.jpg",
    "id_image": "Planet_350098",
    "count_view": 0
  },
  {
    "link_thumb": "https://live.staticflickr.com/65535/50039588347_0a57672ca4_n.jpg",
    "id_album": "523598895",
    "description": "Artistic_276421",
    "title": "Artistic_276421",
    "link_img": "https://live.staticflickr.com/65535/50039588347_4d4503c9ff_o.jpg",
    "id_image": "Artistic_276421",
    "count_view": 0
  },
  {
    "link_thumb": "https://live.staticflickr.com/65535/50041218906_0f202110d3_n.jpg",
    "id_album": "-1863373220",
    "description": "StarWars_716326",
    "title": "StarWars_716326",
    "link_img": "https://live.staticflickr.com/65535/50041218906_56f19593fb_o.jpg",
    "id_image": "StarWars_716326",
    "count_view": 0
  },
  {
    "link_thumb": "https://live.staticflickr.com/65535/50040666782_e3ba90eab9_n.jpg",
    "id_album": "779690680",
    "description": "Robot_906342",
    "title": "Robot_906342",
    "link_img": "https://live.staticflickr.com/65535/50040666782_b479e0cb5f_o.jpg",
    "id_image": "Robot_906342",
    "count_view": 0
  },
  {
    "link_thumb": "https://live.staticflickr.com/65535/50039344466_a9c05e609f_n.jpg",
    "id_album": "523598895",
    "description": "Artistic_740043",
    "title": "Artistic_740043",
    "link_img": "https://live.staticflickr.com/65535/50039344466_b857f21353_o.jpg",
    "id_image": "Artistic_740043",
    "count_view": 0
  },
  {
    "link_thumb": "https://live.staticflickr.com/65535/50039641467_6a3c893dcf_n.jpg",
    "id_album": "869545341",
    "description": "Astronaut_923961",
    "title": "Astronaut_923961",
    "link_img": "https://live.staticflickr.com/65535/50039641467_e0e9079ba7_o.jpg",
    "id_image": "Astronaut_923961",
    "count_view": 0
  },
  {
    "link_thumb": "https://live.staticflickr.com/65535/50039850257_688f55b2fb_n.jpg",
    "id_album": "829169633",
    "description": "Cyborg_390068",
    "title": "Cyborg_390068",
    "link_img": "https://live.staticflickr.com/65535/50039850257_51d7aa45fc_o.jpg",
    "id_image": "Cyborg_390068",
    "count_view": 0
  },
  {
    "link_thumb": "https://live.staticflickr.com/65535/50039851211_c7d34fbf94_n.jpg",
    "id_album": "-1610342324",
    "description": "Nebula_909175",
    "title": "Nebula_909175",
    "link_img": "https://live.staticflickr.com/65535/50039851211_ba5b75a5b9_o.jpg",
    "id_image": "Nebula_909175",
    "count_view": 0
  },
  {
    "link_thumb": "https://live.staticflickr.com/65535/50039372913_d5ae4fa902_n.jpg",
    "id_album": "395161030",
    "description": "Planet_286757",
    "title": "Planet_286757",
    "link_img": "https://live.staticflickr.com/65535/50039372913_81e525ec23_o.jpg",
    "id_image": "Planet_286757",
    "count_view": 0
  },
  {
    "link_thumb": "https://live.staticflickr.com/65535/50039745552_01e899bbd5_n.jpg",
    "id_album": "-1964113117",
    "description": "City_649147",
    "title": "City_649147",
    "link_img": "https://live.staticflickr.com/65535/50039745552_a5b8801e3e_o.jpg",
    "id_image": "City_649147",
    "count_view": 0
  },
  {
    "link_thumb": "https://live.staticflickr.com/65535/50039680732_a17da47924_n.jpg",
    "id_album": "-1780971522",
    "description": "Biohazard_573095",
    "title": "Biohazard_573095",
    "link_img": "https://live.staticflickr.com/65535/50039680732_193364d024_o.jpg",
    "id_image": "Biohazard_573095",
    "count_view": 0
  },
  {
    "link_thumb": "https://live.staticflickr.com/65535/50039430536_1aed38bd00_n.jpg",
    "id_album": "-1964113117",
    "description": "City_101078",
    "title": "City_101078",
    "link_img": "https://live.staticflickr.com/65535/50039430536_a2b35dc527_o.jpg",
    "id_image": "City_101078",
    "count_view": 0
  },
  {
    "link_thumb": "https://live.staticflickr.com/65535/50040185647_e42b8c1f6a_n.jpg",
    "id_album": "395161030",
    "description": "Planet_275966",
    "title": "Planet_275966",
    "link_img": "https://live.staticflickr.com/65535/50040185647_156bedb0f6_o.jpg",
    "id_image": "Planet_275966",
    "count_view": 0
  },
  {
    "link_thumb": "https://live.staticflickr.com/65535/50040017226_342e63747f_n.jpg",
    "id_album": "1443611160",
    "description": "PlanetRise_99304",
    "title": "PlanetRise_99304",
    "link_img": "https://live.staticflickr.com/65535/50040017226_d5f9956fb6_o.jpg",
    "id_image": "PlanetRise_99304",
    "count_view": 0
  },
  {
    "link_thumb": "https://live.staticflickr.com/65535/50039310958_1c77f5c3c5_n.jpg",
    "id_album": "-1862561193",
    "description": "Other_1304",
    "title": "Other_1304",
    "link_img": "https://live.staticflickr.com/65535/50039310958_814f2b0880_o.jpg",
    "id_image": "Other_1304",
    "count_view": 0
  },
  {
    "link_thumb": "https://live.staticflickr.com/65535/50040888767_90625db5bc_n.jpg",
    "id_album": "2130067313",
    "description": "Spaceship_283036",
    "title": "Spaceship_283036",
    "link_img": "https://live.staticflickr.com/65535/50040888767_5cf20c254c_o.jpg",
    "id_image": "Spaceship_283036",
    "count_view": 0
  },
  {
    "link_thumb": "https://live.staticflickr.com/65535/50040405616_aa499aca4a_n.jpg",
    "id_album": "779690680",
    "description": "Robot_909549",
    "title": "Robot_909549",
    "link_img": "https://live.staticflickr.com/65535/50040405616_863990d946_o.jpg",
    "id_image": "Robot_909549",
    "count_view": 0
  },
  {
    "link_thumb": "https://live.staticflickr.com/65535/50040617028_0056f4f820_n.jpg",
    "id_album": "-1863373220",
    "description": "StarWars_376841",
    "title": "StarWars_376841",
    "link_img": "https://live.staticflickr.com/65535/50040617028_7359cf14de_o.jpg",
    "id_image": "StarWars_376841",
    "count_view": 0
  },
  {
    "link_thumb": "https://live.staticflickr.com/65535/50039840393_362ab7f104_n.jpg",
    "id_album": "779690680",
    "description": "Robot_884818",
    "title": "Robot_884818",
    "link_img": "https://live.staticflickr.com/65535/50039840393_0c266092de_o.jpg",
    "id_image": "Robot_884818",
    "count_view": 0
  },
  {
    "link_thumb": "https://live.staticflickr.com/65535/50040553947_5db6de7077_n.jpg",
    "id_album": "779690680",
    "description": "Robot_325642",
    "title": "Robot_325642",
    "link_img": "https://live.staticflickr.com/65535/50040553947_1058e8661a_o.jpg",
    "id_image": "Robot_325642",
    "count_view": 0
  },
  {
    "link_thumb": "https://live.staticflickr.com/65535/50040362487_10fbc986bb_n.jpg",
    "id_album": "-1102314093",
    "description": "Planets_361693",
    "title": "Planets_361693",
    "link_img": "https://live.staticflickr.com/65535/50040362487_ab5bf7f8a8_o.jpg",
    "id_image": "Planets_361693",
    "count_view": 0
  },
  {
    "link_thumb": "https://live.staticflickr.com/65535/50039654486_9553e15a02_n.jpg",
    "id_album": "1204249541",
    "description": "Galaxy_864929",
    "title": "Galaxy_864929",
    "link_img": "https://live.staticflickr.com/65535/50039654486_718c30c31f_o.jpg",
    "id_image": "Galaxy_864929",
    "count_view": 0
  },
  {
    "link_thumb": "https://live.staticflickr.com/65535/50039711801_d2e6651a93_n.jpg",
    "id_album": "1402713104",
    "description": "Landscape_860517",
    "title": "Landscape_860517",
    "link_img": "https://live.staticflickr.com/65535/50039711801_b07eedd9e8_o.jpg",
    "id_image": "Landscape_860517",
    "count_view": 0
  },
  {
    "link_thumb": "https://live.staticflickr.com/65535/50039149188_0fceaab9b7_n.jpg",
    "id_album": "1402713104",
    "description": "Landscape_665168",
    "title": "Landscape_665168",
    "link_img": "https://live.staticflickr.com/65535/50039149188_296f5051cb_o.jpg",
    "id_image": "Landscape_665168",
    "count_view": 0
  },
  {
    "link_thumb": "https://live.staticflickr.com/65535/50039666897_eedc816c93_n.jpg",
    "id_album": "1187037014",
    "description": "Battle_602694",
    "title": "Battle_602694",
    "link_img": "https://live.staticflickr.com/65535/50039666897_c334d918ae_o.jpg",
    "id_image": "Battle_602694",
    "count_view": 0
  },
  {
    "link_thumb": "https://live.staticflickr.com/65535/50039641631_ce752020c6_n.jpg",
    "id_album": "1204249541",
    "description": "Galaxy_548277",
    "title": "Galaxy_548277",
    "link_img": "https://live.staticflickr.com/65535/50039641631_f490da5d2a_o.jpg",
    "id_image": "Galaxy_548277",
    "count_view": 0
  },
  {
    "link_thumb": "https://live.staticflickr.com/65535/50041494447_e386f641b7_n.jpg",
    "id_album": "-1863373220",
    "description": "StarWars_868333",
    "title": "StarWars_868333",
    "link_img": "https://live.staticflickr.com/65535/50041494447_c3d2f08097_o.jpg",
    "id_image": "StarWars_868333",
    "count_view": 0
  },
  {
    "link_thumb": "https://live.staticflickr.com/65535/50039779312_b22995b8f5_n.jpg",
    "id_album": "-1964113117",
    "description": "City_905533",
    "title": "City_905533",
    "link_img": "https://live.staticflickr.com/65535/50039779312_c4495c0c6e_o.jpg",
    "id_image": "City_905533",
    "count_view": 0
  },
  {
    "link_thumb": "https://live.staticflickr.com/65535/50040562717_13a48edb0f_n.jpg",
    "id_album": "779690680",
    "description": "Robot_379829",
    "title": "Robot_379829",
    "link_img": "https://live.staticflickr.com/65535/50040562717_ef2b2db8d1_o.jpg",
    "id_image": "Robot_379829",
    "count_view": 0
  },
  {
    "link_thumb": "https://live.staticflickr.com/65535/50039110378_923ae92fba_n.jpg",
    "id_album": "1402713104",
    "description": "Landscape_113753",
    "title": "Landscape_113753",
    "link_img": "https://live.staticflickr.com/65535/50039110378_f189991509_o.jpg",
    "id_image": "Landscape_113753",
    "count_view": 0
  },
  {
    "link_thumb": "https://live.staticflickr.com/65535/50040131291_f78c11e276_n.jpg",
    "id_album": "-1102314093",
    "description": "Planets_73592",
    "title": "Planets_73592",
    "link_img": "https://live.staticflickr.com/65535/50040131291_29aa76070a_o.jpg",
    "id_image": "Planets_73592",
    "count_view": 0
  },
  {
    "link_thumb": "https://live.staticflickr.com/65535/50040305591_682a47debc_n.jpg",
    "id_album": "779690680",
    "description": "Robot_413349",
    "title": "Robot_413349",
    "link_img": "https://live.staticflickr.com/65535/50040305591_63b44394c4_o.jpg",
    "id_image": "Robot_413349",
    "count_view": 0
  },
  {
    "link_thumb": "https://live.staticflickr.com/65535/50040899313_0ff4d5ce62_n.jpg",
    "id_album": "-1261420436",
    "description": "Warrior_374946",
    "title": "Warrior_374946",
    "link_img": "https://live.staticflickr.com/65535/50040899313_6d0689c3ca_o.jpg",
    "id_image": "Warrior_374946",
    "count_view": 0
  },
  {
    "link_thumb": "https://live.staticflickr.com/65535/50040444821_5ee65e75a5_n.jpg",
    "id_album": "779690680",
    "description": "Robot_955773",
    "title": "Robot_955773",
    "link_img": "https://live.staticflickr.com/65535/50040444821_31f31fa5b9_o.jpg",
    "id_image": "Robot_955773",
    "count_view": 0
  },
  {
    "link_thumb": "https://live.staticflickr.com/65535/50039187998_bef0e94e3a_n.jpg",
    "id_album": "-1388385651",
    "description": "MilkyWay_650777",
    "title": "MilkyWay_650777",
    "link_img": "https://live.staticflickr.com/65535/50039187998_2d2dcdbc08_o.jpg",
    "id_image": "MilkyWay_650777",
    "count_view": 0
  },
  {
    "link_thumb": "https://live.staticflickr.com/65535/50039553011_66f5c88dcc_n.jpg",
    "id_album": "-437872736",
    "description": "Creature_336803",
    "title": "Creature_336803",
    "link_img": "https://live.staticflickr.com/65535/50039553011_91e1b31649_o.jpg",
    "id_image": "Creature_336803",
    "count_view": 0
  },
  {
    "link_thumb": "https://live.staticflickr.com/65535/50039237708_1f54d94c5e_n.jpg",
    "id_album": "-1610342324",
    "description": "Nebula_330818",
    "title": "Nebula_330818",
    "link_img": "https://live.staticflickr.com/65535/50039237708_b57ef1f3d9_o.jpg",
    "id_image": "Nebula_330818",
    "count_view": 0
  },
  {
    "link_thumb": "https://live.staticflickr.com/65535/50039895852_a23cb0ba54_n.jpg",
    "id_album": "1204249541",
    "description": "Galaxy_421608",
    "title": "Galaxy_421608",
    "link_img": "https://live.staticflickr.com/65535/50039895852_de2ea326e4_o.jpg",
    "id_image": "Galaxy_421608",
    "count_view": 0
  },
  {
    "link_thumb": "https://live.staticflickr.com/65535/50040703553_ac819d1051_n.jpg",
    "id_album": "-1587696329",
    "description": "Stars_171589",
    "title": "Stars_171589",
    "link_img": "https://live.staticflickr.com/65535/50040703553_4c8c7b4233_o.jpg",
    "id_image": "Stars_171589",
    "count_view": 0
  },
  {
    "link_thumb": "https://live.staticflickr.com/65535/50041444602_5e97cfb088_n.jpg",
    "id_album": "-1863373220",
    "description": "StarWars_446626",
    "title": "StarWars_446626",
    "link_img": "https://live.staticflickr.com/65535/50041444602_039c2ff221_o.jpg",
    "id_image": "StarWars_446626",
    "count_view": 0
  },
  {
    "link_thumb": "https://live.staticflickr.com/65535/50038738103_2cf552aa28_n.jpg",
    "id_album": "-419633230",
    "description": "Apocalyptic_678101",
    "title": "Apocalyptic_678101",
    "link_img": "https://live.staticflickr.com/65535/50038738103_94aa5ba697_o.jpg",
    "id_image": "Apocalyptic_678101",
    "count_view": 0
  },
  {
    "link_thumb": "https://live.staticflickr.com/65535/50041043907_1bd1854ca2_n.jpg",
    "id_album": "2130067313",
    "description": "Spaceship_976123",
    "title": "Spaceship_976123",
    "link_img": "https://live.staticflickr.com/65535/50041043907_e61bcaf93b_o.jpg",
    "id_image": "Spaceship_976123",
    "count_view": 0
  },
  {
    "link_thumb": "https://live.staticflickr.com/65535/50040051057_cb21a62c85_n.jpg",
    "id_album": "-1610342324",
    "description": "Nebula_351692",
    "title": "Nebula_351692",
    "link_img": "https://live.staticflickr.com/65535/50040051057_227b4c8786_o.jpg",
    "id_image": "Nebula_351692",
    "count_view": 0
  },
  {
    "link_thumb": "https://live.staticflickr.com/65535/50039663302_ce573d826a_n.jpg",
    "id_album": "1187037014",
    "description": "Battle_309436",
    "title": "Battle_309436",
    "link_img": "https://live.staticflickr.com/65535/50039663302_30d73b62f1_o.jpg",
    "id_image": "Battle_309436",
    "count_view": 0
  },
  {
    "link_thumb": "https://live.staticflickr.com/65535/50040843238_bd078f3e9e_n.jpg",
    "id_album": "2020068132",
    "description": "Vehicle_410768",
    "title": "Vehicle_410768",
    "link_img": "https://live.staticflickr.com/65535/50040843238_5100bd0946_o.jpg",
    "id_image": "Vehicle_410768",
    "count_view": 0
  },
  {
    "link_thumb": "https://live.staticflickr.com/65535/50038948688_a0d795b177_n.jpg",
    "id_album": "-1964113117",
    "description": "City_784095",
    "title": "City_784095",
    "link_img": "https://live.staticflickr.com/65535/50038948688_1b10df14a3_o.jpg",
    "id_image": "City_784095",
    "count_view": 0
  },
  {
    "link_thumb": "https://live.staticflickr.com/65535/50039682231_56a202d870_n.jpg",
    "id_album": "1402713104",
    "description": "Landscape_363625",
    "title": "Landscape_363625",
    "link_img": "https://live.staticflickr.com/65535/50039682231_ffac8aaf69_o.jpg",
    "id_image": "Landscape_363625",
    "count_view": 0
  },
  {
    "link_thumb": "https://live.staticflickr.com/65535/50039376211_608a9b8550_n.jpg",
    "id_album": "869545341",
    "description": "Astronaut_899028",
    "title": "Astronaut_899028",
    "link_img": "https://live.staticflickr.com/65535/50039376211_f7f565f2e2_o.jpg",
    "id_image": "Astronaut_899028",
    "count_view": 0
  },
  {
    "link_thumb": "https://live.staticflickr.com/65535/50038766553_64c40596e8_n.jpg",
    "id_album": "523598895",
    "description": "Artistic_211262",
    "title": "Artistic_211262",
    "link_img": "https://live.staticflickr.com/65535/50038766553_3aeb323b78_o.jpg",
    "id_image": "Artistic_211262",
    "count_view": 0
  },
  {
    "link_thumb": "https://live.staticflickr.com/65535/50039733941_47c389e95c_n.jpg",
    "id_album": "-1388385651",
    "description": "MilkyWay_555696",
    "title": "MilkyWay_555696",
    "link_img": "https://live.staticflickr.com/65535/50039733941_eb09d7329b_o.jpg",
    "id_image": "MilkyWay_555696",
    "count_view": 0
  },
  {
    "link_thumb": "https://live.staticflickr.com/65535/50040621591_f09628e39d_n.jpg",
    "id_album": "2130067313",
    "description": "Spaceship_278604",
    "title": "Spaceship_278604",
    "link_img": "https://live.staticflickr.com/65535/50040621591_c79d3daf93_o.jpg",
    "id_image": "Spaceship_278604",
    "count_view": 0
  },
  {
    "link_thumb": "https://live.staticflickr.com/65535/50039913597_74a71203a1_n.jpg",
    "id_album": "1204249541",
    "description": "Galaxy_685054",
    "title": "Galaxy_685054",
    "link_img": "https://live.staticflickr.com/65535/50039913597_27abd9c2c6_o.jpg",
    "id_image": "Galaxy_685054",
    "count_view": 0
  },
  {
    "link_thumb": "https://live.staticflickr.com/65535/50039668053_de8a0b79c0_n.jpg",
    "id_album": "-482547208",
    "description": "PostApocalyptic_709120",
    "title": "PostApocalyptic_709120",
    "link_img": "https://live.staticflickr.com/65535/50039668053_f21b51ef70_o.jpg",
    "id_image": "PostApocalyptic_709120",
    "count_view": 0
  },
  {
    "link_thumb": "https://live.staticflickr.com/65535/50040184022_73ae9ce7ca_n.jpg",
    "id_album": "395161030",
    "description": "Planet_220189",
    "title": "Planet_220189",
    "link_img": "https://live.staticflickr.com/65535/50040184022_acfa8eb5ce_o.jpg",
    "id_image": "Planet_220189",
    "count_view": 0
  },
  {
    "link_thumb": "https://live.staticflickr.com/65535/50039794736_6ec3973a96_n.jpg",
    "id_album": "-1610342324",
    "description": "Nebula_421317",
    "title": "Nebula_421317",
    "link_img": "https://live.staticflickr.com/65535/50039794736_cf799e81c7_o.jpg",
    "id_image": "Nebula_421317",
    "count_view": 0
  },
  {
    "link_thumb": "https://live.staticflickr.com/65535/50039691527_bbfc1ffb59_n.jpg",
    "id_album": "406431601",
    "description": "Building_967915",
    "title": "Building_967915",
    "link_img": "https://live.staticflickr.com/65535/50039691527_e9fa28c863_o.jpg",
    "id_image": "Building_967915",
    "count_view": 0
  },
  {
    "link_thumb": "https://live.staticflickr.com/65535/50040183342_531383033e_n.jpg",
    "id_album": "395161030",
    "description": "Planet_206133",
    "title": "Planet_206133",
    "link_img": "https://live.staticflickr.com/65535/50040183342_6aa94bbffa_o.jpg",
    "id_image": "Planet_206133",
    "count_view": 0
  },
  {
    "link_thumb": "https://live.staticflickr.com/65535/50041728607_0f6449b8b0_n.jpg",
    "id_album": "-1261420436",
    "description": "Warrior_501780",
    "title": "Warrior_501780",
    "link_img": "https://live.staticflickr.com/65535/50041728607_080e01eb53_o.jpg",
    "id_image": "Warrior_501780",
    "count_view": 0
  },
  {
    "link_thumb": "https://live.staticflickr.com/65535/50039976428_d5643f899c_n.jpg",
    "id_album": "1613540653",
    "description": "Space_694472",
    "title": "Space_694472",
    "link_img": "https://live.staticflickr.com/65535/50039976428_6f020a2710_o.jpg",
    "id_image": "Space_694472",
    "count_view": 0
  },
  {
    "link_thumb": "https://live.staticflickr.com/65535/50039765096_cc700b1bde_n.jpg",
    "id_album": "-1610342324",
    "description": "Nebula_178027",
    "title": "Nebula_178027",
    "link_img": "https://live.staticflickr.com/65535/50039765096_3e82a1754d_o.jpg",
    "id_image": "Nebula_178027",
    "count_view": 0
  },
  {
    "link_thumb": "https://live.staticflickr.com/65535/50039870392_f09f20aaf3_n.jpg",
    "id_album": "651930207",
    "description": "Explosion_225990",
    "title": "Explosion_225990",
    "link_img": "https://live.staticflickr.com/65535/50039870392_02ac62cb82_o.jpg",
    "id_image": "Explosion_225990",
    "count_view": 0
  },
  {
    "link_thumb": "https://live.staticflickr.com/65535/50041417716_306a5c73bb_n.jpg",
    "id_album": "2020068132",
    "description": "Vehicle_883354",
    "title": "Vehicle_883354",
    "link_img": "https://live.staticflickr.com/65535/50041417716_5fe9f098d1_o.jpg",
    "id_image": "Vehicle_883354",
    "count_view": 0
  },
  {
    "link_thumb": "https://live.staticflickr.com/65535/50039876802_4b8271fb3b_n.jpg",
    "id_album": "2104507156",
    "description": "Fantasy_151078",
    "title": "Fantasy_151078",
    "link_img": "https://live.staticflickr.com/65535/50039876802_611573c519_o.jpg",
    "id_image": "Fantasy_151078",
    "count_view": 0
  },
  {
    "link_thumb": "https://live.staticflickr.com/65535/50039515016_a53b99cc57_n.jpg",
    "id_album": "-1964113117",
    "description": "City_896211",
    "title": "City_896211",
    "link_img": "https://live.staticflickr.com/65535/50039515016_9fab6f53c0_o.jpg",
    "id_image": "City_896211",
    "count_view": 0
  },
  {
    "link_thumb": "https://live.staticflickr.com/65535/50039850246_b8404210aa_n.jpg",
    "id_album": "-1610342324",
    "description": "Nebula_891193",
    "title": "Nebula_891193",
    "link_img": "https://live.staticflickr.com/65535/50039850246_b42f41ebeb_o.jpg",
    "id_image": "Nebula_891193",
    "count_view": 0
  },
  {
    "link_thumb": "https://live.staticflickr.com/65535/50040727772_3c026f59f0_n.jpg",
    "id_album": "1613540653",
    "description": "Space_110229",
    "title": "Space_110229",
    "link_img": "https://live.staticflickr.com/65535/50040727772_dc3a4d2bec_o.jpg",
    "id_image": "Space_110229",
    "count_view": 0
  },
  {
    "link_thumb": "https://live.staticflickr.com/65535/50041026433_d3fee9b958_n.jpg",
    "id_album": "-1675918237",
    "description": "WomenWarrior_551721",
    "title": "WomenWarrior_551721",
    "link_img": "https://live.staticflickr.com/65535/50041026433_95ce8fb518_o.jpg",
    "id_image": "WomenWarrior_551721",
    "count_view": 0
  },
  {
    "link_thumb": "https://live.staticflickr.com/65535/50039972647_6c9230f4f0_n.jpg",
    "id_album": "1402713104",
    "description": "Landscape_83497",
    "title": "Landscape_83497",
    "link_img": "https://live.staticflickr.com/65535/50039972647_8ef947aa43_o.jpg",
    "id_image": "Landscape_83497",
    "count_view": 0
  },
  {
    "link_thumb": "https://live.staticflickr.com/65535/50039792663_393d140357_n.jpg",
    "id_album": "779690680",
    "description": "Robot_616673",
    "title": "Robot_616673",
    "link_img": "https://live.staticflickr.com/65535/50039792663_687689fb38_o.jpg",
    "id_image": "Robot_616673",
    "count_view": 0
  },
  {
    "link_thumb": "https://live.staticflickr.com/65535/50039531502_4008696eff_n.jpg",
    "id_album": "849020728",
    "description": "Alien_540795",
    "title": "Alien_540795",
    "link_img": "https://live.staticflickr.com/65535/50039531502_3e605133dd_o.jpg",
    "id_image": "Alien_540795",
    "count_view": 0
  },
  {
    "link_thumb": "https://live.staticflickr.com/65535/50040144788_94c738a3e7_n.jpg",
    "id_album": "2130067313",
    "description": "Spaceship_446852",
    "title": "Spaceship_446852",
    "link_img": "https://live.staticflickr.com/65535/50040144788_b2d4564bbd_o.jpg",
    "id_image": "Spaceship_446852",
    "count_view": 0
  },
  {
    "link_thumb": "https://live.staticflickr.com/65535/50041498526_6b4df8c911_n.jpg",
    "id_album": "-1261420436",
    "description": "Warrior_992793",
    "title": "Warrior_992793",
    "link_img": "https://live.staticflickr.com/65535/50041498526_1e9bb80b8a_o.jpg",
    "id_image": "Warrior_992793",
    "count_view": 0
  },
  {
    "link_thumb": "https://live.staticflickr.com/65535/50041590426_1cc438f0f6_n.jpg",
    "id_album": "-1675918237",
    "description": "WomenWarrior_920517",
    "title": "WomenWarrior_920517",
    "link_img": "https://live.staticflickr.com/65535/50041590426_5ebf193420_o.jpg",
    "id_image": "WomenWarrior_920517",
    "count_view": 0
  },
  {
    "link_thumb": "https://live.staticflickr.com/65535/50039837656_e4aa0f975e_n.jpg",
    "id_album": "-1610342324",
    "description": "Nebula_792649",
    "title": "Nebula_792649",
    "link_img": "https://live.staticflickr.com/65535/50039837656_5fa5819399_o.jpg",
    "id_image": "Nebula_792649",
    "count_view": 0
  },
  {
    "link_thumb": "https://live.staticflickr.com/65535/50040613762_859be96c2e_n.jpg",
    "id_album": "779690680",
    "description": "Robot_631684",
    "title": "Robot_631684",
    "link_img": "https://live.staticflickr.com/65535/50040613762_967e3c42b8_o.jpg",
    "id_image": "Robot_631684",
    "count_view": 0
  },
  {
    "link_thumb": "https://live.staticflickr.com/65535/50039879588_d370901dae_n.jpg",
    "id_album": "779690680",
    "description": "Robot_937812",
    "title": "Robot_937812",
    "link_img": "https://live.staticflickr.com/65535/50039879588_5b17ba7e15_o.jpg",
    "id_image": "Robot_937812",
    "count_view": 0
  },
  {
    "link_thumb": "https://live.staticflickr.com/65535/50039521777_65efd09eab_n.jpg",
    "id_album": "849020728",
    "description": "Alien_304658",
    "title": "Alien_304658",
    "link_img": "https://live.staticflickr.com/65535/50039521777_4640f500b3_o.jpg",
    "id_image": "Alien_304658",
    "count_view": 0
  },
  {
    "link_thumb": "https://live.staticflickr.com/65535/50039351403_72481bbb3c_n.jpg",
    "id_album": "395161030",
    "description": "Planet_1004885",
    "title": "Planet_1004885",
    "link_img": "https://live.staticflickr.com/65535/50039351403_9f6e816b25_o.jpg",
    "id_image": "Planet_1004885",
    "count_view": 0
  },
  {
    "link_thumb": "https://live.staticflickr.com/65535/50038886143_3a47dd3760_n.jpg",
    "id_album": "-1964113117",
    "description": "City_145430",
    "title": "City_145430",
    "link_img": "https://live.staticflickr.com/65535/50038886143_47014d32b6_o.jpg",
    "id_image": "City_145430",
    "count_view": 0
  },
  {
    "link_thumb": "https://live.staticflickr.com/65535/50039721711_d47b2d461c_n.jpg",
    "id_album": "1402713104",
    "description": "Landscape_912378",
    "title": "Landscape_912378",
    "link_img": "https://live.staticflickr.com/65535/50039721711_7a33306519_o.jpg",
    "id_image": "Landscape_912378",
    "count_view": 0
  },
  {
    "link_thumb": "https://live.staticflickr.com/65535/50038687753_5773180ccc_n.jpg",
    "id_album": "-406145265",
    "description": "Aircraft_267630",
    "title": "Aircraft_267630",
    "link_img": "https://live.staticflickr.com/65535/50038687753_24c1d75268_o.jpg",
    "id_image": "Aircraft_267630",
    "count_view": 0
  },
  {
    "link_thumb": "https://live.staticflickr.com/65535/50040162756_b4730129cd_n.jpg",
    "id_album": "376235057",
    "description": "Planetscape_350751",
    "title": "Planetscape_350751",
    "link_img": "https://live.staticflickr.com/65535/50040162756_1def2662b0_o.jpg",
    "id_image": "Planetscape_350751",
    "count_view": 0
  }
]